{
  "_metadata_": {
    "Source file": "output_variables_dreq01.00.31__BACKUP_26Mar2021_18h26m02sUTC.xlsx", 
    "MIP table": "CFday"
  }, 
  "albisccp": {
    "CMOR Name": "albisccp", 
    "CMOR Name, any freq": "albisccp", 
    "CCCma check": "Jason", 
    "CCCma hist file": "gs", 
    "CCCma hist var names": "ICCA ICCF", 
    "CCCma hist var frequency": "ISRAD", 
    "CCCma TS var name": "ICCA ICCF", 
    "CCCma diag file": "dd", 
    "CCCma units": null, 
    "CCCma optional deck": "cospmask", 
    "CCCma comment": "cpp  use_cosp, COSP namelist", 
    "CCCma NetCDF comment": null, 
    "CCCma target vertical grid": null, 
    "CCCma target horizontal grid": null, 
    "Include only for": null, 
    "Exclude for": null, 
    "long_name": "ISCCP Mean Cloud Albedo", 
    "units": "1", 
    "description": "time-means are weighted by the ISCCP Total Cloud Fraction - see  http://cfmip.metoffice.com/COSP.html", 
    "comment": "ISCCP Mean Cloud Albedo. Time-means are weighted by the ISCCP Total Cloud Fraction {:cltisccp} - see  http://cfmip.metoffice.com/COSP.html", 
    "out_name": "albisccp", 
    "standard_name": "cloud_albedo", 
    "cell_methods": "area: time: mean where cloud", 
    "positive": null, 
    "type": "real", 
    "dimensions": "longitude latitude time", 
    "modeling_realm": "atmos", 
    "frequency": "day", 
    "cell_measures": "area: areacella", 
    "valid_min": null, 
    "valid_max": null, 
    "ok_min_mean_abs": null, 
    "ok_max_mean_abs": null, 
    "priority": 1.0, 
    "MIPs (requesting)": "  CFMIP(1,1,1,1,1), HighResMIP(1,1,1)", 
    "experiments": "  abrupt-4xCO2 (CFMIP:1), amip (CFMIP:1,HighResMIP:1), 1pctCO2 (CFMIP:1), historical (CFMIP:1,HighResMIP:1), piControl (CFMIP:1,HighResMIP:1)"
  }, 
  "ccb": {
    "CMOR Name": "ccb", 
    "CMOR Name, any freq": "ccb", 
    "CCCma check": "Jason", 
    "CCCma hist file": "gs", 
    "CCCma hist var names": "BCD CDCB", 
    "CCCma hist var frequency": "ISRAD", 
    "CCCma TS var name": "BCD CDCB", 
    "CCCma diag file": "dd", 
    "CCCma units": null, 
    "CCCma optional deck": "maskcdcb", 
    "CCCma comment": "cpp   xtraconv", 
    "CCCma NetCDF comment": null, 
    "CCCma target vertical grid": null, 
    "CCCma target horizontal grid": null, 
    "Include only for": null, 
    "Exclude for": null, 
    "long_name": "Air Pressure at Convective Cloud Base", 
    "units": "Pa", 
    "description": "Where convective cloud is present in the grid cell, the instantaneous cloud base altitude should be that of the bottom of the lowest level containing convective cloud. Missing data should be reported in the absence of convective cloud. The time mean should be calculated from these quantities averaging over occasions when convective cloud is present only, and should contain missing data for occasions when no convective cloud is present during the meaning period.", 
    "comment": "Where convective cloud is present in the grid cell, the instantaneous cloud base altitude should be that of the bottom of the lowest level containing convective cloud. Missing data should be reported in the absence of convective cloud. The time mean should be calculated from these quantities averaging over occasions when convective cloud is present only, and should contain missing data for occasions when no convective cloud is present during the meaning period.", 
    "out_name": "ccb", 
    "standard_name": "air_pressure_at_convective_cloud_base", 
    "cell_methods": "area: time: mean", 
    "positive": null, 
    "type": "real", 
    "dimensions": "longitude latitude time", 
    "modeling_realm": "atmos", 
    "frequency": "day", 
    "cell_measures": "area: areacella", 
    "valid_min": null, 
    "valid_max": null, 
    "ok_min_mean_abs": null, 
    "ok_max_mean_abs": null, 
    "priority": 1.0, 
    "MIPs (requesting)": "  CFMIP(1,1,1,1,1), HighResMIP(1,1,1)", 
    "experiments": "  abrupt-4xCO2 (CFMIP:1), amip (CFMIP:1,HighResMIP:1), 1pctCO2 (CFMIP:1), historical (CFMIP:1,HighResMIP:1), piControl (CFMIP:1,HighResMIP:1)"
  }, 
  "cct": {
    "CMOR Name": "cct", 
    "CMOR Name, any freq": "cct", 
    "CCCma check": "Jason", 
    "CCCma hist file": "gs", 
    "CCCma hist var names": "TCD CDCB", 
    "CCCma hist var frequency": "ISRAD", 
    "CCCma TS var name": "TCD CDCB", 
    "CCCma diag file": "dd", 
    "CCCma units": null, 
    "CCCma optional deck": "maskcdcb", 
    "CCCma comment": "cpp   xtraconv", 
    "CCCma NetCDF comment": null, 
    "CCCma target vertical grid": null, 
    "CCCma target horizontal grid": null, 
    "Include only for": null, 
    "Exclude for": null, 
    "long_name": "Air Pressure at Convective Cloud Top", 
    "units": "Pa", 
    "description": "Where convective cloud is present in the grid cell, the instantaneous cloud top altitude should be that of the top of the highest level containing convective cloud. Missing data should be reported in the absence of convective cloud. The time mean should be calculated from these quantities averaging over occasions when convective cloud is present only, and should contain missing data for occasions when no convective cloud is present during the meaning period.", 
    "comment": "Where convective cloud is present in the grid cell, the instantaneous cloud top altitude should be that of the top of the highest level containing convective cloud. Missing data should be reported in the absence of convective cloud. The time mean should be calculated from these quantities averaging over occasions when convective cloud is present only, and should contain missing data for occasions when no convective cloud is present during the meaning period.", 
    "out_name": "cct", 
    "standard_name": "air_pressure_at_convective_cloud_top", 
    "cell_methods": "area: time: mean", 
    "positive": null, 
    "type": "real", 
    "dimensions": "longitude latitude time", 
    "modeling_realm": "atmos", 
    "frequency": "day", 
    "cell_measures": "area: areacella", 
    "valid_min": null, 
    "valid_max": null, 
    "ok_min_mean_abs": null, 
    "ok_max_mean_abs": null, 
    "priority": 1.0, 
    "MIPs (requesting)": "  CFMIP(1,1,1,1,1), HighResMIP(1,1,1)", 
    "experiments": "  abrupt-4xCO2 (CFMIP:1), amip (CFMIP:1,HighResMIP:1), 1pctCO2 (CFMIP:1), historical (CFMIP:1,HighResMIP:1), piControl (CFMIP:1,HighResMIP:1)"
  }, 
  "cl": {
    "CMOR Name": "cl", 
    "CMOR Name, any freq": "cl", 
    "CCCma check": "Jason", 
    "CCCma hist file": "gs", 
    "CCCma hist var names": "CLD", 
    "CCCma hist var frequency": "ISGG", 
    "CCCma TS var name": "CLD", 
    "CCCma diag file": "dsd", 
    "CCCma units": null, 
    "CCCma optional deck": "mltby100", 
    "CCCma comment": null, 
    "CCCma NetCDF comment": null, 
    "CCCma target vertical grid": null, 
    "CCCma target horizontal grid": null, 
    "Include only for": null, 
    "Exclude for": null, 
    "long_name": "Percentage Cloud Cover", 
    "units": "%", 
    "description": "Percentage cloud cover, including both large-scale and convective cloud.", 
    "comment": "Percentage cloud cover, including both large-scale and convective cloud.", 
    "out_name": "cl", 
    "standard_name": "cloud_area_fraction_in_atmosphere_layer", 
    "cell_methods": "area: time: mean", 
    "positive": null, 
    "type": "real", 
    "dimensions": "longitude latitude alevel time", 
    "modeling_realm": "atmos", 
    "frequency": "day", 
    "cell_measures": "area: areacella", 
    "valid_min": null, 
    "valid_max": null, 
    "ok_min_mean_abs": null, 
    "ok_max_mean_abs": null, 
    "priority": 1.0, 
    "MIPs (requesting)": "  CFMIP(1), HighResMIP(1,1,1)", 
    "experiments": "  piControl (HighResMIP:1), historical (HighResMIP:1), amip (CFMIP:1,HighResMIP:1)"
  }, 
  "clcalipso": {
    "CMOR Name": "clcalipso", 
    "CMOR Name, any freq": "clcalipso", 
    "CCCma check": "Jason", 
    "CCCma hist file": "gs", 
    "CCCma hist var names": "CLCP CLCM", 
    "CCCma hist var frequency": "ISRAD", 
    "CCCma TS var name": "CLCP CLCM", 
    "CCCma diag file": "dsd", 
    "CCCma units": null, 
    "CCCma optional deck": "cospmask", 
    "CCCma comment": "cpp   use_cosp, COSP namelist", 
    "CCCma NetCDF comment": null, 
    "CCCma target vertical grid": null, 
    "CCCma target horizontal grid": null, 
    "Include only for": null, 
    "Exclude for": null, 
    "long_name": "CALIPSO Percentage Cloud Cover", 
    "units": "%", 
    "description": "Percentage cloud cover in CALIPSO standard atmospheric layers.", 
    "comment": "Percentage cloud cover in CALIPSO standard atmospheric layers.", 
    "out_name": "clcalipso", 
    "standard_name": "cloud_area_fraction_in_atmosphere_layer", 
    "cell_methods": "time: mean", 
    "positive": null, 
    "type": "real", 
    "dimensions": "longitude latitude alt40 time", 
    "modeling_realm": "atmos", 
    "frequency": "day", 
    "cell_measures": "area: areacella", 
    "valid_min": null, 
    "valid_max": null, 
    "ok_min_mean_abs": null, 
    "ok_max_mean_abs": null, 
    "priority": 1.0, 
    "MIPs (requesting)": "  CFMIP(1), HighResMIP(1,1,1)", 
    "experiments": "  piControl (HighResMIP:1), historical (HighResMIP:1), amip (CFMIP:1,HighResMIP:1)"
  }, 
  "clhcalipso": {
    "CMOR Name": "clhcalipso", 
    "CMOR Name, any freq": "clhcalipso", 
    "CCCma check": "Jason", 
    "CCCma hist file": "gs", 
    "CCCma hist var names": "CLHC CLHM", 
    "CCCma hist var frequency": "ISRAD", 
    "CCCma TS var name": "CLHC CLHM", 
    "CCCma diag file": "dd", 
    "CCCma units": null, 
    "CCCma optional deck": "cospmask", 
    "CCCma comment": "cpp   use_cosp, COSP namelist", 
    "CCCma NetCDF comment": null, 
    "CCCma target vertical grid": null, 
    "CCCma target horizontal grid": null, 
    "Include only for": null, 
    "Exclude for": null, 
    "long_name": "CALIPSO High Level Cloud Area Percentage", 
    "units": "%", 
    "description": "Percentage cloud cover in layer centred on 220hPa", 
    "comment": "Percentage cloud cover in layer centred on 220hPa", 
    "out_name": "clhcalipso", 
    "standard_name": "cloud_area_fraction_in_atmosphere_layer", 
    "cell_methods": "area: time: mean", 
    "positive": null, 
    "type": "real", 
    "dimensions": "longitude latitude time p220", 
    "modeling_realm": "atmos", 
    "frequency": "day", 
    "cell_measures": "area: areacella", 
    "valid_min": null, 
    "valid_max": null, 
    "ok_min_mean_abs": null, 
    "ok_max_mean_abs": null, 
    "priority": 1.0, 
    "MIPs (requesting)": "  CFMIP(1,1,1,1,1), HighResMIP(1,1,1)", 
    "experiments": "  abrupt-4xCO2 (CFMIP:1), amip (CFMIP:1,HighResMIP:1), 1pctCO2 (CFMIP:1), historical (CFMIP:1,HighResMIP:1), piControl (CFMIP:1,HighResMIP:1)"
  }, 
  "cli": {
    "CMOR Name": "cli", 
    "CMOR Name, any freq": "cli", 
    "CCCma check": "Jason", 
    "CCCma hist file": "gs", 
    "CCCma hist var names": "CIC", 
    "CCCma hist var frequency": "ISGG", 
    "CCCma TS var name": "CIC", 
    "CCCma diag file": "dsd", 
    "CCCma units": null, 
    "CCCma optional deck": null, 
    "CCCma comment": null, 
    "CCCma NetCDF comment": null, 
    "CCCma target vertical grid": null, 
    "CCCma target horizontal grid": null, 
    "Include only for": null, 
    "Exclude for": null, 
    "long_name": "Mass Fraction of Cloud Ice", 
    "units": "kg kg-1", 
    "description": "Calculated as the mass of cloud ice  in the grid cell divided by the mass of air (including the water in all phases) in the grid cell.  This includes precipitating hydrometeors ONLY if the precipitating hydrometeors affect the calculation of radiative transfer in model.", 
    "comment": "Includes both large-scale and convective cloud. This is calculated as the mass of cloud ice in the grid cell divided by the mass of air (including the water in all phases) in the grid cell. It includes precipitating hydrometeors ONLY if the precipitating hydrometeors affect the calculation of radiative transfer in model.", 
    "out_name": "cli", 
    "standard_name": "mass_fraction_of_cloud_ice_in_air", 
    "cell_methods": "area: time: mean", 
    "positive": null, 
    "type": "real", 
    "dimensions": "longitude latitude alevel time", 
    "modeling_realm": "atmos", 
    "frequency": "day", 
    "cell_measures": "area: areacella", 
    "valid_min": null, 
    "valid_max": null, 
    "ok_min_mean_abs": null, 
    "ok_max_mean_abs": null, 
    "priority": 1.0, 
    "MIPs (requesting)": "  CFMIP(1), HighResMIP(1,1,1)", 
    "experiments": "  piControl (HighResMIP:1), historical (HighResMIP:1), amip (CFMIP:1,HighResMIP:1)"
  }, 
  "clisccp": {
    "CMOR Name": "clisccp", 
    "CMOR Name, any freq": "clisccp", 
    "CCCma check": "Jason", 
    "CCCma hist file": "gs", 
    "CCCma hist var names": "ICTP SUNL", 
    "CCCma hist var frequency": "ISRAD", 
    "CCCma TS var name": "ICTP SUNL", 
    "CCCma diag file": "dd", 
    "CCCma units": null, 
    "CCCma optional deck": "cospmask_prestau_v2", 
    "CCCma comment": "cpp   use_cosp, COSP namelist", 
    "CCCma NetCDF comment": null, 
    "CCCma target vertical grid": null, 
    "CCCma target horizontal grid": null, 
    "Include only for": null, 
    "Exclude for": null, 
    "long_name": "ISCCP Cloud Area Percentage", 
    "units": "%", 
    "description": "Percentage cloud cover in optical depth categories.", 
    "comment": "Percentage cloud cover in optical depth categories.", 
    "out_name": "clisccp", 
    "standard_name": "cloud_area_fraction_in_atmosphere_layer", 
    "cell_methods": "area: time: mean", 
    "positive": null, 
    "type": "real", 
    "dimensions": "longitude latitude plev7c tau time", 
    "modeling_realm": "atmos", 
    "frequency": "day", 
    "cell_measures": "area: areacella", 
    "valid_min": null, 
    "valid_max": null, 
    "ok_min_mean_abs": null, 
    "ok_max_mean_abs": null, 
    "priority": 1.0, 
    "MIPs (requesting)": "  CFMIP(1), HighResMIP(1,1,1)", 
    "experiments": "  piControl (HighResMIP:1), historical (HighResMIP:1), amip (CFMIP:1,HighResMIP:1)"
  }, 
  "clivi": {
    "CMOR Name": "clivi", 
    "CMOR Name, any freq": "clivi", 
    "CCCma check": "Jason", 
    "CCCma hist file": "gs", 
    "CCCma hist var names": "CICT", 
    "CCCma hist var frequency": "ISRAD", 
    "CCCma TS var name": "CICT", 
    "CCCma diag file": "dd", 
    "CCCma units": null, 
    "CCCma optional deck": null, 
    "CCCma comment": null, 
    "CCCma NetCDF comment": null, 
    "CCCma target vertical grid": null, 
    "CCCma target horizontal grid": null, 
    "Include only for": null, 
    "Exclude for": null, 
    "long_name": "Ice Water Path", 
    "units": "kg m-2", 
    "description": "calculate mass of ice water in the column divided by the area of the column (not just the area of the cloudy portion of the column). This includes precipitating frozen hydrometeors ONLY if the precipitating hydrometeors affect the calculation of radiative transfer in model.", 
    "comment": "mass of ice water in the column divided by the area of the column (not just the area of the cloudy portion of the column). Includes precipitating frozen hydrometeors ONLY if the precipitating hydrometeor affects the calculation of radiative transfer in model.", 
    "out_name": "clivi", 
    "standard_name": "atmosphere_mass_content_of_cloud_ice", 
    "cell_methods": "area: time: mean", 
    "positive": null, 
    "type": "real", 
    "dimensions": "longitude latitude time", 
    "modeling_realm": "atmos", 
    "frequency": "day", 
    "cell_measures": "area: areacella", 
    "valid_min": null, 
    "valid_max": null, 
    "ok_min_mean_abs": null, 
    "ok_max_mean_abs": null, 
    "priority": 1.0, 
    "MIPs (requesting)": "  CFMIP(1,1,1,1,1), HighResMIP(1,1,1)", 
    "experiments": "  abrupt-4xCO2 (CFMIP:1), amip (CFMIP:1,HighResMIP:1), 1pctCO2 (CFMIP:1), historical (CFMIP:1,HighResMIP:1), piControl (CFMIP:1,HighResMIP:1)"
  }, 
  "cllcalipso": {
    "CMOR Name": "cllcalipso", 
    "CMOR Name, any freq": "cllcalipso", 
    "CCCma check": "Jason", 
    "CCCma hist file": "gs", 
    "CCCma hist var names": "CLLC CLLM", 
    "CCCma hist var frequency": "ISRAD", 
    "CCCma TS var name": "CLLC CLLM", 
    "CCCma diag file": "dd", 
    "CCCma units": null, 
    "CCCma optional deck": "cospmask", 
    "CCCma comment": "cpp   use_cosp, COSP namelist", 
    "CCCma NetCDF comment": null, 
    "CCCma target vertical grid": null, 
    "CCCma target horizontal grid": null, 
    "Include only for": null, 
    "Exclude for": null, 
    "long_name": "CALIPSO Low Level Cloud Cover Percentage", 
    "units": "%", 
    "description": "Percentage cloud cover in layer centred on 840hPa", 
    "comment": "Percentage cloud cover in layer centred on 840hPa", 
    "out_name": "cllcalipso", 
    "standard_name": "cloud_area_fraction_in_atmosphere_layer", 
    "cell_methods": "area: time: mean", 
    "positive": null, 
    "type": "real", 
    "dimensions": "longitude latitude time p840", 
    "modeling_realm": "atmos", 
    "frequency": "day", 
    "cell_measures": "area: areacella", 
    "valid_min": null, 
    "valid_max": null, 
    "ok_min_mean_abs": null, 
    "ok_max_mean_abs": null, 
    "priority": 1.0, 
    "MIPs (requesting)": "  CFMIP(1,1,1,1,1), HighResMIP(1,1,1)", 
    "experiments": "  abrupt-4xCO2 (CFMIP:1), amip (CFMIP:1,HighResMIP:1), 1pctCO2 (CFMIP:1), historical (CFMIP:1,HighResMIP:1), piControl (CFMIP:1,HighResMIP:1)"
  }, 
  "clmcalipso": {
    "CMOR Name": "clmcalipso", 
    "CMOR Name, any freq": "clmcalipso", 
    "CCCma check": "Jason", 
    "CCCma hist file": "gs", 
    "CCCma hist var names": "CLMC CLMM", 
    "CCCma hist var frequency": "ISRAD", 
    "CCCma TS var name": "CLMC CLMM", 
    "CCCma diag file": "dd", 
    "CCCma units": null, 
    "CCCma optional deck": "cospmask", 
    "CCCma comment": "cpp   use_cosp, COSP namelist", 
    "CCCma NetCDF comment": null, 
    "CCCma target vertical grid": null, 
    "CCCma target horizontal grid": null, 
    "Include only for": null, 
    "Exclude for": null, 
    "long_name": "CALIPSO Mid Level Cloud Cover Percentage", 
    "units": "%", 
    "description": "Percentage cloud cover in layer centred on 560hPa", 
    "comment": "Percentage cloud cover in layer centred on 560hPa", 
    "out_name": "clmcalipso", 
    "standard_name": "cloud_area_fraction_in_atmosphere_layer", 
    "cell_methods": "area: time: mean", 
    "positive": null, 
    "type": "real", 
    "dimensions": "longitude latitude time p560", 
    "modeling_realm": "atmos", 
    "frequency": "day", 
    "cell_measures": "area: areacella", 
    "valid_min": null, 
    "valid_max": null, 
    "ok_min_mean_abs": null, 
    "ok_max_mean_abs": null, 
    "priority": 1.0, 
    "MIPs (requesting)": "  CFMIP(1,1,1,1,1), HighResMIP(1,1,1)", 
    "experiments": "  abrupt-4xCO2 (CFMIP:1), amip (CFMIP:1,HighResMIP:1), 1pctCO2 (CFMIP:1), historical (CFMIP:1,HighResMIP:1), piControl (CFMIP:1,HighResMIP:1)"
  }, 
  "cltcalipso": {
    "CMOR Name": "cltcalipso", 
    "CMOR Name, any freq": "cltcalipso", 
    "CCCma check": "Jason", 
    "CCCma hist file": "gs", 
    "CCCma hist var names": "CLTC CLTM", 
    "CCCma hist var frequency": "ISRAD", 
    "CCCma TS var name": "CLTC CLTM", 
    "CCCma diag file": "dd", 
    "CCCma units": null, 
    "CCCma optional deck": "cospmask", 
    "CCCma comment": "cpp   use_cosp, COSP namelist", 
    "CCCma NetCDF comment": null, 
    "CCCma target vertical grid": null, 
    "CCCma target horizontal grid": null, 
    "Include only for": null, 
    "Exclude for": null, 
    "long_name": "CALIPSO Total Cloud Cover Percentage", 
    "units": "%", 
    "description": "Total cloud area fraction (reported as a percentage) for the whole atmospheric column, as seen by the  Cloud-Aerosol Lidar and Infrared Pathfinder Satellite Observation (CALIPSO) instrument. Includes both large-scale and convective cloud.", 
    "comment": "Total cloud area fraction (reported as a percentage) for the whole atmospheric column, as seen by the  Cloud-Aerosol Lidar and Infrared Pathfinder Satellite Observation (CALIPSO) instrument. Includes both large-scale and convective cloud.", 
    "out_name": "cltcalipso", 
    "standard_name": "cloud_area_fraction", 
    "cell_methods": "area: time: mean", 
    "positive": null, 
    "type": "real", 
    "dimensions": "longitude latitude time", 
    "modeling_realm": "atmos", 
    "frequency": "day", 
    "cell_measures": "area: areacella", 
    "valid_min": null, 
    "valid_max": null, 
    "ok_min_mean_abs": null, 
    "ok_max_mean_abs": null, 
    "priority": 1.0, 
    "MIPs (requesting)": "  CFMIP(1,1,1,1,1), HighResMIP(1,1,1)", 
    "experiments": "  abrupt-4xCO2 (CFMIP:1), amip (CFMIP:1,HighResMIP:1), 1pctCO2 (CFMIP:1), historical (CFMIP:1,HighResMIP:1), piControl (CFMIP:1,HighResMIP:1)"
  }, 
  "cltisccp": {
    "CMOR Name": "cltisccp", 
    "CMOR Name, any freq": "cltisccp", 
    "CCCma check": "Jason", 
    "CCCma hist file": "gs", 
    "CCCma hist var names": "ICCF SUNL", 
    "CCCma hist var frequency": "ISRAD", 
    "CCCma TS var name": "ICCF SUNL", 
    "CCCma diag file": "dd", 
    "CCCma units": null, 
    "CCCma optional deck": "cospmask", 
    "CCCma comment": "cpp   use_cosp, COSP namelist", 
    "CCCma NetCDF comment": null, 
    "CCCma target vertical grid": null, 
    "CCCma target horizontal grid": null, 
    "Include only for": null, 
    "Exclude for": null, 
    "long_name": "ISCCP Total Cloud Cover Percentage", 
    "units": "%", 
    "description": "Total cloud area fraction (reported as a percentage) for the whole atmospheric column, as seen by the International Satellite Cloud Climatology Project (ISCCP) analysis. Includes both large-scale and convective cloud.  (MODIS). Includes both large-scale and convective cloud.", 
    "comment": "Total cloud area fraction (reported as a percentage) for the whole atmospheric column, as seen by the International Satellite Cloud Climatology Project (ISCCP) analysis. Includes both large-scale and convective cloud.  (MODIS). Includes both large-scale and convective cloud.", 
    "out_name": "cltisccp", 
    "standard_name": "cloud_area_fraction", 
    "cell_methods": "area: time: mean", 
    "positive": null, 
    "type": "real", 
    "dimensions": "longitude latitude time", 
    "modeling_realm": "atmos", 
    "frequency": "day", 
    "cell_measures": "area: areacella", 
    "valid_min": null, 
    "valid_max": null, 
    "ok_min_mean_abs": null, 
    "ok_max_mean_abs": null, 
    "priority": 1.0, 
    "MIPs (requesting)": "  CFMIP(1,1,1,1,1), HighResMIP(1,1,1)", 
    "experiments": "  abrupt-4xCO2 (CFMIP:1), amip (CFMIP:1,HighResMIP:1), 1pctCO2 (CFMIP:1), historical (CFMIP:1,HighResMIP:1), piControl (CFMIP:1,HighResMIP:1)"
  }, 
  "clw": {
    "CMOR Name": "clw", 
    "CMOR Name, any freq": "clw", 
    "CCCma check": "Jason", 
    "CCCma hist file": "gs", 
    "CCCma hist var names": "CLW", 
    "CCCma hist var frequency": "ISGG", 
    "CCCma TS var name": "CLW", 
    "CCCma diag file": "dsd", 
    "CCCma units": null, 
    "CCCma optional deck": null, 
    "CCCma comment": null, 
    "CCCma NetCDF comment": null, 
    "CCCma target vertical grid": null, 
    "CCCma target horizontal grid": null, 
    "Include only for": null, 
    "Exclude for": null, 
    "long_name": "Mass Fraction of Cloud Liquid Water", 
    "units": "kg kg-1", 
    "description": "Calculated as the mass of  cloud liquid water in the grid cell divided by the mass of air (including the water in all phases) in the grid cell.  This includes precipitating hydrometeors ONLY if the precipitating hydrometeors affect the calculation of radiative transfer in model.", 
    "comment": "Includes both large-scale and convective cloud. Calculate as the mass of cloud liquid water in the grid cell divided by the mass of air (including the water in all phases) in the grid cells. Precipitating hydrometeors are included ONLY if the precipitating hydrometeors affect the calculation of radiative transfer in model.", 
    "out_name": "clw", 
    "standard_name": "mass_fraction_of_cloud_liquid_water_in_air", 
    "cell_methods": "area: time: mean", 
    "positive": null, 
    "type": "real", 
    "dimensions": "longitude latitude alevel time", 
    "modeling_realm": "atmos", 
    "frequency": "day", 
    "cell_measures": "area: areacella", 
    "valid_min": null, 
    "valid_max": null, 
    "ok_min_mean_abs": null, 
    "ok_max_mean_abs": null, 
    "priority": 1.0, 
    "MIPs (requesting)": "  CFMIP(1), HighResMIP(1,1,1)", 
    "experiments": "  piControl (HighResMIP:1), historical (HighResMIP:1), amip (CFMIP:1,HighResMIP:1)"
  }, 
  "clwvi": {
    "CMOR Name": "clwvi", 
    "CMOR Name, any freq": "clwvi", 
    "CCCma check": "Jason", 
    "CCCma hist file": "gs", 
    "CCCma hist var names": "CLWT CICT", 
    "CCCma hist var frequency": "ISRAD", 
    "CCCma TS var name": "CLWT CICT", 
    "CCCma diag file": "dd", 
    "CCCma units": null, 
    "CCCma optional deck": "addtwo", 
    "CCCma comment": null, 
    "CCCma NetCDF comment": null, 
    "CCCma target vertical grid": null, 
    "CCCma target horizontal grid": null, 
    "Include only for": null, 
    "Exclude for": null, 
    "long_name": "Condensed Water Path", 
    "units": "kg m-2", 
    "description": "calculate mass of condensed (liquid + ice) water in the column divided by the area of the column (not just the area of the cloudy portion of the column). This includes precipitating hydrometeors ONLY if the precipitating hydrometeors affect the calculation of radiative transfer in model.", 
    "comment": "Mass of condensed (liquid + ice) water in the column divided by the area of the column (not just the area of the cloudy portion of the column). Includes precipitating hydrometeors ONLY if the precipitating hydrometeors affect the calculation of radiative transfer in model.", 
    "out_name": "clwvi", 
    "standard_name": "atmosphere_mass_content_of_cloud_condensed_water", 
    "cell_methods": "area: time: mean", 
    "positive": null, 
    "type": "real", 
    "dimensions": "longitude latitude time", 
    "modeling_realm": "atmos", 
    "frequency": "day", 
    "cell_measures": "area: areacella", 
    "valid_min": null, 
    "valid_max": null, 
    "ok_min_mean_abs": null, 
    "ok_max_mean_abs": null, 
    "priority": 1.0, 
    "MIPs (requesting)": "  CFMIP(1,1,1,1,1), HighResMIP(1,1,1)", 
    "experiments": "  abrupt-4xCO2 (CFMIP:1), amip (CFMIP:1,HighResMIP:1), 1pctCO2 (CFMIP:1), historical (CFMIP:1,HighResMIP:1), piControl (CFMIP:1,HighResMIP:1)"
  }, 
  "hur": {
    "CMOR Name": "hur", 
    "CMOR Name, any freq": "hur", 
    "CCCma check": "Jason", 
    "CCCma hist file": null, 
    "CCCma hist var names": "RH", 
    "CCCma hist var frequency": "ISGG", 
    "CCCma TS var name": "RH", 
    "CCCma diag file": "dsd", 
    "CCCma units": null, 
    "CCCma optional deck": "mltby100", 
    "CCCma comment": "Computed in diagnostics", 
    "CCCma NetCDF comment": null, 
    "CCCma target vertical grid": null, 
    "CCCma target horizontal grid": null, 
    "Include only for": null, 
    "Exclude for": null, 
    "long_name": "Relative Humidity", 
    "units": "%", 
    "description": "This is the relative humidity with respect to liquid water for T> 0 C, and with respect to ice for T<0 C.", 
    "comment": "The relative humidity with respect to liquid water for T> 0 C, and with respect to ice for T<0 C.", 
    "out_name": "hur", 
    "standard_name": "relative_humidity", 
    "cell_methods": "area: time: mean", 
    "positive": null, 
    "type": "real", 
    "dimensions": "longitude latitude alevel time", 
    "modeling_realm": "atmos", 
    "frequency": "day", 
    "cell_measures": "area: areacella", 
    "valid_min": null, 
    "valid_max": null, 
    "ok_min_mean_abs": null, 
    "ok_max_mean_abs": null, 
    "priority": 1.0, 
    "MIPs (requesting)": "  CFMIP(1), HighResMIP(1,1,1)", 
    "experiments": "  piControl (HighResMIP:1), historical (HighResMIP:1), amip (CFMIP:1,HighResMIP:1)"
  }, 
  "hus": {
    "CMOR Name": "hus", 
    "CMOR Name, any freq": "hus", 
    "CCCma check": "Jason", 
    "CCCma hist file": "ss", 
    "CCCma hist var names": "Q", 
    "CCCma hist var frequency": "ISSP", 
    "CCCma TS var name": "SHUM", 
    "CCCma diag file": "dsd", 
    "CCCma units": null, 
    "CCCma optional deck": null, 
    "CCCma comment": null, 
    "CCCma NetCDF comment": null, 
    "CCCma target vertical grid": null, 
    "CCCma target horizontal grid": null, 
    "Include only for": null, 
    "Exclude for": null, 
    "long_name": "Specific Humidity", 
    "units": "1", 
    "description": "Specific humidity is the mass fraction of water vapor in (moist) air.", 
    "comment": "Specific humidity is the mass fraction of water vapor in (moist) air.", 
    "out_name": "hus", 
    "standard_name": "specific_humidity", 
    "cell_methods": "area: time: mean", 
    "positive": null, 
    "type": "real", 
    "dimensions": "longitude latitude alevel time", 
    "modeling_realm": "atmos", 
    "frequency": "day", 
    "cell_measures": "area: areacella", 
    "valid_min": null, 
    "valid_max": null, 
    "ok_min_mean_abs": null, 
    "ok_max_mean_abs": null, 
    "priority": 1.0, 
    "MIPs (requesting)": "  CFMIP(1), HighResMIP(1,1,1)", 
    "experiments": "  piControl (HighResMIP:1), historical (HighResMIP:1), amip (CFMIP:1,HighResMIP:1)"
  }, 
  "mc": {
    "CMOR Name": "mc", 
    "CMOR Name, any freq": "mc", 
    "CCCma check": "Jason", 
    "CCCma hist file": "gs", 
    "CCCma hist var names": "DMC", 
    "CCCma hist var frequency": "ISRAD", 
    "CCCma TS var name": "DMC", 
    "CCCma diag file": "dsd", 
    "CCCma units": null, 
    "CCCma optional deck": null, 
    "CCCma comment": null, 
    "CCCma NetCDF comment": null, 
    "CCCma target vertical grid": null, 
    "CCCma target horizontal grid": null, 
    "Include only for": null, 
    "Exclude for": null, 
    "long_name": "Convective Mass Flux", 
    "units": "kg m-2 s-1", 
    "description": "The net mass flux should represent the difference between the updraft and downdraft components.  This is calculated as the convective mass flux divided by the area of the whole grid cell (not just the area of the cloud).", 
    "comment": "The net mass flux should represent the difference between the updraft and downdraft components.  The flux is computed as the mass divided by the area of the grid cell.", 
    "out_name": "mc", 
    "standard_name": "atmosphere_net_upward_convective_mass_flux", 
    "cell_methods": "area: time: mean", 
    "positive": "up", 
    "type": "real", 
    "dimensions": "longitude latitude alevhalf time", 
    "modeling_realm": "atmos", 
    "frequency": "day", 
    "cell_measures": "area: areacella", 
    "valid_min": null, 
    "valid_max": null, 
    "ok_min_mean_abs": null, 
    "ok_max_mean_abs": null, 
    "priority": 1.0, 
    "MIPs (requesting)": "  CFMIP(1), HighResMIP(1,1,1)", 
    "experiments": "  piControl (HighResMIP:1), historical (HighResMIP:1), amip (CFMIP:1,HighResMIP:1)"
  }, 
  "pctisccp": {
    "CMOR Name": "pctisccp", 
    "CMOR Name, any freq": "pctisccp", 
    "CCCma check": "Jason", 
    "CCCma hist file": "gs", 
    "CCCma hist var names": "ICCP ICCF", 
    "CCCma hist var frequency": "ISRAD", 
    "CCCma TS var name": "ICCP ICCF", 
    "CCCma diag file": "dd", 
    "CCCma units": null, 
    "CCCma optional deck": "cospmask", 
    "CCCma comment": "cpp   use_cosp, COSP namelist", 
    "CCCma NetCDF comment": null, 
    "CCCma target vertical grid": null, 
    "CCCma target horizontal grid": null, 
    "Include only for": null, 
    "Exclude for": null, 
    "long_name": "ISCCP Mean Cloud Top Pressure", 
    "units": "Pa", 
    "description": "time-means are weighted by the ISCCP Total Cloud Fraction - see  http://cfmip.metoffice.com/COSP.html", 
    "comment": "ISCCP Mean Cloud Top Pressure. Time-means are weighted by the ISCCP Total Cloud Fraction {:cltisccp} - see  http://cfmip.metoffice.com/COSP.html", 
    "out_name": "pctisccp", 
    "standard_name": "air_pressure_at_cloud_top", 
    "cell_methods": "area: time: mean where cloud", 
    "positive": null, 
    "type": "real", 
    "dimensions": "longitude latitude time", 
    "modeling_realm": "atmos", 
    "frequency": "day", 
    "cell_measures": "area: areacella", 
    "valid_min": null, 
    "valid_max": null, 
    "ok_min_mean_abs": null, 
    "ok_max_mean_abs": null, 
    "priority": 1.0, 
    "MIPs (requesting)": "  CFMIP(1,1,1,1,1), HighResMIP(1,1,1)", 
    "experiments": "  abrupt-4xCO2 (CFMIP:1), amip (CFMIP:1,HighResMIP:1), 1pctCO2 (CFMIP:1), historical (CFMIP:1,HighResMIP:1), piControl (CFMIP:1,HighResMIP:1)"
  }, 
  "pfull": {
    "CMOR Name": "pfull", 
    "CMOR Name, any freq": "pfull", 
    "CCCma check": null, 
    "CCCma hist file": null, 
    "CCCma hist var names": null, 
    "CCCma hist var frequency": null, 
    "CCCma TS var name": null, 
    "CCCma diag file": null, 
    "CCCma units": null, 
    "CCCma optional deck": null, 
    "CCCma comment": null, 
    "CCCma NetCDF comment": null, 
    "CCCma target vertical grid": null, 
    "CCCma target horizontal grid": null, 
    "Include only for": null, 
    "Exclude for": null, 
    "long_name": "Pressure at Model Full-Levels", 
    "units": "Pa", 
    "description": "Air pressure on model levels", 
    "comment": "Air pressure on model levels", 
    "out_name": "pfull", 
    "standard_name": "air_pressure", 
    "cell_methods": "area: time: mean", 
    "positive": null, 
    "type": "real", 
    "dimensions": "longitude latitude alevel time", 
    "modeling_realm": "atmos", 
    "frequency": "day", 
    "cell_measures": "area: areacella", 
    "valid_min": null, 
    "valid_max": null, 
    "ok_min_mean_abs": null, 
    "ok_max_mean_abs": null, 
    "priority": 1.0, 
    "MIPs (requesting)": "  CFMIP(1), HighResMIP(1,1,1)", 
    "experiments": "  piControl (HighResMIP:1), historical (HighResMIP:1), amip (CFMIP:1,HighResMIP:1)"
  }, 
  "phalf": {
    "CMOR Name": "phalf", 
    "CMOR Name, any freq": "phalf", 
    "CCCma check": null, 
    "CCCma hist file": null, 
    "CCCma hist var names": null, 
    "CCCma hist var frequency": null, 
    "CCCma TS var name": null, 
    "CCCma diag file": null, 
    "CCCma units": null, 
    "CCCma optional deck": null, 
    "CCCma comment": null, 
    "CCCma NetCDF comment": null, 
    "CCCma target vertical grid": null, 
    "CCCma target horizontal grid": null, 
    "Include only for": null, 
    "Exclude for": null, 
    "long_name": "Pressure on Model Half-Levels", 
    "units": "Pa", 
    "description": "Air pressure on model half-levels", 
    "comment": "Air pressure on model half-levels", 
    "out_name": "phalf", 
    "standard_name": "air_pressure", 
    "cell_methods": "area: time: mean", 
    "positive": null, 
    "type": "real", 
    "dimensions": "longitude latitude alevhalf time", 
    "modeling_realm": "atmos", 
    "frequency": "day", 
    "cell_measures": "area: areacella", 
    "valid_min": null, 
    "valid_max": null, 
    "ok_min_mean_abs": null, 
    "ok_max_mean_abs": null, 
    "priority": 1.0, 
    "MIPs (requesting)": "  CFMIP(1), HighResMIP(1,1,1)", 
    "experiments": "  piControl (HighResMIP:1), historical (HighResMIP:1), amip (CFMIP:1,HighResMIP:1)"
  }, 
  "ps": {
    "CMOR Name": "ps", 
    "CMOR Name, any freq": "ps", 
    "CCCma check": "Jason", 
    "CCCma hist file": null, 
    "CCCma hist var names": null, 
    "CCCma hist var frequency": null, 
    "CCCma TS var name": "PS", 
    "CCCma diag file": "dsd", 
    "CCCma units": null, 
    "CCCma optional deck": "mltby100", 
    "CCCma comment": null, 
    "CCCma NetCDF comment": null, 
    "CCCma target vertical grid": null, 
    "CCCma target horizontal grid": null, 
    "Include only for": null, 
    "Exclude for": null, 
    "long_name": "Surface Air Pressure", 
    "units": "Pa", 
    "description": "surface pressure (not mean sea-level pressure), 2-D field to calculate the 3-D pressure field from hybrid coordinates", 
    "comment": "surface pressure (not mean sea-level pressure), 2-D field to calculate the 3-D pressure field from hybrid coordinates", 
    "out_name": "ps", 
    "standard_name": "surface_air_pressure", 
    "cell_methods": "area: time: mean", 
    "positive": null, 
    "type": "real", 
    "dimensions": "longitude latitude time", 
    "modeling_realm": "atmos", 
    "frequency": "day", 
    "cell_measures": "area: areacella", 
    "valid_min": null, 
    "valid_max": null, 
    "ok_min_mean_abs": null, 
    "ok_max_mean_abs": null, 
    "priority": 1.0, 
    "MIPs (requesting)": "  AerChemMIP(1,1), CFMIP(1,1,1,1,1), HighResMIP(1,1,1), VolMIP(1)", 
    "experiments": "  abrupt-4xCO2 (CFMIP:1), amip (AerChemMIP:1,CFMIP:1,HighResMIP:1), 1pctCO2 (CFMIP:1), historical (AerChemMIP:1,CFMIP:1,HighResMIP:1), piControl (CFMIP:1,HighResMIP:1,VolMIP:1)"
  }, 
  "rldscs": {
    "CMOR Name": "rldscs", 
    "CMOR Name, any freq": "rldscs", 
    "CCCma check": "Jason", 
    "CCCma hist file": "gs", 
    "CCCma hist var names": "FDLC", 
    "CCCma hist var frequency": "ISRAD", 
    "CCCma TS var name": "FDLC", 
    "CCCma diag file": "dd", 
    "CCCma units": null, 
    "CCCma optional deck": null, 
    "CCCma comment": null, 
    "CCCma NetCDF comment": null, 
    "CCCma target vertical grid": null, 
    "CCCma target horizontal grid": null, 
    "Include only for": null, 
    "Exclude for": null, 
    "long_name": "Surface Downwelling Clear-Sky Longwave Radiation", 
    "units": "W m-2", 
    "description": "Surface downwelling clear-sky longwave radiation", 
    "comment": "Surface downwelling clear-sky longwave radiation", 
    "out_name": "rldscs", 
    "standard_name": "surface_downwelling_longwave_flux_in_air_assuming_clear_sky", 
    "cell_methods": "area: time: mean", 
    "positive": "down", 
    "type": "real", 
    "dimensions": "longitude latitude time", 
    "modeling_realm": "atmos", 
    "frequency": "day", 
    "cell_measures": "area: areacella", 
    "valid_min": null, 
    "valid_max": null, 
    "ok_min_mean_abs": null, 
    "ok_max_mean_abs": null, 
    "priority": 1.0, 
    "MIPs (requesting)": "  CFMIP(1,1,1,1,1), HighResMIP(1,1,1)", 
    "experiments": "  abrupt-4xCO2 (CFMIP:1), amip (CFMIP:1,HighResMIP:1), 1pctCO2 (CFMIP:1), historical (CFMIP:1,HighResMIP:1), piControl (CFMIP:1,HighResMIP:1)"
  }, 
  "rlutcs": {
    "CMOR Name": "rlutcs", 
    "CMOR Name, any freq": "rlutcs", 
    "CCCma check": "Jason", 
    "CCCma hist file": "gs", 
    "CCCma hist var names": "OLRC", 
    "CCCma hist var frequency": "ISRAD", 
    "CCCma TS var name": "OLRC", 
    "CCCma diag file": "dd", 
    "CCCma units": null, 
    "CCCma optional deck": null, 
    "CCCma comment": null, 
    "CCCma NetCDF comment": null, 
    "CCCma target vertical grid": null, 
    "CCCma target horizontal grid": null, 
    "Include only for": null, 
    "Exclude for": null, 
    "long_name": "TOA Outgoing Clear-Sky Longwave Radiation", 
    "units": "W m-2", 
    "description": "Upwelling clear-sky longwave radiation at top of atmosphere", 
    "comment": "Upwelling clear-sky longwave radiation at top of atmosphere", 
    "out_name": "rlutcs", 
    "standard_name": "toa_outgoing_longwave_flux_assuming_clear_sky", 
    "cell_methods": "area: time: mean", 
    "positive": "up", 
    "type": "real", 
    "dimensions": "longitude latitude time", 
    "modeling_realm": "atmos", 
    "frequency": "day", 
    "cell_measures": "area: areacella", 
    "valid_min": null, 
    "valid_max": null, 
    "ok_min_mean_abs": null, 
    "ok_max_mean_abs": null, 
    "priority": 1.0, 
    "MIPs (requesting)": "  CFMIP(1,1,1,1,1), HighResMIP(1,1,1)", 
    "experiments": "  abrupt-4xCO2 (CFMIP:1), amip (CFMIP:1,HighResMIP:1), 1pctCO2 (CFMIP:1), historical (CFMIP:1,HighResMIP:1), piControl (CFMIP:1,HighResMIP:1)"
  }, 
  "rsdscs": {
    "CMOR Name": "rsdscs", 
    "CMOR Name, any freq": "rsdscs", 
    "CCCma check": "Jason", 
    "CCCma hist file": "gs", 
    "CCCma hist var names": "FSSC", 
    "CCCma hist var frequency": "ISRAD", 
    "CCCma TS var name": "FSSC", 
    "CCCma diag file": "dd", 
    "CCCma units": null, 
    "CCCma optional deck": null, 
    "CCCma comment": null, 
    "CCCma NetCDF comment": null, 
    "CCCma target vertical grid": null, 
    "CCCma target horizontal grid": null, 
    "Include only for": null, 
    "Exclude for": null, 
    "long_name": "Surface Downwelling Clear-Sky Shortwave Radiation", 
    "units": "W m-2", 
    "description": "Surface solar irradiance clear sky for UV calculations", 
    "comment": "Surface solar irradiance clear sky for UV calculations", 
    "out_name": "rsdscs", 
    "standard_name": "surface_downwelling_shortwave_flux_in_air_assuming_clear_sky", 
    "cell_methods": "area: time: mean", 
    "positive": "down", 
    "type": "real", 
    "dimensions": "longitude latitude time", 
    "modeling_realm": "atmos", 
    "frequency": "day", 
    "cell_measures": "area: areacella", 
    "valid_min": null, 
    "valid_max": null, 
    "ok_min_mean_abs": null, 
    "ok_max_mean_abs": null, 
    "priority": 1.0, 
    "MIPs (requesting)": "  AerChemMIP(1,1), CFMIP(1,1,1,1,1), HighResMIP(1,1,1)", 
    "experiments": "  abrupt-4xCO2 (CFMIP:1), amip (AerChemMIP:1,CFMIP:1,HighResMIP:1), 1pctCO2 (CFMIP:1), historical (AerChemMIP:1,CFMIP:1,HighResMIP:1), piControl (CFMIP:1,HighResMIP:1)"
  }, 
  "rsdt": {
    "CMOR Name": "rsdt", 
    "CMOR Name, any freq": "rsdt", 
    "CCCma check": "Jason", 
    "CCCma hist file": "gs", 
    "CCCma hist var names": "FSO", 
    "CCCma hist var frequency": "ISRAD", 
    "CCCma TS var name": "FSO", 
    "CCCma diag file": "dd", 
    "CCCma units": null, 
    "CCCma optional deck": null, 
    "CCCma comment": null, 
    "CCCma NetCDF comment": null, 
    "CCCma target vertical grid": null, 
    "CCCma target horizontal grid": null, 
    "Include only for": null, 
    "Exclude for": null, 
    "long_name": "TOA Incident Shortwave Radiation", 
    "units": "W m-2", 
    "description": "Shortwave radiation incident at the top of the atmosphere", 
    "comment": "Shortwave radiation incident at the top of the atmosphere", 
    "out_name": "rsdt", 
    "standard_name": "toa_incoming_shortwave_flux", 
    "cell_methods": "area: time: mean", 
    "positive": "down", 
    "type": "real", 
    "dimensions": "longitude latitude time", 
    "modeling_realm": "atmos", 
    "frequency": "day", 
    "cell_measures": "area: areacella", 
    "valid_min": null, 
    "valid_max": null, 
    "ok_min_mean_abs": null, 
    "ok_max_mean_abs": null, 
    "priority": 1.0, 
    "MIPs (requesting)": "  CFMIP(1,1,1,1,1), DCPP(3), HighResMIP(1,1,1), PAMIP(3)", 
    "experiments": "  abrupt-4xCO2 (CFMIP:1), amip (CFMIP:1,HighResMIP:1), 1pctCO2 (CFMIP:1), historical (CFMIP:1,HighResMIP:1,DCPP:3,PAMIP:3), piControl (CFMIP:1,HighResMIP:1)"
  }, 
  "rsuscs": {
    "CMOR Name": "rsuscs", 
    "CMOR Name, any freq": "rsuscs", 
    "CCCma check": "Jason", 
    "CCCma hist file": "gs", 
    "CCCma hist var names": "FSSC FSGC", 
    "CCCma hist var frequency": "ISRAD", 
    "CCCma TS var name": "FSSC FSGC", 
    "CCCma diag file": "dd", 
    "CCCma units": null, 
    "CCCma optional deck": "subtract", 
    "CCCma comment": null, 
    "CCCma NetCDF comment": null, 
    "CCCma target vertical grid": null, 
    "CCCma target horizontal grid": null, 
    "Include only for": null, 
    "Exclude for": null, 
    "long_name": "Surface Upwelling Clear-Sky Shortwave Radiation", 
    "units": "W m-2", 
    "description": "Surface Upwelling Clear-sky Shortwave Radiation", 
    "comment": "Surface Upwelling Clear-sky Shortwave Radiation", 
    "out_name": "rsuscs", 
    "standard_name": "surface_upwelling_shortwave_flux_in_air_assuming_clear_sky", 
    "cell_methods": "area: time: mean", 
    "positive": "up", 
    "type": "real", 
    "dimensions": "longitude latitude time", 
    "modeling_realm": "atmos", 
    "frequency": "day", 
    "cell_measures": "area: areacella", 
    "valid_min": null, 
    "valid_max": null, 
    "ok_min_mean_abs": null, 
    "ok_max_mean_abs": null, 
    "priority": 1.0, 
    "MIPs (requesting)": "  CFMIP(1,1,1,1,1), HighResMIP(1,1,1)", 
    "experiments": "  abrupt-4xCO2 (CFMIP:1), amip (CFMIP:1,HighResMIP:1), 1pctCO2 (CFMIP:1), historical (CFMIP:1,HighResMIP:1), piControl (CFMIP:1,HighResMIP:1)"
  }, 
  "rsut": {
    "CMOR Name": "rsut", 
    "CMOR Name, any freq": "rsut", 
    "CCCma check": "Jason", 
    "CCCma hist file": "gs", 
    "CCCma hist var names": "FSR", 
    "CCCma hist var frequency": "ISRAD", 
    "CCCma TS var name": "FSR", 
    "CCCma diag file": "dd", 
    "CCCma units": null, 
    "CCCma optional deck": null, 
    "CCCma comment": null, 
    "CCCma NetCDF comment": null, 
    "CCCma target vertical grid": null, 
    "CCCma target horizontal grid": null, 
    "Include only for": null, 
    "Exclude for": null, 
    "long_name": "TOA Outgoing Shortwave Radiation", 
    "units": "W m-2", 
    "description": "at the top of the atmosphere", 
    "comment": "at the top of the atmosphere", 
    "out_name": "rsut", 
    "standard_name": "toa_outgoing_shortwave_flux", 
    "cell_methods": "area: time: mean", 
    "positive": "up", 
    "type": "real", 
    "dimensions": "longitude latitude time", 
    "modeling_realm": "atmos", 
    "frequency": "day", 
    "cell_measures": "area: areacella", 
    "valid_min": null, 
    "valid_max": null, 
    "ok_min_mean_abs": null, 
    "ok_max_mean_abs": null, 
    "priority": 1.0, 
    "MIPs (requesting)": "  CFMIP(1,1,1,1,1), DCPP(3), HighResMIP(1,1,1), PAMIP(3)", 
    "experiments": "  abrupt-4xCO2 (CFMIP:1), amip (CFMIP:1,HighResMIP:1), 1pctCO2 (CFMIP:1), historical (CFMIP:1,HighResMIP:1,DCPP:3,PAMIP:3), piControl (CFMIP:1,HighResMIP:1)"
  }, 
  "rsutcs": {
    "CMOR Name": "rsutcs", 
    "CMOR Name, any freq": "rsutcs", 
    "CCCma check": "Jason", 
    "CCCma hist file": "gs", 
    "CCCma hist var names": "FSRC", 
    "CCCma hist var frequency": "ISRAD", 
    "CCCma TS var name": "FSRC", 
    "CCCma diag file": "dd", 
    "CCCma units": null, 
    "CCCma optional deck": null, 
    "CCCma comment": null, 
    "CCCma NetCDF comment": null, 
    "CCCma target vertical grid": null, 
    "CCCma target horizontal grid": null, 
    "Include only for": null, 
    "Exclude for": null, 
    "long_name": "TOA Outgoing Clear-Sky Shortwave Radiation", 
    "units": "W m-2", 
    "description": "Calculated in the absence of clouds.", 
    "comment": "Calculated in the absence of clouds.", 
    "out_name": "rsutcs", 
    "standard_name": "toa_outgoing_shortwave_flux_assuming_clear_sky", 
    "cell_methods": "area: time: mean", 
    "positive": "up", 
    "type": "real", 
    "dimensions": "longitude latitude time", 
    "modeling_realm": "atmos", 
    "frequency": "day", 
    "cell_measures": "area: areacella", 
    "valid_min": null, 
    "valid_max": null, 
    "ok_min_mean_abs": null, 
    "ok_max_mean_abs": null, 
    "priority": 1.0, 
    "MIPs (requesting)": "  CFMIP(1,1,1,1,1), HighResMIP(1,1,1)", 
    "experiments": "  abrupt-4xCO2 (CFMIP:1), amip (CFMIP:1,HighResMIP:1), 1pctCO2 (CFMIP:1), historical (CFMIP:1,HighResMIP:1), piControl (CFMIP:1,HighResMIP:1)"
  }, 
  "ta": {
    "CMOR Name": "ta", 
    "CMOR Name, any freq": "ta", 
    "CCCma check": "Jason", 
    "CCCma hist file": "ss", 
    "CCCma hist var names": "TEMP", 
    "CCCma hist var frequency": "ISSP", 
    "CCCma TS var name": "TEMP", 
    "CCCma diag file": "dsd", 
    "CCCma units": null, 
    "CCCma optional deck": null, 
    "CCCma comment": null, 
    "CCCma NetCDF comment": null, 
    "CCCma target vertical grid": null, 
    "CCCma target horizontal grid": null, 
    "Include only for": null, 
    "Exclude for": null, 
    "long_name": "Air Temperature", 
    "units": "K", 
    "description": "Air Temperature", 
    "comment": "Air Temperature", 
    "out_name": "ta", 
    "standard_name": "air_temperature", 
    "cell_methods": "area: time: mean", 
    "positive": null, 
    "type": "real", 
    "dimensions": "longitude latitude alevel time", 
    "modeling_realm": "atmos", 
    "frequency": "day", 
    "cell_measures": "area: areacella", 
    "valid_min": null, 
    "valid_max": null, 
    "ok_min_mean_abs": null, 
    "ok_max_mean_abs": null, 
    "priority": 1.0, 
    "MIPs (requesting)": "  CFMIP(1), HighResMIP(1,1,1)", 
    "experiments": "  piControl (HighResMIP:1), historical (HighResMIP:1), amip (CFMIP:1,HighResMIP:1)"
  }, 
  "ta700": {
    "CMOR Name": "ta700", 
    "CMOR Name, any freq": "ta700", 
    "CCCma check": "Jason", 
    "CCCma hist file": "ss", 
    "CCCma hist var names": "TEMP", 
    "CCCma hist var frequency": "ISSP", 
    "CCCma TS var name": "TEMP", 
    "CCCma diag file": "dp", 
    "CCCma units": null, 
    "CCCma optional deck": null, 
    "CCCma comment": null, 
    "CCCma NetCDF comment": null, 
    "CCCma target vertical grid": null, 
    "CCCma target horizontal grid": null, 
    "Include only for": null, 
    "Exclude for": null, 
    "long_name": "Air Temperature", 
    "units": "K", 
    "description": "Air temperature at 700hPa", 
    "comment": "Air temperature at 700hPa", 
    "out_name": "ta700", 
    "standard_name": "air_temperature", 
    "cell_methods": "area: time: mean", 
    "positive": null, 
    "type": "real", 
    "dimensions": "longitude latitude time p700", 
    "modeling_realm": "atmos", 
    "frequency": "day", 
    "cell_measures": "area: areacella", 
    "valid_min": null, 
    "valid_max": null, 
    "ok_min_mean_abs": null, 
    "ok_max_mean_abs": null, 
    "priority": 1.0, 
    "MIPs (requesting)": "  CFMIP(1,1,1,1,1), HighResMIP(1,1,1)", 
    "experiments": "  abrupt-4xCO2 (CFMIP:1), amip (CFMIP:1,HighResMIP:1), 1pctCO2 (CFMIP:1), historical (CFMIP:1,HighResMIP:1), piControl (CFMIP:1,HighResMIP:1)"
  }, 
  "ua": {
    "CMOR Name": "ua", 
    "CMOR Name, any freq": "ua", 
    "CCCma check": "Jason", 
    "CCCma hist file": "ss", 
    "CCCma hist var names": "P C", 
    "CCCma hist var frequency": "ISSP", 
    "CCCma TS var name": "U", 
    "CCCma diag file": "dsd", 
    "CCCma units": null, 
    "CCCma optional deck": null, 
    "CCCma comment": null, 
    "CCCma NetCDF comment": null, 
    "CCCma target vertical grid": null, 
    "CCCma target horizontal grid": null, 
    "Include only for": null, 
    "Exclude for": null, 
    "long_name": "Eastward Wind", 
    "units": "m s-1", 
    "description": "Zonal wind (positive in a eastward direction).", 
    "comment": "Zonal wind (positive in a eastward direction).", 
    "out_name": "ua", 
    "standard_name": "eastward_wind", 
    "cell_methods": "area: time: mean", 
    "positive": null, 
    "type": "real", 
    "dimensions": "longitude latitude alevel time", 
    "modeling_realm": "atmos", 
    "frequency": "day", 
    "cell_measures": "area: areacella", 
    "valid_min": null, 
    "valid_max": null, 
    "ok_min_mean_abs": null, 
    "ok_max_mean_abs": null, 
    "priority": 1.0, 
    "MIPs (requesting)": "  CFMIP(1), HighResMIP(1,1,1)", 
    "experiments": "  piControl (HighResMIP:1), historical (HighResMIP:1), amip (CFMIP:1,HighResMIP:1)"
  }, 
  "va": {
    "CMOR Name": "va", 
    "CMOR Name, any freq": "va", 
    "CCCma check": "Jason", 
    "CCCma hist file": "ss", 
    "CCCma hist var names": "P C", 
    "CCCma hist var frequency": "ISSP", 
    "CCCma TS var name": "V", 
    "CCCma diag file": "dsd", 
    "CCCma units": null, 
    "CCCma optional deck": null, 
    "CCCma comment": null, 
    "CCCma NetCDF comment": null, 
    "CCCma target vertical grid": null, 
    "CCCma target horizontal grid": null, 
    "Include only for": null, 
    "Exclude for": null, 
    "long_name": "Northward Wind", 
    "units": "m s-1", 
    "description": "Meridional wind (positive in a northward direction).", 
    "comment": "Meridional wind (positive in a northward direction).", 
    "out_name": "va", 
    "standard_name": "northward_wind", 
    "cell_methods": "area: time: mean", 
    "positive": null, 
    "type": "real", 
    "dimensions": "longitude latitude alevel time", 
    "modeling_realm": "atmos", 
    "frequency": "day", 
    "cell_measures": "area: areacella", 
    "valid_min": null, 
    "valid_max": null, 
    "ok_min_mean_abs": null, 
    "ok_max_mean_abs": null, 
    "priority": 1.0, 
    "MIPs (requesting)": "  CFMIP(1), HighResMIP(1,1,1)", 
    "experiments": "  piControl (HighResMIP:1), historical (HighResMIP:1), amip (CFMIP:1,HighResMIP:1)"
  }, 
  "wap": {
    "CMOR Name": "wap", 
    "CMOR Name, any freq": "wap", 
    "CCCma check": "Jason", 
    "CCCma hist file": "gs", 
    "CCCma hist var names": "OMET", 
    "CCCma hist var frequency": "ISGG", 
    "CCCma TS var name": "OMET", 
    "CCCma diag file": "dsd", 
    "CCCma units": null, 
    "CCCma optional deck": null, 
    "CCCma comment": null, 
    "CCCma NetCDF comment": null, 
    "CCCma target vertical grid": null, 
    "CCCma target horizontal grid": null, 
    "Include only for": null, 
    "Exclude for": null, 
    "long_name": "Omega (=dp/dt)", 
    "units": "Pa s-1", 
    "description": "commonly referred to as \"omega\", this represents the vertical component of velocity in pressure coordinates (positive down)", 
    "comment": "Omega (vertical velocity in pressure coordinates, positive downwards)", 
    "out_name": "wap", 
    "standard_name": "lagrangian_tendency_of_air_pressure", 
    "cell_methods": "area: time: mean", 
    "positive": null, 
    "type": "real", 
    "dimensions": "longitude latitude alevel time", 
    "modeling_realm": "atmos", 
    "frequency": "day", 
    "cell_measures": "area: areacella", 
    "valid_min": null, 
    "valid_max": null, 
    "ok_min_mean_abs": null, 
    "ok_max_mean_abs": null, 
    "priority": 1.0, 
    "MIPs (requesting)": "  CFMIP(1), HighResMIP(1,1,1)", 
    "experiments": "  piControl (HighResMIP:1), historical (HighResMIP:1), amip (CFMIP:1,HighResMIP:1)"
  }, 
  "wap500": {
    "CMOR Name": "wap500", 
    "CMOR Name, any freq": "wap500", 
    "CCCma check": "Jason", 
    "CCCma hist file": "gs", 
    "CCCma hist var names": "OMEG", 
    "CCCma hist var frequency": "ISGG", 
    "CCCma TS var name": "OMEG", 
    "CCCma diag file": "dp", 
    "CCCma units": null, 
    "CCCma optional deck": null, 
    "CCCma comment": null, 
    "CCCma NetCDF comment": null, 
    "CCCma target vertical grid": null, 
    "CCCma target horizontal grid": null, 
    "Include only for": null, 
    "Exclude for": null, 
    "long_name": "Pressure Tendency", 
    "units": "Pa s-1", 
    "description": "at 500 hPa level; commonly referred to as \"omega\", this represents the vertical component of velocity in pressure coordinates (positive down)", 
    "comment": "Omega (vertical velocity in pressure coordinates, positive downwards) at 500hPa level;", 
    "out_name": "wap500", 
    "standard_name": "lagrangian_tendency_of_air_pressure", 
    "cell_methods": "area: time: mean", 
    "positive": null, 
    "type": "real", 
    "dimensions": "longitude latitude time p500", 
    "modeling_realm": "atmos", 
    "frequency": "day", 
    "cell_measures": "area: areacella", 
    "valid_min": null, 
    "valid_max": null, 
    "ok_min_mean_abs": null, 
    "ok_max_mean_abs": null, 
    "priority": 1.0, 
    "MIPs (requesting)": "  CFMIP(1,1,1,1,1), HighResMIP(1,1,1), PMIP(1,1,1,1)", 
    "experiments": "  abrupt-4xCO2 (CFMIP:1), amip (CFMIP:1,HighResMIP:1,PMIP:1), 1pctCO2 (CFMIP:1,PMIP:1), historical (CFMIP:1,HighResMIP:1,PMIP:1), piControl (CFMIP:1,HighResMIP:1,PMIP:1)"
  }, 
  "zg": {
    "CMOR Name": "zg", 
    "CMOR Name, any freq": "zg", 
    "CCCma check": "Jason", 
    "CCCma hist file": "ss", 
    "CCCma hist var names": "PHI", 
    "CCCma hist var frequency": "ISSP", 
    "CCCma TS var name": "PHI", 
    "CCCma diag file": "dsd", 
    "CCCma units": null, 
    "CCCma optional deck": "divbyg", 
    "CCCma comment": null, 
    "CCCma NetCDF comment": null, 
    "CCCma target vertical grid": null, 
    "CCCma target horizontal grid": null, 
    "Include only for": null, 
    "Exclude for": null, 
    "long_name": "Geopotential Height", 
    "units": "m", 
    "description": "Geopotential is the sum of the specific gravitational potential energy relative to the geoid and the specific centripetal potential energy. Geopotential height is the geopotential divided by the standard acceleration due to gravity. It is numerically similar to the altitude (or geometric height) and not to the quantity with standard name height, which is relative to the surface.", 
    "comment": "Geopotential is the sum of the specific gravitational potential energy relative to the geoid and the specific centripetal potential energy. Geopotential height is the geopotential divided by the standard acceleration due to gravity. It is numerically similar to the altitude (or geometric height) and not to the quantity with standard name height, which is relative to the surface.", 
    "out_name": "zg", 
    "standard_name": "geopotential_height", 
    "cell_methods": "area: time: mean", 
    "positive": null, 
    "type": "real", 
    "dimensions": "longitude latitude alevel time", 
    "modeling_realm": "atmos", 
    "frequency": "day", 
    "cell_measures": "area: areacella", 
    "valid_min": null, 
    "valid_max": null, 
    "ok_min_mean_abs": null, 
    "ok_max_mean_abs": null, 
    "priority": 1.0, 
    "MIPs (requesting)": "  CFMIP(1), HighResMIP(1,1,1)", 
    "experiments": "  piControl (HighResMIP:1), historical (HighResMIP:1), amip (CFMIP:1,HighResMIP:1)"
  }
}