{
  "_metadata_": {
    "Source file": "output_variables_dreq01.00.31__BACKUP_26Mar2021_18h26m02sUTC.xlsx", 
    "MIP table": "Esubhr"
  }, 
  "bldep": {
    "CMOR Name": "bldep", 
    "CMOR Name, any freq": "bldep", 
    "CCCma check": "N/A (Jason)", 
    "CCCma hist file": null, 
    "CCCma hist var names": null, 
    "CCCma hist var frequency": null, 
    "CCCma TS var name": null, 
    "CCCma diag file": null, 
    "CCCma units": null, 
    "CCCma optional deck": null, 
    "CCCma comment": null, 
    "CCCma NetCDF comment": null, 
    "CCCma target vertical grid": null, 
    "CCCma target horizontal grid": null, 
    "Include only for": null, 
    "Exclude for": null, 
    "long_name": "Boundary Layer Depth", 
    "units": "m", 
    "description": "Boundary layer depth", 
    "comment": "Boundary layer depth", 
    "out_name": "bldep", 
    "standard_name": "atmosphere_boundary_layer_thickness", 
    "cell_methods": "area: mean time: point", 
    "positive": null, 
    "type": "real", 
    "dimensions": "longitude latitude time1", 
    "modeling_realm": "aerosol", 
    "frequency": "subhrPt", 
    "cell_measures": "area: areacella", 
    "valid_min": null, 
    "valid_max": null, 
    "ok_min_mean_abs": null, 
    "ok_max_mean_abs": null, 
    "priority": 3.0, 
    "MIPs (requesting)": "  HighResMIP(3)", 
    "experiments": "  amip (HighResMIP:3)"
  }, 
  "hfls": {
    "CMOR Name": "hfls", 
    "CMOR Name, any freq": "hfls", 
    "CCCma check": "N/A (Jason)", 
    "CCCma hist file": null, 
    "CCCma hist var names": null, 
    "CCCma hist var frequency": null, 
    "CCCma TS var name": null, 
    "CCCma diag file": null, 
    "CCCma units": null, 
    "CCCma optional deck": null, 
    "CCCma comment": null, 
    "CCCma NetCDF comment": null, 
    "CCCma target vertical grid": null, 
    "CCCma target horizontal grid": null, 
    "Include only for": null, 
    "Exclude for": null, 
    "long_name": "Surface Upward Latent Heat Flux", 
    "units": "W m-2", 
    "description": "The surface called \"surface\" means the lower boundary of the atmosphere. \"Upward\" indicates a vector component which is positive when directed upward (negative downward). The surface latent heat flux is the exchange of heat between the surface and the air on account of evaporation (including sublimation). In accordance with common usage in geophysical disciplines, \"flux\" implies per unit area, called \"flux density\" in physics.", 
    "comment": "The surface called \"surface\" means the lower boundary of the atmosphere. \"Upward\" indicates a vector component which is positive when directed upward (negative downward). The surface latent heat flux is the exchange of heat between the surface and the air on account of evaporation (including sublimation). In accordance with common usage in geophysical disciplines, \"flux\" implies per unit area, called \"flux density\" in physics.", 
    "out_name": "hfls", 
    "standard_name": "surface_upward_latent_heat_flux", 
    "cell_methods": "area: mean time: point", 
    "positive": "up", 
    "type": "real", 
    "dimensions": "longitude latitude time1", 
    "modeling_realm": "atmos", 
    "frequency": "subhrPt", 
    "cell_measures": "area: areacella", 
    "valid_min": -800.0, 
    "valid_max": 2400.0, 
    "ok_min_mean_abs": 30.0, 
    "ok_max_mean_abs": 110.0, 
    "priority": 3.0, 
    "MIPs (requesting)": "  HighResMIP(3)", 
    "experiments": "  amip (HighResMIP:3)"
  }, 
  "hfss": {
    "CMOR Name": "hfss", 
    "CMOR Name, any freq": "hfss", 
    "CCCma check": "N/A (Jason)", 
    "CCCma hist file": null, 
    "CCCma hist var names": null, 
    "CCCma hist var frequency": null, 
    "CCCma TS var name": null, 
    "CCCma diag file": null, 
    "CCCma units": null, 
    "CCCma optional deck": null, 
    "CCCma comment": null, 
    "CCCma NetCDF comment": null, 
    "CCCma target vertical grid": null, 
    "CCCma target horizontal grid": null, 
    "Include only for": null, 
    "Exclude for": null, 
    "long_name": "Surface Upward Sensible Heat Flux", 
    "units": "W m-2", 
    "description": "The surface sensible heat flux, also called turbulent heat flux, is the exchange of heat between the surface and the air by motion of air.", 
    "comment": "The surface sensible heat flux, also called turbulent heat flux, is the exchange of heat between the surface and the air by motion of air.", 
    "out_name": "hfss", 
    "standard_name": "surface_upward_sensible_heat_flux", 
    "cell_methods": "area: mean time: point", 
    "positive": "up", 
    "type": "real", 
    "dimensions": "longitude latitude time1", 
    "modeling_realm": "atmos", 
    "frequency": "subhrPt", 
    "cell_measures": "area: areacella", 
    "valid_min": -1000.0, 
    "valid_max": 2000.0, 
    "ok_min_mean_abs": 5.0, 
    "ok_max_mean_abs": 60.0, 
    "priority": 3.0, 
    "MIPs (requesting)": "  HighResMIP(3)", 
    "experiments": "  amip (HighResMIP:3)"
  }, 
  "hus": {
    "CMOR Name": "hus", 
    "CMOR Name, any freq": "hus", 
    "CCCma check": "N/A (Jason)", 
    "CCCma hist file": null, 
    "CCCma hist var names": null, 
    "CCCma hist var frequency": null, 
    "CCCma TS var name": null, 
    "CCCma diag file": null, 
    "CCCma units": null, 
    "CCCma optional deck": null, 
    "CCCma comment": null, 
    "CCCma NetCDF comment": null, 
    "CCCma target vertical grid": null, 
    "CCCma target horizontal grid": null, 
    "Include only for": null, 
    "Exclude for": null, 
    "long_name": "Specific Humidity", 
    "units": "1", 
    "description": "Specific humidity is the mass fraction of water vapor in (moist) air.", 
    "comment": "Specific humidity is the mass fraction of water vapor in (moist) air.", 
    "out_name": "hus", 
    "standard_name": "specific_humidity", 
    "cell_methods": "area: mean time: point", 
    "positive": null, 
    "type": "real", 
    "dimensions": "longitude latitude alevel time1", 
    "modeling_realm": "atmos", 
    "frequency": "subhrPt", 
    "cell_measures": "area: areacella", 
    "valid_min": null, 
    "valid_max": null, 
    "ok_min_mean_abs": null, 
    "ok_max_mean_abs": null, 
    "priority": 3.0, 
    "MIPs (requesting)": "  HighResMIP(3)", 
    "experiments": "  amip (HighResMIP:3)"
  }, 
  "huss": {
    "CMOR Name": "huss", 
    "CMOR Name, any freq": "huss", 
    "CCCma check": "N/A (Jason)", 
    "CCCma hist file": null, 
    "CCCma hist var names": null, 
    "CCCma hist var frequency": null, 
    "CCCma TS var name": null, 
    "CCCma diag file": null, 
    "CCCma units": null, 
    "CCCma optional deck": null, 
    "CCCma comment": null, 
    "CCCma NetCDF comment": null, 
    "CCCma target vertical grid": null, 
    "CCCma target horizontal grid": null, 
    "Include only for": null, 
    "Exclude for": null, 
    "long_name": "Near-Surface Specific Humidity", 
    "units": "1", 
    "description": "Near-surface (usually, 2 meter) specific humidity.", 
    "comment": "Near-surface (usually, 2 meter) specific humidity.", 
    "out_name": "huss", 
    "standard_name": "specific_humidity", 
    "cell_methods": "area: mean time: point", 
    "positive": null, 
    "type": "real", 
    "dimensions": "longitude latitude time1 height2m", 
    "modeling_realm": "atmos", 
    "frequency": "subhrPt", 
    "cell_measures": "area: areacella", 
    "valid_min": null, 
    "valid_max": null, 
    "ok_min_mean_abs": null, 
    "ok_max_mean_abs": null, 
    "priority": 3.0, 
    "MIPs (requesting)": "  HighResMIP(3)", 
    "experiments": "  amip (HighResMIP:3)"
  }, 
  "mc": {
    "CMOR Name": "mc", 
    "CMOR Name, any freq": "mc", 
    "CCCma check": "N/A (Jason)", 
    "CCCma hist file": null, 
    "CCCma hist var names": null, 
    "CCCma hist var frequency": null, 
    "CCCma TS var name": null, 
    "CCCma diag file": null, 
    "CCCma units": null, 
    "CCCma optional deck": null, 
    "CCCma comment": null, 
    "CCCma NetCDF comment": null, 
    "CCCma target vertical grid": null, 
    "CCCma target horizontal grid": null, 
    "Include only for": null, 
    "Exclude for": null, 
    "long_name": "Convective Mass Flux", 
    "units": "kg m-2 s-1", 
    "description": "convective mass flux", 
    "comment": "The net mass flux should represent the difference between the updraft and downdraft components.  The flux is computed as the mass divided by the area of the grid cell.", 
    "out_name": "mc", 
    "standard_name": "atmosphere_net_upward_convective_mass_flux", 
    "cell_methods": "area: mean time: point", 
    "positive": "up", 
    "type": "real", 
    "dimensions": "longitude latitude alevel time1", 
    "modeling_realm": "atmos", 
    "frequency": "subhrPt", 
    "cell_measures": "area: areacella", 
    "valid_min": null, 
    "valid_max": null, 
    "ok_min_mean_abs": null, 
    "ok_max_mean_abs": null, 
    "priority": 3.0, 
    "MIPs (requesting)": "  HighResMIP(3)", 
    "experiments": "  amip (HighResMIP:3)"
  }, 
  "pr": {
    "CMOR Name": "pr", 
    "CMOR Name, any freq": "pr", 
    "CCCma check": "N/A (Jason)", 
    "CCCma hist file": null, 
    "CCCma hist var names": null, 
    "CCCma hist var frequency": null, 
    "CCCma TS var name": null, 
    "CCCma diag file": null, 
    "CCCma units": null, 
    "CCCma optional deck": null, 
    "CCCma comment": null, 
    "CCCma NetCDF comment": null, 
    "CCCma target vertical grid": null, 
    "CCCma target horizontal grid": null, 
    "Include only for": null, 
    "Exclude for": null, 
    "long_name": "Precipitation", 
    "units": "kg m-2 s-1", 
    "description": "Total precipitation flux", 
    "comment": "includes both liquid and solid phases", 
    "out_name": "pr", 
    "standard_name": "precipitation_flux", 
    "cell_methods": "area: mean time: point", 
    "positive": null, 
    "type": "real", 
    "dimensions": "longitude latitude time1", 
    "modeling_realm": "atmos", 
    "frequency": "subhrPt", 
    "cell_measures": "area: areacella", 
    "valid_min": null, 
    "valid_max": null, 
    "ok_min_mean_abs": null, 
    "ok_max_mean_abs": null, 
    "priority": 3.0, 
    "MIPs (requesting)": "  HighResMIP(3)", 
    "experiments": "  amip (HighResMIP:3)"
  }, 
  "prc": {
    "CMOR Name": "prc", 
    "CMOR Name, any freq": "prc", 
    "CCCma check": "N/A (Jason)", 
    "CCCma hist file": null, 
    "CCCma hist var names": null, 
    "CCCma hist var frequency": null, 
    "CCCma TS var name": null, 
    "CCCma diag file": null, 
    "CCCma units": null, 
    "CCCma optional deck": null, 
    "CCCma comment": null, 
    "CCCma NetCDF comment": null, 
    "CCCma target vertical grid": null, 
    "CCCma target horizontal grid": null, 
    "Include only for": null, 
    "Exclude for": null, 
    "long_name": "Convective Precipitation", 
    "units": "kg m-2 s-1", 
    "description": "Convective precipitation flux", 
    "comment": "Convective precipitation at surface; includes both liquid and solid phases.", 
    "out_name": "prc", 
    "standard_name": "convective_precipitation_flux", 
    "cell_methods": "area: mean time: point", 
    "positive": null, 
    "type": "real", 
    "dimensions": "longitude latitude time1", 
    "modeling_realm": "atmos", 
    "frequency": "subhrPt", 
    "cell_measures": "area: areacella", 
    "valid_min": null, 
    "valid_max": null, 
    "ok_min_mean_abs": null, 
    "ok_max_mean_abs": null, 
    "priority": 3.0, 
    "MIPs (requesting)": "  HighResMIP(3)", 
    "experiments": "  amip (HighResMIP:3)"
  }, 
  "prw": {
    "CMOR Name": "prw", 
    "CMOR Name, any freq": "prw", 
    "CCCma check": "N/A (Jason)", 
    "CCCma hist file": null, 
    "CCCma hist var names": null, 
    "CCCma hist var frequency": null, 
    "CCCma TS var name": null, 
    "CCCma diag file": null, 
    "CCCma units": null, 
    "CCCma optional deck": null, 
    "CCCma comment": null, 
    "CCCma NetCDF comment": null, 
    "CCCma target vertical grid": null, 
    "CCCma target horizontal grid": null, 
    "Include only for": null, 
    "Exclude for": null, 
    "long_name": "Water Vapor Path", 
    "units": "kg m-2", 
    "description": "vertically integrated through the atmospheric column", 
    "comment": "vertically integrated through the atmospheric column", 
    "out_name": "prw", 
    "standard_name": "atmosphere_mass_content_of_water_vapor", 
    "cell_methods": "area: mean time: point", 
    "positive": null, 
    "type": "real", 
    "dimensions": "longitude latitude time1", 
    "modeling_realm": "atmos", 
    "frequency": "subhrPt", 
    "cell_measures": "area: areacella", 
    "valid_min": null, 
    "valid_max": null, 
    "ok_min_mean_abs": null, 
    "ok_max_mean_abs": null, 
    "priority": 3.0, 
    "MIPs (requesting)": "  HighResMIP(3)", 
    "experiments": "  amip (HighResMIP:3)"
  }, 
  "reffclic": {
    "CMOR Name": "reffclic", 
    "CMOR Name, any freq": "reffclic", 
    "CCCma check": "N/A (Jason)", 
    "CCCma hist file": null, 
    "CCCma hist var names": null, 
    "CCCma hist var frequency": null, 
    "CCCma TS var name": null, 
    "CCCma diag file": null, 
    "CCCma units": null, 
    "CCCma optional deck": null, 
    "CCCma comment": null, 
    "CCCma NetCDF comment": null, 
    "CCCma target vertical grid": null, 
    "CCCma target horizontal grid": null, 
    "Include only for": null, 
    "Exclude for": null, 
    "long_name": "Hydrometeor Effective Radius of Convective Cloud Ice", 
    "units": "m", 
    "description": "alevel site time1", 
    "comment": "This is defined as the in-cloud ratio of the third moment over the second moment of the particle size distribution (obtained by considering only the cloudy portion of the grid cell).", 
    "out_name": "reffclic", 
    "standard_name": "effective_radius_of_convective_cloud_ice_particle", 
    "cell_methods": "area: point time: point", 
    "positive": null, 
    "type": "real", 
    "dimensions": "alevel site time1", 
    "modeling_realm": "atmos", 
    "frequency": "subhrPt", 
    "cell_measures": null, 
    "valid_min": null, 
    "valid_max": null, 
    "ok_min_mean_abs": null, 
    "ok_max_mean_abs": null, 
    "priority": 2.0, 
    "MIPs (requesting)": "  CFMIP(2)", 
    "experiments": "  amip (CFMIP:2)"
  }, 
  "reffclis": {
    "CMOR Name": "reffclis", 
    "CMOR Name, any freq": "reffclis", 
    "CCCma check": "Jason", 
    "CCCma hist file": "site", 
    "CCCma hist var names": "RICE CICE", 
    "CCCma hist var frequency": null, 
    "CCCma TS var name": "RICE CICE", 
    "CCCma diag file": null, 
    "CCCma units": null, 
    "CCCma optional deck": "cospmask", 
    "CCCma comment": null, 
    "CCCma NetCDF comment": null, 
    "CCCma target vertical grid": null, 
    "CCCma target horizontal grid": null, 
    "Include only for": null, 
    "Exclude for": null, 
    "long_name": "Hydrometeor Effective Radius of Stratiform Cloud Ice", 
    "units": "m", 
    "description": "alevel site time1", 
    "comment": "This is defined as the in-cloud ratio of the third moment over the second moment of the particle size distribution (obtained by considering only the cloudy portion of the grid cell).", 
    "out_name": "reffclis", 
    "standard_name": "effective_radius_of_stratiform_cloud_ice_particle", 
    "cell_methods": "area: point time: point", 
    "positive": null, 
    "type": "real", 
    "dimensions": "alevel site time1", 
    "modeling_realm": "atmos", 
    "frequency": "subhrPt", 
    "cell_measures": null, 
    "valid_min": null, 
    "valid_max": null, 
    "ok_min_mean_abs": null, 
    "ok_max_mean_abs": null, 
    "priority": 2.0, 
    "MIPs (requesting)": "  CFMIP(2)", 
    "experiments": "  amip (CFMIP:2)"
  }, 
  "reffclwc": {
    "CMOR Name": "reffclwc", 
    "CMOR Name, any freq": "reffclwc", 
    "CCCma check": "N/A (Jason)", 
    "CCCma hist file": null, 
    "CCCma hist var names": null, 
    "CCCma hist var frequency": null, 
    "CCCma TS var name": null, 
    "CCCma diag file": null, 
    "CCCma units": null, 
    "CCCma optional deck": null, 
    "CCCma comment": null, 
    "CCCma NetCDF comment": null, 
    "CCCma target vertical grid": null, 
    "CCCma target horizontal grid": null, 
    "Include only for": null, 
    "Exclude for": null, 
    "long_name": "Convective Cloud Liquid Droplet Effective Radius", 
    "units": "m", 
    "description": "alevel site time1", 
    "comment": "Droplets are liquid.  The effective radius is defined as the ratio of the third moment over the second moment of the particle size distribution and the time-mean should be calculated, weighting the individual samples by the cloudy fraction of the grid cell.", 
    "out_name": "reffclwc", 
    "standard_name": "effective_radius_of_convective_cloud_liquid_water_particle", 
    "cell_methods": "area: point time: point", 
    "positive": null, 
    "type": "real", 
    "dimensions": "alevel site time1", 
    "modeling_realm": "atmos", 
    "frequency": "subhrPt", 
    "cell_measures": null, 
    "valid_min": null, 
    "valid_max": null, 
    "ok_min_mean_abs": null, 
    "ok_max_mean_abs": null, 
    "priority": 2.0, 
    "MIPs (requesting)": "  CFMIP(2)", 
    "experiments": "  amip (CFMIP:2)"
  }, 
  "reffclws": {
    "CMOR Name": "reffclws", 
    "CMOR Name, any freq": "reffclws", 
    "CCCma check": "Jason", 
    "CCCma hist file": "site", 
    "CCCma hist var names": "RLIQ CLIQ", 
    "CCCma hist var frequency": null, 
    "CCCma TS var name": "RLIQ CLIQ", 
    "CCCma diag file": null, 
    "CCCma units": null, 
    "CCCma optional deck": "cospmask", 
    "CCCma comment": null, 
    "CCCma NetCDF comment": null, 
    "CCCma target vertical grid": null, 
    "CCCma target horizontal grid": null, 
    "Include only for": null, 
    "Exclude for": null, 
    "long_name": "Stratiform Cloud Liquid Droplet Effective Radius", 
    "units": "m", 
    "description": "alevel site time1", 
    "comment": "Droplets are liquid.  The effective radius is defined as the ratio of the third moment over the second moment of the particle size distribution and the time-mean should be calculated, weighting the individual samples by the cloudy fraction of the grid cell.", 
    "out_name": "reffclws", 
    "standard_name": "effective_radius_of_stratiform_cloud_liquid_water_particle", 
    "cell_methods": "area: point time: point", 
    "positive": null, 
    "type": "real", 
    "dimensions": "alevel site time1", 
    "modeling_realm": "atmos", 
    "frequency": "subhrPt", 
    "cell_measures": null, 
    "valid_min": null, 
    "valid_max": null, 
    "ok_min_mean_abs": null, 
    "ok_max_mean_abs": null, 
    "priority": 2.0, 
    "MIPs (requesting)": "  CFMIP(2)", 
    "experiments": "  amip (CFMIP:2)"
  }, 
  "rlut": {
    "CMOR Name": "rlut", 
    "CMOR Name, any freq": "rlut", 
    "CCCma check": "N/A (Jason)", 
    "CCCma hist file": null, 
    "CCCma hist var names": null, 
    "CCCma hist var frequency": null, 
    "CCCma TS var name": null, 
    "CCCma diag file": null, 
    "CCCma units": null, 
    "CCCma optional deck": null, 
    "CCCma comment": null, 
    "CCCma NetCDF comment": null, 
    "CCCma target vertical grid": null, 
    "CCCma target horizontal grid": null, 
    "Include only for": null, 
    "Exclude for": null, 
    "long_name": "TOA Outgoing Longwave Radiation", 
    "units": "W m-2", 
    "description": "at the top of the atmosphere (to be compared with satellite measurements)", 
    "comment": "at the top of the atmosphere (to be compared with satellite measurements)", 
    "out_name": "rlut", 
    "standard_name": "toa_outgoing_longwave_flux", 
    "cell_methods": "area: mean time: point", 
    "positive": "up", 
    "type": "real", 
    "dimensions": "longitude latitude time1", 
    "modeling_realm": "atmos", 
    "frequency": "subhrPt", 
    "cell_measures": "area: areacella", 
    "valid_min": null, 
    "valid_max": null, 
    "ok_min_mean_abs": null, 
    "ok_max_mean_abs": null, 
    "priority": 3.0, 
    "MIPs (requesting)": "  HighResMIP(3)", 
    "experiments": "  amip (HighResMIP:3)"
  }, 
  "rsdt": {
    "CMOR Name": "rsdt", 
    "CMOR Name, any freq": "rsdt", 
    "CCCma check": "N/A (Jason)", 
    "CCCma hist file": null, 
    "CCCma hist var names": null, 
    "CCCma hist var frequency": null, 
    "CCCma TS var name": null, 
    "CCCma diag file": null, 
    "CCCma units": null, 
    "CCCma optional deck": null, 
    "CCCma comment": null, 
    "CCCma NetCDF comment": null, 
    "CCCma target vertical grid": null, 
    "CCCma target horizontal grid": null, 
    "Include only for": null, 
    "Exclude for": null, 
    "long_name": "TOA Incident Shortwave Radiation", 
    "units": "W m-2", 
    "description": "Shortwave radiation incident at the top of the atmosphere", 
    "comment": "Shortwave radiation incident at the top of the atmosphere", 
    "out_name": "rsdt", 
    "standard_name": "toa_incoming_shortwave_flux", 
    "cell_methods": "area: mean time: point", 
    "positive": "down", 
    "type": "real", 
    "dimensions": "longitude latitude time1", 
    "modeling_realm": "atmos", 
    "frequency": "subhrPt", 
    "cell_measures": "area: areacella", 
    "valid_min": null, 
    "valid_max": null, 
    "ok_min_mean_abs": null, 
    "ok_max_mean_abs": null, 
    "priority": 3.0, 
    "MIPs (requesting)": "  HighResMIP(3)", 
    "experiments": "  amip (HighResMIP:3)"
  }, 
  "rsut": {
    "CMOR Name": "rsut", 
    "CMOR Name, any freq": "rsut", 
    "CCCma check": "N/A (Jason)", 
    "CCCma hist file": null, 
    "CCCma hist var names": null, 
    "CCCma hist var frequency": null, 
    "CCCma TS var name": null, 
    "CCCma diag file": null, 
    "CCCma units": null, 
    "CCCma optional deck": null, 
    "CCCma comment": null, 
    "CCCma NetCDF comment": null, 
    "CCCma target vertical grid": null, 
    "CCCma target horizontal grid": null, 
    "Include only for": null, 
    "Exclude for": null, 
    "long_name": "TOA Outgoing Shortwave Radiation", 
    "units": "W m-2", 
    "description": "at the top of the atmosphere", 
    "comment": "at the top of the atmosphere", 
    "out_name": "rsut", 
    "standard_name": "toa_outgoing_shortwave_flux", 
    "cell_methods": "area: mean time: point", 
    "positive": "up", 
    "type": "real", 
    "dimensions": "longitude latitude time1", 
    "modeling_realm": "atmos", 
    "frequency": "subhrPt", 
    "cell_measures": "area: areacella", 
    "valid_min": null, 
    "valid_max": null, 
    "ok_min_mean_abs": null, 
    "ok_max_mean_abs": null, 
    "priority": 3.0, 
    "MIPs (requesting)": "  HighResMIP(3)", 
    "experiments": "  amip (HighResMIP:3)"
  }, 
  "ta": {
    "CMOR Name": "ta", 
    "CMOR Name, any freq": "ta", 
    "CCCma check": "N/A (Jason)", 
    "CCCma hist file": null, 
    "CCCma hist var names": null, 
    "CCCma hist var frequency": null, 
    "CCCma TS var name": null, 
    "CCCma diag file": null, 
    "CCCma units": null, 
    "CCCma optional deck": null, 
    "CCCma comment": null, 
    "CCCma NetCDF comment": null, 
    "CCCma target vertical grid": null, 
    "CCCma target horizontal grid": null, 
    "Include only for": null, 
    "Exclude for": null, 
    "long_name": "Air Temperature", 
    "units": "K", 
    "description": "Air Temperature", 
    "comment": "Air Temperature", 
    "out_name": "ta", 
    "standard_name": "air_temperature", 
    "cell_methods": "area: mean time: point", 
    "positive": null, 
    "type": "real", 
    "dimensions": "longitude latitude alevel time1", 
    "modeling_realm": "atmos", 
    "frequency": "subhrPt", 
    "cell_measures": "area: areacella", 
    "valid_min": null, 
    "valid_max": null, 
    "ok_min_mean_abs": null, 
    "ok_max_mean_abs": null, 
    "priority": 3.0, 
    "MIPs (requesting)": "  HighResMIP(3)", 
    "experiments": "  amip (HighResMIP:3)"
  }, 
  "tas": {
    "CMOR Name": "tas", 
    "CMOR Name, any freq": "tas", 
    "CCCma check": "N/A (Jason)", 
    "CCCma hist file": null, 
    "CCCma hist var names": null, 
    "CCCma hist var frequency": null, 
    "CCCma TS var name": null, 
    "CCCma diag file": null, 
    "CCCma units": null, 
    "CCCma optional deck": null, 
    "CCCma comment": null, 
    "CCCma NetCDF comment": null, 
    "CCCma target vertical grid": null, 
    "CCCma target horizontal grid": null, 
    "Include only for": null, 
    "Exclude for": null, 
    "long_name": "Near-Surface Air Temperature", 
    "units": "K", 
    "description": "near-surface (usually, 2 meter) air temperature", 
    "comment": "near-surface (usually, 2 meter) air temperature", 
    "out_name": "tas", 
    "standard_name": "air_temperature", 
    "cell_methods": "area: mean time: point", 
    "positive": null, 
    "type": "real", 
    "dimensions": "longitude latitude time1 height2m", 
    "modeling_realm": "atmos", 
    "frequency": "subhrPt", 
    "cell_measures": "area: areacella", 
    "valid_min": null, 
    "valid_max": null, 
    "ok_min_mean_abs": null, 
    "ok_max_mean_abs": null, 
    "priority": 3.0, 
    "MIPs (requesting)": "  HighResMIP(3)", 
    "experiments": "  amip (HighResMIP:3)"
  }, 
  "tnhus": {
    "CMOR Name": "tnhus", 
    "CMOR Name, any freq": "tnhus", 
    "CCCma check": "N/A (Jason)", 
    "CCCma hist file": null, 
    "CCCma hist var names": null, 
    "CCCma hist var frequency": null, 
    "CCCma TS var name": null, 
    "CCCma diag file": null, 
    "CCCma units": null, 
    "CCCma optional deck": null, 
    "CCCma comment": null, 
    "CCCma NetCDF comment": null, 
    "CCCma target vertical grid": null, 
    "CCCma target horizontal grid": null, 
    "Include only for": null, 
    "Exclude for": null, 
    "long_name": "Tendency of Specific Humidity", 
    "units": "s-1", 
    "description": "Tendency of Specific Humidity", 
    "comment": "Tendency of Specific Humidity", 
    "out_name": "tnhus", 
    "standard_name": "tendency_of_specific_humidity", 
    "cell_methods": "area: mean time: point", 
    "positive": null, 
    "type": "real", 
    "dimensions": "longitude latitude alevel time1", 
    "modeling_realm": "atmos", 
    "frequency": "subhrPt", 
    "cell_measures": "area: areacella", 
    "valid_min": null, 
    "valid_max": null, 
    "ok_min_mean_abs": null, 
    "ok_max_mean_abs": null, 
    "priority": 3.0, 
    "MIPs (requesting)": "  HighResMIP(3)", 
    "experiments": "  amip (HighResMIP:3)"
  }, 
  "tnhuspbl": {
    "CMOR Name": "tnhuspbl", 
    "CMOR Name, any freq": "tnhuspbl", 
    "CCCma check": "N/A (Jason)", 
    "CCCma hist file": null, 
    "CCCma hist var names": null, 
    "CCCma hist var frequency": null, 
    "CCCma TS var name": null, 
    "CCCma diag file": null, 
    "CCCma units": null, 
    "CCCma optional deck": null, 
    "CCCma comment": null, 
    "CCCma NetCDF comment": null, 
    "CCCma target vertical grid": null, 
    "CCCma target horizontal grid": null, 
    "Include only for": null, 
    "Exclude for": null, 
    "long_name": "Tendency of Specific Humidity Due to Boundary Layer Mixing", 
    "units": "s-1", 
    "description": "alevel site time1", 
    "comment": "Includes all boundary layer terms including diffusive terms.", 
    "out_name": "tnhuspbl", 
    "standard_name": "tendency_of_specific_humidity_due_to_boundary_layer_mixing", 
    "cell_methods": "area: point time: point", 
    "positive": null, 
    "type": "real", 
    "dimensions": "alevel site time1", 
    "modeling_realm": "atmos", 
    "frequency": "subhrPt", 
    "cell_measures": null, 
    "valid_min": null, 
    "valid_max": null, 
    "ok_min_mean_abs": null, 
    "ok_max_mean_abs": null, 
    "priority": 1.0, 
    "MIPs (requesting)": "  CFMIP(1)", 
    "experiments": "  amip (CFMIP:1)"
  }, 
  "tnhusscp": {
    "CMOR Name": "tnhusscp", 
    "CMOR Name, any freq": "tnhusscp", 
    "CCCma check": "N/A (Jason)", 
    "CCCma hist file": null, 
    "CCCma hist var names": null, 
    "CCCma hist var frequency": null, 
    "CCCma TS var name": null, 
    "CCCma diag file": null, 
    "CCCma units": null, 
    "CCCma optional deck": null, 
    "CCCma comment": null, 
    "CCCma NetCDF comment": null, 
    "CCCma target vertical grid": null, 
    "CCCma target horizontal grid": null, 
    "Include only for": null, 
    "Exclude for": null, 
    "long_name": "Tendency of Specific Humidity Due to Stratiform Clouds and Precipitation", 
    "units": "s-1", 
    "description": "alevel site time1", 
    "comment": "The phrase \"tendency_of_X\" means derivative of X with respect to time. \"Specific\" means per unit mass. Specific humidity is the mass fraction of water vapor in (moist) air. The specification of a physical process by the phrase \"due_to_\" process means that the quantity named is a single term in a sum of terms which together compose the general quantity named by omitting the phrase. A variable with the standard name of tendency_of_specific_humidity_due_to_stratiform_cloud_and_precipitation should contain the effects of all processes which convert stratiform clouds and precipitation to or from water vapor. In an atmosphere model, stratiform cloud is that produced by large-scale convergence (not the convection schemes).", 
    "out_name": "tnhusscp", 
    "standard_name": "tendency_of_specific_humidity_due_to_stratiform_cloud_and_precipitation", 
    "cell_methods": "area: point time: point", 
    "positive": null, 
    "type": "real", 
    "dimensions": "alevel site time1", 
    "modeling_realm": "atmos", 
    "frequency": "subhrPt", 
    "cell_measures": null, 
    "valid_min": null, 
    "valid_max": null, 
    "ok_min_mean_abs": null, 
    "ok_max_mean_abs": null, 
    "priority": 1.0, 
    "MIPs (requesting)": "  CFMIP(1)", 
    "experiments": "  amip (CFMIP:1)"
  }, 
  "tnt": {
    "CMOR Name": "tnt", 
    "CMOR Name, any freq": "tnt", 
    "CCCma check": "N/A (Jason)", 
    "CCCma hist file": null, 
    "CCCma hist var names": null, 
    "CCCma hist var frequency": null, 
    "CCCma TS var name": null, 
    "CCCma diag file": null, 
    "CCCma units": null, 
    "CCCma optional deck": null, 
    "CCCma comment": null, 
    "CCCma NetCDF comment": null, 
    "CCCma target vertical grid": null, 
    "CCCma target horizontal grid": null, 
    "Include only for": null, 
    "Exclude for": null, 
    "long_name": "Tendency of Air Temperature", 
    "units": "K s-1", 
    "description": "Tendency of Air Temperature", 
    "comment": "Tendency of Air Temperature", 
    "out_name": "tnt", 
    "standard_name": "tendency_of_air_temperature", 
    "cell_methods": "area: mean time: point", 
    "positive": null, 
    "type": "real", 
    "dimensions": "longitude latitude alevel time1", 
    "modeling_realm": "atmos", 
    "frequency": "subhrPt", 
    "cell_measures": "area: areacella", 
    "valid_min": null, 
    "valid_max": null, 
    "ok_min_mean_abs": null, 
    "ok_max_mean_abs": null, 
    "priority": 3.0, 
    "MIPs (requesting)": "  HighResMIP(3)", 
    "experiments": "  amip (HighResMIP:3)"
  }, 
  "tntd": {
    "CMOR Name": "tntd", 
    "CMOR Name, any freq": "tntd", 
    "CCCma check": "N/A (Jason)", 
    "CCCma hist file": null, 
    "CCCma hist var names": null, 
    "CCCma hist var frequency": null, 
    "CCCma TS var name": null, 
    "CCCma diag file": null, 
    "CCCma units": null, 
    "CCCma optional deck": null, 
    "CCCma comment": null, 
    "CCCma NetCDF comment": null, 
    "CCCma target vertical grid": null, 
    "CCCma target horizontal grid": null, 
    "Include only for": null, 
    "Exclude for": null, 
    "long_name": "Tendency of Air Temperature Due to Numerical Diffusion", 
    "units": "K s-1", 
    "description": "alevel site time1", 
    "comment": "This includes any horizontal or vertical numerical temperature diffusion not associated with the parametrized moist physics or the resolved dynamics.  For example, any vertical diffusion which is part of the boundary layer mixing scheme should be excluded, as should any diffusion which is included in the terms from the resolved dynamics.   This term is required to check the closure of the temperature budget.", 
    "out_name": "tntd", 
    "standard_name": "tendency_of_air_temperature_due_to_diffusion", 
    "cell_methods": "area: point time: point", 
    "positive": null, 
    "type": "real", 
    "dimensions": "alevel site time1", 
    "modeling_realm": "atmos", 
    "frequency": "subhrPt", 
    "cell_measures": null, 
    "valid_min": null, 
    "valid_max": null, 
    "ok_min_mean_abs": null, 
    "ok_max_mean_abs": null, 
    "priority": 1.0, 
    "MIPs (requesting)": "  CFMIP(1)", 
    "experiments": "  amip (CFMIP:1)"
  }, 
  "tntpbl": {
    "CMOR Name": "tntpbl", 
    "CMOR Name, any freq": "tntpbl", 
    "CCCma check": "N/A (Jason)", 
    "CCCma hist file": null, 
    "CCCma hist var names": null, 
    "CCCma hist var frequency": null, 
    "CCCma TS var name": null, 
    "CCCma diag file": null, 
    "CCCma units": null, 
    "CCCma optional deck": null, 
    "CCCma comment": null, 
    "CCCma NetCDF comment": null, 
    "CCCma target vertical grid": null, 
    "CCCma target horizontal grid": null, 
    "Include only for": null, 
    "Exclude for": null, 
    "long_name": "Tendency of Air Temperature Due to Boundary Layer Mixing", 
    "units": "K s-1", 
    "description": "alevel site time1", 
    "comment": "Includes all boundary layer terms including diffusive terms.", 
    "out_name": "tntpbl", 
    "standard_name": "tendency_of_air_temperature_due_to_boundary_layer_mixing", 
    "cell_methods": "area: point time: point", 
    "positive": null, 
    "type": "real", 
    "dimensions": "alevel site time1", 
    "modeling_realm": "atmos", 
    "frequency": "subhrPt", 
    "cell_measures": null, 
    "valid_min": null, 
    "valid_max": null, 
    "ok_min_mean_abs": null, 
    "ok_max_mean_abs": null, 
    "priority": 1.0, 
    "MIPs (requesting)": "  CFMIP(1)", 
    "experiments": "  amip (CFMIP:1)"
  }, 
  "tntrl": {
    "CMOR Name": "tntrl", 
    "CMOR Name, any freq": "tntrl", 
    "CCCma check": "Jason", 
    "CCCma hist file": "site", 
    "CCCma hist var names": "TTPL", 
    "CCCma hist var frequency": null, 
    "CCCma TS var name": "TTPL", 
    "CCCma diag file": null, 
    "CCCma units": null, 
    "CCCma optional deck": null, 
    "CCCma comment": null, 
    "CCCma NetCDF comment": null, 
    "CCCma target vertical grid": null, 
    "CCCma target horizontal grid": null, 
    "Include only for": null, 
    "Exclude for": null, 
    "long_name": "Tendency of Air Temperature Due to Longwave Radiative Heating", 
    "units": "K s-1", 
    "description": "alevel site time1", 
    "comment": "Tendency of air temperature due to longwave radiative heating", 
    "out_name": "tntrl", 
    "standard_name": "tendency_of_air_temperature_due_to_longwave_heating", 
    "cell_methods": "area: point time: point", 
    "positive": null, 
    "type": "real", 
    "dimensions": "alevel site time1", 
    "modeling_realm": "aerosol", 
    "frequency": "subhrPt", 
    "cell_measures": null, 
    "valid_min": null, 
    "valid_max": null, 
    "ok_min_mean_abs": null, 
    "ok_max_mean_abs": null, 
    "priority": 3.0, 
    "MIPs (requesting)": "  CFMIP(3)", 
    "experiments": "  amip (CFMIP:3)"
  }, 
  "tntrlcs": {
    "CMOR Name": "tntrlcs", 
    "CMOR Name, any freq": "tntrlcs", 
    "CCCma check": "Jason", 
    "CCCma hist file": "site", 
    "CCCma hist var names": "TTLC", 
    "CCCma hist var frequency": "ISRAD", 
    "CCCma TS var name": "TTLC", 
    "CCCma diag file": null, 
    "CCCma units": null, 
    "CCCma optional deck": null, 
    "CCCma comment": null, 
    "CCCma NetCDF comment": null, 
    "CCCma target vertical grid": null, 
    "CCCma target horizontal grid": null, 
    "Include only for": null, 
    "Exclude for": null, 
    "long_name": "Tendency of Air Temperature Due to Clear Sky Longwave Radiative Heating", 
    "units": "K s-1", 
    "description": "alevel site time1", 
    "comment": "Tendency of Air Temperature due to Clear Sky Longwave Radiative Heating", 
    "out_name": "tntrlcs", 
    "standard_name": "tendency_of_air_temperature_due_to_longwave_heating_assuming_clear_sky", 
    "cell_methods": "area: point time: point", 
    "positive": null, 
    "type": "real", 
    "dimensions": "alevel site time1", 
    "modeling_realm": "atmos", 
    "frequency": "subhrPt", 
    "cell_measures": null, 
    "valid_min": null, 
    "valid_max": null, 
    "ok_min_mean_abs": null, 
    "ok_max_mean_abs": null, 
    "priority": 1.0, 
    "MIPs (requesting)": "  CFMIP(1)", 
    "experiments": "  amip (CFMIP:1)"
  }, 
  "tntrs": {
    "CMOR Name": "tntrs", 
    "CMOR Name, any freq": "tntrs", 
    "CCCma check": "Jason", 
    "CCCma hist file": "site", 
    "CCCma hist var names": "TTPS", 
    "CCCma hist var frequency": null, 
    "CCCma TS var name": "TTPS", 
    "CCCma diag file": null, 
    "CCCma units": null, 
    "CCCma optional deck": null, 
    "CCCma comment": null, 
    "CCCma NetCDF comment": null, 
    "CCCma target vertical grid": null, 
    "CCCma target horizontal grid": null, 
    "Include only for": null, 
    "Exclude for": null, 
    "long_name": "Tendency of Air Temperature Due to Shortwave Radiative Heating", 
    "units": "K s-1", 
    "description": "alevel site time1", 
    "comment": "Tendency of air temperature due to shortwave radiative heating", 
    "out_name": "tntrs", 
    "standard_name": "tendency_of_air_temperature_due_to_shortwave_heating", 
    "cell_methods": "area: point time: point", 
    "positive": null, 
    "type": "real", 
    "dimensions": "alevel site time1", 
    "modeling_realm": "aerosol", 
    "frequency": "subhrPt", 
    "cell_measures": null, 
    "valid_min": null, 
    "valid_max": null, 
    "ok_min_mean_abs": null, 
    "ok_max_mean_abs": null, 
    "priority": 3.0, 
    "MIPs (requesting)": "  CFMIP(3)", 
    "experiments": "  amip (CFMIP:3)"
  }, 
  "tntrscs": {
    "CMOR Name": "tntrscs", 
    "CMOR Name, any freq": "tntrscs", 
    "CCCma check": "Jason", 
    "CCCma hist file": "site", 
    "CCCma hist var names": "TTSC", 
    "CCCma hist var frequency": "ISRAD", 
    "CCCma TS var name": "TTSC", 
    "CCCma diag file": null, 
    "CCCma units": null, 
    "CCCma optional deck": null, 
    "CCCma comment": null, 
    "CCCma NetCDF comment": null, 
    "CCCma target vertical grid": null, 
    "CCCma target horizontal grid": null, 
    "Include only for": null, 
    "Exclude for": null, 
    "long_name": "Tendency of Air Temperature Due to Clear Sky Shortwave Radiative Heating", 
    "units": "K s-1", 
    "description": "alevel site time1", 
    "comment": "Tendency of Air Temperature due to Clear Sky Shortwave Radiative Heating", 
    "out_name": "tntrscs", 
    "standard_name": "tendency_of_air_temperature_due_to_shortwave_heating_assuming_clear_sky", 
    "cell_methods": "area: point time: point", 
    "positive": null, 
    "type": "real", 
    "dimensions": "alevel site time1", 
    "modeling_realm": "atmos", 
    "frequency": "subhrPt", 
    "cell_measures": null, 
    "valid_min": null, 
    "valid_max": null, 
    "ok_min_mean_abs": null, 
    "ok_max_mean_abs": null, 
    "priority": 1.0, 
    "MIPs (requesting)": "  CFMIP(1)", 
    "experiments": "  amip (CFMIP:1)"
  }, 
  "tntscp": {
    "CMOR Name": "tntscp", 
    "CMOR Name, any freq": "tntscp", 
    "CCCma check": "N/A (Jason)", 
    "CCCma hist file": null, 
    "CCCma hist var names": null, 
    "CCCma hist var frequency": null, 
    "CCCma TS var name": null, 
    "CCCma diag file": null, 
    "CCCma units": null, 
    "CCCma optional deck": null, 
    "CCCma comment": null, 
    "CCCma NetCDF comment": null, 
    "CCCma target vertical grid": null, 
    "CCCma target horizontal grid": null, 
    "Include only for": null, 
    "Exclude for": null, 
    "long_name": "Tendency of Air Temperature Due to Stratiform Clouds and Precipitation", 
    "units": "K s-1", 
    "description": "alevel site time1", 
    "comment": "The phrase \"tendency_of_X\" means derivative of X with respect to time. Air temperature is the bulk temperature of the air, not the surface (skin) temperature. The specification of a physical process by the phrase \"due_to_\" process means that the quantity named is a single term in a sum of terms which together compose the general quantity named by omitting the phrase. A variable with the standard name tendency_of_air_temperature_due_to_stratiform_cloud_and_precipitation should contain net latent heating effects of all processes which convert stratiform clouds and precipitation between water vapour, liquid or ice phases. In an atmosphere model, stratiform cloud is that produced by large-scale convergence (not the convection schemes).", 
    "out_name": "tntscp", 
    "standard_name": "tendency_of_air_temperature_due_to_stratiform_cloud_and_precipitation", 
    "cell_methods": "area: point time: point", 
    "positive": null, 
    "type": "real", 
    "dimensions": "alevel site time1", 
    "modeling_realm": "atmos", 
    "frequency": "subhrPt", 
    "cell_measures": null, 
    "valid_min": null, 
    "valid_max": null, 
    "ok_min_mean_abs": null, 
    "ok_max_mean_abs": null, 
    "priority": 1.0, 
    "MIPs (requesting)": "  CFMIP(1)", 
    "experiments": "  amip (CFMIP:1)"
  }, 
  "ua": {
    "CMOR Name": "ua", 
    "CMOR Name, any freq": "ua", 
    "CCCma check": "N/A (Jason)", 
    "CCCma hist file": null, 
    "CCCma hist var names": null, 
    "CCCma hist var frequency": null, 
    "CCCma TS var name": null, 
    "CCCma diag file": null, 
    "CCCma units": null, 
    "CCCma optional deck": null, 
    "CCCma comment": null, 
    "CCCma NetCDF comment": null, 
    "CCCma target vertical grid": null, 
    "CCCma target horizontal grid": null, 
    "Include only for": null, 
    "Exclude for": null, 
    "long_name": "Eastward Wind", 
    "units": "m s-1", 
    "description": "Zonal wind (positive in a eastward direction).", 
    "comment": "Zonal wind (positive in a eastward direction).", 
    "out_name": "ua", 
    "standard_name": "eastward_wind", 
    "cell_methods": "area: mean time: point", 
    "positive": null, 
    "type": "real", 
    "dimensions": "longitude latitude alevel time1", 
    "modeling_realm": "atmos", 
    "frequency": "subhrPt", 
    "cell_measures": "area: areacella", 
    "valid_min": null, 
    "valid_max": null, 
    "ok_min_mean_abs": null, 
    "ok_max_mean_abs": null, 
    "priority": 3.0, 
    "MIPs (requesting)": "  HighResMIP(3)", 
    "experiments": "  amip (HighResMIP:3)"
  }, 
  "va": {
    "CMOR Name": "va", 
    "CMOR Name, any freq": "va", 
    "CCCma check": "N/A (Jason)", 
    "CCCma hist file": null, 
    "CCCma hist var names": null, 
    "CCCma hist var frequency": null, 
    "CCCma TS var name": null, 
    "CCCma diag file": null, 
    "CCCma units": null, 
    "CCCma optional deck": null, 
    "CCCma comment": null, 
    "CCCma NetCDF comment": null, 
    "CCCma target vertical grid": null, 
    "CCCma target horizontal grid": null, 
    "Include only for": null, 
    "Exclude for": null, 
    "long_name": "Northward Wind", 
    "units": "m s-1", 
    "description": "Meridional wind (positive in a northward direction).", 
    "comment": "Meridional wind (positive in a northward direction).", 
    "out_name": "va", 
    "standard_name": "northward_wind", 
    "cell_methods": "area: mean time: point", 
    "positive": null, 
    "type": "real", 
    "dimensions": "longitude latitude alevel time1", 
    "modeling_realm": "atmos", 
    "frequency": "subhrPt", 
    "cell_measures": "area: areacella", 
    "valid_min": null, 
    "valid_max": null, 
    "ok_min_mean_abs": null, 
    "ok_max_mean_abs": null, 
    "priority": 3.0, 
    "MIPs (requesting)": "  HighResMIP(3)", 
    "experiments": "  amip (HighResMIP:3)"
  }, 
  "wap": {
    "CMOR Name": "wap", 
    "CMOR Name, any freq": "wap", 
    "CCCma check": "N/A (Jason)", 
    "CCCma hist file": null, 
    "CCCma hist var names": null, 
    "CCCma hist var frequency": null, 
    "CCCma TS var name": null, 
    "CCCma diag file": null, 
    "CCCma units": null, 
    "CCCma optional deck": null, 
    "CCCma comment": null, 
    "CCCma NetCDF comment": null, 
    "CCCma target vertical grid": null, 
    "CCCma target horizontal grid": null, 
    "Include only for": null, 
    "Exclude for": null, 
    "long_name": "Omega (=dp/dt)", 
    "units": "Pa s-1", 
    "description": "Omega (vertical velocity in pressure coordinates, positive downwards)", 
    "comment": "Omega (vertical velocity in pressure coordinates, positive downwards)", 
    "out_name": "wap", 
    "standard_name": "lagrangian_tendency_of_air_pressure", 
    "cell_methods": "area: mean time: point", 
    "positive": null, 
    "type": "real", 
    "dimensions": "longitude latitude alevel time1", 
    "modeling_realm": "atmos", 
    "frequency": "subhrPt", 
    "cell_measures": "area: areacella", 
    "valid_min": null, 
    "valid_max": null, 
    "ok_min_mean_abs": null, 
    "ok_max_mean_abs": null, 
    "priority": 3.0, 
    "MIPs (requesting)": "  HighResMIP(3)", 
    "experiments": "  amip (HighResMIP:3)"
  }
}