{
  "_metadata_": {
    "Source file": "output_variables_dreq01.00.31_CANOE__BACKUP_26Mar2021_18h26m06sUTC.xlsx output_variables_dreq01.00.31__BACKUP_26Mar2021_18h26m02sUTC.xlsx", 
    "MIP table": "LImon"
  }, 
  "acabfIs": {
    "CMOR Name": "acabfIs", 
    "CMOR Name, any freq": "acabfIs", 
    "CCCma check": null, 
    "CCCma hist file": null, 
    "CCCma hist var names": null, 
    "CCCma hist var frequency": null, 
    "CCCma TS var name": null, 
    "CCCma diag file": null, 
    "CCCma units": null, 
    "CCCma optional deck": null, 
    "CCCma comment": null, 
    "CCCma NetCDF comment": null, 
    "CCCma target vertical grid": null, 
    "CCCma target horizontal grid": null, 
    "Include only for": null, 
    "Exclude for": null, 
    "long_name": "Ice Sheet Surface Mass Balance Flux", 
    "units": "kg m-2 s-1", 
    "description": "quantity averaged over ice_sheet (meaning grounded ice sheet and floating ice shelf) only, to avoid contamination from other surfaces (eg: permafrost)", 
    "comment": "Specific mass balance means the net rate at which ice is added per unit area at the land ice surface. Computed as the total surface mass balance on the land ice portion of the grid cell divided by land ice area in the grid cell. A negative value means loss of ice", 
    "out_name": "acabfIs", 
    "standard_name": "land_ice_surface_specific_mass_balance_flux", 
    "cell_methods": "area: time: mean where ice_sheet", 
    "positive": null, 
    "type": "real", 
    "dimensions": "longitude latitude time", 
    "modeling_realm": "landIce", 
    "frequency": "mon", 
    "cell_measures": "area: areacella", 
    "valid_min": null, 
    "valid_max": null, 
    "ok_min_mean_abs": null, 
    "ok_max_mean_abs": null, 
    "priority": 2.0, 
    "MIPs (requesting)": "  ISMIP6(2,2,2,2)", 
    "experiments": "  amip (ISMIP6:2), 1pctCO2 (ISMIP6:2), historical (ISMIP6:2), piControl (ISMIP6:2)"
  }, 
  "agesno": {
    "CMOR Name": "agesno", 
    "CMOR Name, any freq": "agesno", 
    "CCCma check": "Vivek says, not providing.", 
    "CCCma hist file": null, 
    "CCCma hist var names": null, 
    "CCCma hist var frequency": null, 
    "CCCma TS var name": null, 
    "CCCma diag file": null, 
    "CCCma units": null, 
    "CCCma optional deck": null, 
    "CCCma comment": null, 
    "CCCma NetCDF comment": null, 
    "CCCma target vertical grid": null, 
    "CCCma target horizontal grid": null, 
    "Include only for": null, 
    "Exclude for": null, 
    "long_name": "Mean Age of Snow", 
    "units": "day", 
    "description": "When computing the time-mean here, the time samples, weighted by the mass of snow on the land portion of the grid cell, are accumulated and then divided by the sum of the weights.  Reported as \"missing in regions free of snow on land.", 
    "comment": "Age of Snow (when computing the time-mean here, the time samples, weighted by the mass of snow on the land portion of the grid cell, are accumulated and then divided by the sum of the weights.  Reported as missing data in regions free of snow on land.", 
    "out_name": "agesno", 
    "standard_name": "age_of_surface_snow", 
    "cell_methods": "area: mean where land time: mean (with samples weighted by snow mass)", 
    "positive": null, 
    "type": "real", 
    "dimensions": "longitude latitude time", 
    "modeling_realm": "landIce land", 
    "frequency": "mon", 
    "cell_measures": "area: areacella", 
    "valid_min": null, 
    "valid_max": null, 
    "ok_min_mean_abs": null, 
    "ok_max_mean_abs": null, 
    "priority": 1.0, 
    "MIPs (requesting)": "  CMIP(1,1,1,1,1), DAMIP(1,1), FAFMIP(1,1,1), GeoMIP(1,1,1), HighResMIP(1,1), LUMIP(1), PMIP(1,1,1,1,1), VolMIP(1)", 
    "experiments": "  abrupt-4xCO2 (CMIP:1,FAFMIP:1,GeoMIP:1,PMIP:1), amip (CMIP:1,PMIP:1), 1pctCO2 (CMIP:1,FAFMIP:1,PMIP:1), historical (CMIP:1,DAMIP:1,GeoMIP:1,HighResMIP:1,LUMIP:1,PMIP:1), piControl (CMIP:1,DAMIP:1,FAFMIP:1,GeoMIP:1,HighResMIP:1,PMIP:1,VolMIP:1)"
  }, 
  "hfdsn": {
    "CMOR Name": "hfdsn", 
    "CMOR Name, any freq": "hfdsn", 
    "CCCma check": "Done but need to add to diagnostic deck.", 
    "CCCma hist file": "gs", 
    "CCCma hist var names": "GSNO", 
    "CCCma hist var frequency": "ISRAD", 
    "CCCma TS var name": null, 
    "CCCma diag file": null, 
    "CCCma units": null, 
    "CCCma optional deck": null, 
    "CCCma comment": "is it radiative or total? top or bottom of snow layer?", 
    "CCCma NetCDF comment": null, 
    "CCCma target vertical grid": null, 
    "CCCma target horizontal grid": null, 
    "Include only for": null, 
    "Exclude for": null, 
    "long_name": "Downward Heat Flux into Snow Where Land over Land", 
    "units": "W m-2", 
    "description": "the net downward heat flux from the atmosphere into the snow that lies on land divided by the land area in the grid cell; reported as missing for snow-free land regions or where the land fraction is 0.", 
    "comment": "the net downward heat flux from the atmosphere into the snow that lies on land divided by the land area in the grid cell; reported as 0.0 for snow-free land regions or where the land fraction is 0.", 
    "out_name": "hfdsn", 
    "standard_name": "surface_downward_heat_flux_in_snow", 
    "cell_methods": "area: mean where land time: mean", 
    "positive": "down", 
    "type": "real", 
    "dimensions": "longitude latitude time", 
    "modeling_realm": "landIce land", 
    "frequency": "mon", 
    "cell_measures": "area: areacella", 
    "valid_min": null, 
    "valid_max": null, 
    "ok_min_mean_abs": null, 
    "ok_max_mean_abs": null, 
    "priority": 1.0, 
    "MIPs (requesting)": "  CMIP(1,1,1,1,1), DAMIP(1,1), FAFMIP(1,1,1), GeoMIP(1,1,1), HighResMIP(1,1), LUMIP(1), PMIP(1,1,1,1,1), VolMIP(1)", 
    "experiments": "  abrupt-4xCO2 (CMIP:1,FAFMIP:1,GeoMIP:1,PMIP:1), amip (CMIP:1,PMIP:1), 1pctCO2 (CMIP:1,FAFMIP:1,PMIP:1), historical (CMIP:1,DAMIP:1,GeoMIP:1,HighResMIP:1,LUMIP:1,PMIP:1), piControl (CMIP:1,DAMIP:1,FAFMIP:1,GeoMIP:1,HighResMIP:1,PMIP:1,VolMIP:1)"
  }, 
  "hflsIs": {
    "CMOR Name": "hflsIs", 
    "CMOR Name, any freq": "hflsIs", 
    "CCCma check": null, 
    "CCCma hist file": null, 
    "CCCma hist var names": null, 
    "CCCma hist var frequency": null, 
    "CCCma TS var name": null, 
    "CCCma diag file": null, 
    "CCCma units": null, 
    "CCCma optional deck": null, 
    "CCCma comment": null, 
    "CCCma NetCDF comment": null, 
    "CCCma target vertical grid": null, 
    "CCCma target horizontal grid": null, 
    "Include only for": null, 
    "Exclude for": null, 
    "long_name": "Ice Sheet Surface Upward Latent Heat Flux", 
    "units": "W m-2", 
    "description": "quantity averaged over ice_sheet (meaning grounded ice sheet and floating ice shelf) only, to avoid contamination from other surfaces (eg: permafrost)", 
    "comment": "Upward latent heat flux from the ice sheet surface", 
    "out_name": "hflsIs", 
    "standard_name": "surface_upward_latent_heat_flux", 
    "cell_methods": "area: time: mean where ice_sheet", 
    "positive": "up", 
    "type": "real", 
    "dimensions": "longitude latitude time", 
    "modeling_realm": "landIce", 
    "frequency": "mon", 
    "cell_measures": "area: areacella", 
    "valid_min": null, 
    "valid_max": null, 
    "ok_min_mean_abs": null, 
    "ok_max_mean_abs": null, 
    "priority": 1.0, 
    "MIPs (requesting)": "  ISMIP6(1,1,1,1)", 
    "experiments": "  amip (ISMIP6:1), 1pctCO2 (ISMIP6:1), historical (ISMIP6:1), piControl (ISMIP6:1)"
  }, 
  "hfssIs": {
    "CMOR Name": "hfssIs", 
    "CMOR Name, any freq": "hfssIs", 
    "CCCma check": null, 
    "CCCma hist file": null, 
    "CCCma hist var names": null, 
    "CCCma hist var frequency": null, 
    "CCCma TS var name": null, 
    "CCCma diag file": null, 
    "CCCma units": null, 
    "CCCma optional deck": null, 
    "CCCma comment": null, 
    "CCCma NetCDF comment": null, 
    "CCCma target vertical grid": null, 
    "CCCma target horizontal grid": null, 
    "Include only for": null, 
    "Exclude for": null, 
    "long_name": "Ice Sheet Surface Upward Sensible Heat Flux", 
    "units": "W m-2", 
    "description": "quantity averaged over ice_sheet (meaning grounded ice sheet and floating ice shelf) only, to avoid contamination from other surfaces (eg: permafrost)", 
    "comment": "Upward sensible heat flux from the ice sheet surface. The surface sensible heat flux, also called turbulent heat flux, is the exchange of heat between the surface and the air by motion of air.", 
    "out_name": "hfssIs", 
    "standard_name": "surface_upward_sensible_heat_flux", 
    "cell_methods": "area: time: mean where ice_sheet", 
    "positive": "up", 
    "type": "real", 
    "dimensions": "longitude latitude time", 
    "modeling_realm": "landIce", 
    "frequency": "mon", 
    "cell_measures": "area: areacella", 
    "valid_min": null, 
    "valid_max": null, 
    "ok_min_mean_abs": null, 
    "ok_max_mean_abs": null, 
    "priority": 1.0, 
    "MIPs (requesting)": "  ISMIP6(1,1,1,1)", 
    "experiments": "  amip (ISMIP6:1), 1pctCO2 (ISMIP6:1), historical (ISMIP6:1), piControl (ISMIP6:1)"
  }, 
  "icemIs": {
    "CMOR Name": "icemIs", 
    "CMOR Name, any freq": "icemIs", 
    "CCCma check": null, 
    "CCCma hist file": null, 
    "CCCma hist var names": null, 
    "CCCma hist var frequency": null, 
    "CCCma TS var name": null, 
    "CCCma diag file": null, 
    "CCCma units": null, 
    "CCCma optional deck": null, 
    "CCCma comment": null, 
    "CCCma NetCDF comment": null, 
    "CCCma target vertical grid": null, 
    "CCCma target horizontal grid": null, 
    "Include only for": null, 
    "Exclude for": null, 
    "long_name": "Ice Sheet Surface Ice Melt Flux", 
    "units": "kg m-2 s-1", 
    "description": "quantity averaged over ice_sheet (meaning grounded ice sheet and floating ice shelf) only, to avoid contamination from other surfaces (eg: permafrost)", 
    "comment": "Loss of ice mass resulting from surface melting. Computed as the total surface melt water on the land ice portion of the grid cell divided by land ice area in the grid cell.", 
    "out_name": "icemIs", 
    "standard_name": "land_ice_surface_melt_flux", 
    "cell_methods": "area: time: mean where ice_sheet", 
    "positive": null, 
    "type": "real", 
    "dimensions": "longitude latitude time", 
    "modeling_realm": "landIce", 
    "frequency": "mon", 
    "cell_measures": "area: areacella", 
    "valid_min": null, 
    "valid_max": null, 
    "ok_min_mean_abs": null, 
    "ok_max_mean_abs": null, 
    "priority": 3.0, 
    "MIPs (requesting)": "  ISMIP6(3,3,3,3)", 
    "experiments": "  amip (ISMIP6:3), 1pctCO2 (ISMIP6:3), historical (ISMIP6:3), piControl (ISMIP6:3)"
  }, 
  "litemptopIs": {
    "CMOR Name": "litemptopIs", 
    "CMOR Name, any freq": "litemptopIs", 
    "CCCma check": null, 
    "CCCma hist file": null, 
    "CCCma hist var names": null, 
    "CCCma hist var frequency": null, 
    "CCCma TS var name": null, 
    "CCCma diag file": null, 
    "CCCma units": null, 
    "CCCma optional deck": null, 
    "CCCma comment": null, 
    "CCCma NetCDF comment": null, 
    "CCCma target vertical grid": null, 
    "CCCma target horizontal grid": null, 
    "Include only for": null, 
    "Exclude for": null, 
    "long_name": "Ice Sheet Temperature at Top of Ice Sheet Model", 
    "units": "K", 
    "description": "quantity averaged over ice_sheet (meaning grounded ice sheet and floating ice shelf) only, to avoid contamination from other surfaces (eg: permafrost)", 
    "comment": "Upper boundary temperature that is used to force ice sheet models. It is the temperature at the base of the snowpack models, and does not vary with seasons. Report surface temperature of ice sheet where snow thickness is zero", 
    "out_name": "litemptopIs", 
    "standard_name": "temperature_at_top_of_ice_sheet_model", 
    "cell_methods": "area: time: mean where ice_sheet", 
    "positive": null, 
    "type": "real", 
    "dimensions": "longitude latitude time", 
    "modeling_realm": "landIce", 
    "frequency": "mon", 
    "cell_measures": "area: areacella", 
    "valid_min": null, 
    "valid_max": null, 
    "ok_min_mean_abs": null, 
    "ok_max_mean_abs": null, 
    "priority": 2.0, 
    "MIPs (requesting)": "  ISMIP6(2,2,2,2)", 
    "experiments": "  amip (ISMIP6:2), 1pctCO2 (ISMIP6:2), historical (ISMIP6:2), piControl (ISMIP6:2)"
  }, 
  "lwsnl": {
    "CMOR Name": "lwsnl", 
    "CMOR Name, any freq": "lwsnl", 
    "CCCma check": null, 
    "CCCma hist file": null, 
    "CCCma hist var names": null, 
    "CCCma hist var frequency": null, 
    "CCCma TS var name": null, 
    "CCCma diag file": null, 
    "CCCma units": null, 
    "CCCma optional deck": null, 
    "CCCma comment": null, 
    "CCCma NetCDF comment": null, 
    "CCCma target vertical grid": null, 
    "CCCma target horizontal grid": null, 
    "Include only for": null, 
    "Exclude for": null, 
    "long_name": "Liquid Water Content of Snow Layer", 
    "units": "kg m-2", 
    "description": "where land over land: this is computed as the total mass of liquid water contained interstitially within the snow layer of the land portion of a grid cell divided by the area of the land portion of the cell.", 
    "comment": "The total mass of liquid water contained interstitially within the whole depth of the snow layer of the land portion of a grid cell divided by the area of the land portion of the cell.", 
    "out_name": "lwsnl", 
    "standard_name": "liquid_water_content_of_surface_snow", 
    "cell_methods": "area: mean where land time: mean", 
    "positive": null, 
    "type": "real", 
    "dimensions": "longitude latitude time", 
    "modeling_realm": "landIce land", 
    "frequency": "mon", 
    "cell_measures": "area: areacella", 
    "valid_min": null, 
    "valid_max": null, 
    "ok_min_mean_abs": null, 
    "ok_max_mean_abs": null, 
    "priority": 1.0, 
    "MIPs (requesting)": "  CMIP(2,2,2,2,2), DAMIP(2,2), FAFMIP(2,2,2), GeoMIP(2,2,2), HighResMIP(2,2), LUMIP(2), VIACSAB(1,1), VolMIP(2)", 
    "experiments": "  abrupt-4xCO2 (CMIP:2,FAFMIP:2,GeoMIP:2), amip (VIACSAB:1,CMIP:2), 1pctCO2 (CMIP:2,FAFMIP:2), historical (VIACSAB:1,CMIP:2,DAMIP:2,GeoMIP:2,HighResMIP:2,LUMIP:2), piControl (CMIP:2,DAMIP:2,FAFMIP:2,GeoMIP:2,HighResMIP:2,VolMIP:2)"
  }, 
  "mrroIs": {
    "CMOR Name": "mrroIs", 
    "CMOR Name, any freq": "mrroIs", 
    "CCCma check": null, 
    "CCCma hist file": null, 
    "CCCma hist var names": null, 
    "CCCma hist var frequency": null, 
    "CCCma TS var name": null, 
    "CCCma diag file": null, 
    "CCCma units": null, 
    "CCCma optional deck": null, 
    "CCCma comment": null, 
    "CCCma NetCDF comment": null, 
    "CCCma target vertical grid": null, 
    "CCCma target horizontal grid": null, 
    "Include only for": null, 
    "Exclude for": null, 
    "long_name": "Ice Sheet Total Runoff", 
    "units": "kg m-2 s-1", 
    "description": "quantity averaged over ice_sheet (meaning grounded ice sheet and floating ice shelf) only, to avoid contamination from other surfaces (eg: permafrost)", 
    "comment": "The total run-off (including drainage through the base of the soil model) per unit area leaving the land portion of the grid cell.", 
    "out_name": "mrroIs", 
    "standard_name": "runoff_flux", 
    "cell_methods": "area: time: mean where ice_sheet", 
    "positive": null, 
    "type": "real", 
    "dimensions": "longitude latitude time", 
    "modeling_realm": "landIce", 
    "frequency": "mon", 
    "cell_measures": "area: areacella", 
    "valid_min": null, 
    "valid_max": null, 
    "ok_min_mean_abs": null, 
    "ok_max_mean_abs": null, 
    "priority": 1.0, 
    "MIPs (requesting)": "  ISMIP6(1,1,1,1)", 
    "experiments": "  amip (ISMIP6:1), 1pctCO2 (ISMIP6:1), historical (ISMIP6:1), piControl (ISMIP6:1)"
  }, 
  "orogIs": {
    "CMOR Name": "orogIs", 
    "CMOR Name, any freq": "orogIs", 
    "CCCma check": null, 
    "CCCma hist file": null, 
    "CCCma hist var names": null, 
    "CCCma hist var frequency": null, 
    "CCCma TS var name": null, 
    "CCCma diag file": null, 
    "CCCma units": null, 
    "CCCma optional deck": null, 
    "CCCma comment": null, 
    "CCCma NetCDF comment": null, 
    "CCCma target vertical grid": null, 
    "CCCma target horizontal grid": null, 
    "Include only for": null, 
    "Exclude for": null, 
    "long_name": "Ice Sheet Surface Altitude", 
    "units": "m", 
    "description": "quantity averaged over ice_sheet (meaning grounded ice sheet and floating ice shelf) only, to avoid contamination from other surfaces (eg: permafrost)", 
    "comment": "The surface called \"surface\" means the lower boundary of the atmosphere. Altitude is the (geometric) height above the geoid, which is the reference geopotential surface. The geoid is similar to mean sea level.", 
    "out_name": "orogIs", 
    "standard_name": "surface_altitude", 
    "cell_methods": "area: time: mean where ice_sheet", 
    "positive": null, 
    "type": "real", 
    "dimensions": "longitude latitude time", 
    "modeling_realm": "landIce", 
    "frequency": "mon", 
    "cell_measures": "area: areacella", 
    "valid_min": null, 
    "valid_max": null, 
    "ok_min_mean_abs": null, 
    "ok_max_mean_abs": null, 
    "priority": 1.0, 
    "MIPs (requesting)": "  ISMIP6(1,1,1,1)", 
    "experiments": "  amip (ISMIP6:1), 1pctCO2 (ISMIP6:1), historical (ISMIP6:1), piControl (ISMIP6:1)"
  }, 
  "pflw": {
    "CMOR Name": "pflw", 
    "CMOR Name, any freq": "pflw", 
    "CCCma check": null, 
    "CCCma hist file": null, 
    "CCCma hist var names": null, 
    "CCCma hist var frequency": null, 
    "CCCma TS var name": null, 
    "CCCma diag file": null, 
    "CCCma units": null, 
    "CCCma optional deck": null, 
    "CCCma comment": null, 
    "CCCma NetCDF comment": null, 
    "CCCma target vertical grid": null, 
    "CCCma target horizontal grid": null, 
    "Include only for": null, 
    "Exclude for": null, 
    "long_name": "Liquid Water Content of Permafrost Layer", 
    "units": "kg m-2", 
    "description": "\"where land over land\", i.e., this is the total mass of liquid water contained within the permafrost layer within the land portion of a grid cell divided by the area of the land portion of the cell.", 
    "comment": "*where land over land*, i.e., this is the total mass of liquid water contained within the permafrost layer within the land portion of a grid cell divided by the area of the land portion of the cell.", 
    "out_name": "pflw", 
    "standard_name": "liquid_water_content_of_permafrost_layer", 
    "cell_methods": "area: mean where land time: mean", 
    "positive": null, 
    "type": "real", 
    "dimensions": "longitude latitude time", 
    "modeling_realm": "landIce land", 
    "frequency": "mon", 
    "cell_measures": "area: areacella", 
    "valid_min": null, 
    "valid_max": null, 
    "ok_min_mean_abs": null, 
    "ok_max_mean_abs": null, 
    "priority": 1.0, 
    "MIPs (requesting)": "  CMIP(3,3,3,3,3), DAMIP(3,3), FAFMIP(3,3,3), GeoMIP(3,3,3), HighResMIP(3,3), LUMIP(3), VIACSAB(1,1,1,2,2,2,2), VolMIP(3)", 
    "experiments": "  abrupt-4xCO2 (CMIP:3,FAFMIP:3,GeoMIP:3), amip (VIACSAB:1,VIACSAB:2,CMIP:3), 1pctCO2 (CMIP:3,FAFMIP:3), historical (VIACSAB:1,VIACSAB:2,VIACSAB:2,CMIP:3,DAMIP:3,GeoMIP:3,HighResMIP:3,LUMIP:3), piControl (VIACSAB:1,VIACSAB:2,CMIP:3,DAMIP:3,FAFMIP:3,GeoMIP:3,HighResMIP:3,VolMIP:3)"
  }, 
  "prraIs": {
    "CMOR Name": "prraIs", 
    "CMOR Name, any freq": "prraIs", 
    "CCCma check": null, 
    "CCCma hist file": null, 
    "CCCma hist var names": null, 
    "CCCma hist var frequency": null, 
    "CCCma TS var name": null, 
    "CCCma diag file": null, 
    "CCCma units": null, 
    "CCCma optional deck": null, 
    "CCCma comment": null, 
    "CCCma NetCDF comment": null, 
    "CCCma target vertical grid": null, 
    "CCCma target horizontal grid": null, 
    "Include only for": null, 
    "Exclude for": null, 
    "long_name": "Ice Sheet Rainfall Rate", 
    "units": "kg m-2 s-1", 
    "description": "quantity averaged over ice_sheet (meaning grounded ice sheet and floating ice shelf) only, to avoid contamination from other surfaces (eg: permafrost)", 
    "comment": "Rainfall rate over the ice sheet", 
    "out_name": "prraIs", 
    "standard_name": "rainfall_flux", 
    "cell_methods": "area: time: mean where ice_sheet", 
    "positive": null, 
    "type": "real", 
    "dimensions": "longitude latitude time", 
    "modeling_realm": "landIce", 
    "frequency": "mon", 
    "cell_measures": "area: areacella", 
    "valid_min": null, 
    "valid_max": null, 
    "ok_min_mean_abs": null, 
    "ok_max_mean_abs": null, 
    "priority": 1.0, 
    "MIPs (requesting)": "  ISMIP6(1,1,1,1)", 
    "experiments": "  amip (ISMIP6:1), 1pctCO2 (ISMIP6:1), historical (ISMIP6:1), piControl (ISMIP6:1)"
  }, 
  "prsnIs": {
    "CMOR Name": "prsnIs", 
    "CMOR Name, any freq": "prsnIs", 
    "CCCma check": null, 
    "CCCma hist file": null, 
    "CCCma hist var names": null, 
    "CCCma hist var frequency": null, 
    "CCCma TS var name": null, 
    "CCCma diag file": null, 
    "CCCma units": null, 
    "CCCma optional deck": null, 
    "CCCma comment": null, 
    "CCCma NetCDF comment": null, 
    "CCCma target vertical grid": null, 
    "CCCma target horizontal grid": null, 
    "Include only for": null, 
    "Exclude for": null, 
    "long_name": "Ice Sheet Snowfall Flux", 
    "units": "kg m-2 s-1", 
    "description": "quantity averaged over ice_sheet (meaning grounded ice sheet and floating ice shelf) only, to avoid contamination from other surfaces (eg: permafrost)", 
    "comment": "at surface; includes precipitation of all forms of water in the solid phase", 
    "out_name": "prsnIs", 
    "standard_name": "snowfall_flux", 
    "cell_methods": "area: time: mean where ice_sheet", 
    "positive": null, 
    "type": "real", 
    "dimensions": "longitude latitude time", 
    "modeling_realm": "landIce", 
    "frequency": "mon", 
    "cell_measures": "area: areacella", 
    "valid_min": null, 
    "valid_max": null, 
    "ok_min_mean_abs": null, 
    "ok_max_mean_abs": null, 
    "priority": 1.0, 
    "MIPs (requesting)": "  ISMIP6(1,1,1,1)", 
    "experiments": "  amip (ISMIP6:1), 1pctCO2 (ISMIP6:1), historical (ISMIP6:1), piControl (ISMIP6:1)"
  }, 
  "rldsIs": {
    "CMOR Name": "rldsIs", 
    "CMOR Name, any freq": "rldsIs", 
    "CCCma check": null, 
    "CCCma hist file": null, 
    "CCCma hist var names": null, 
    "CCCma hist var frequency": null, 
    "CCCma TS var name": null, 
    "CCCma diag file": null, 
    "CCCma units": null, 
    "CCCma optional deck": null, 
    "CCCma comment": null, 
    "CCCma NetCDF comment": null, 
    "CCCma target vertical grid": null, 
    "CCCma target horizontal grid": null, 
    "Include only for": null, 
    "Exclude for": null, 
    "long_name": "Ice Sheet Surface Downwelling Longwave Radiation", 
    "units": "W m-2", 
    "description": "quantity averaged over ice_sheet (meaning grounded ice sheet and floating ice shelf) only, to avoid contamination from other surfaces (eg: permafrost)", 
    "comment": "The surface called \"surface\" means the lower boundary of the atmosphere. \"longwave\" means longwave radiation. Downwelling radiation is radiation from above. It does not mean \"net downward\". When thought of as being incident on a surface, a radiative flux is sometimes called \"irradiance\". In addition, it is identical with the quantity measured by a cosine-collector light-meter and sometimes called \"vector irradiance\". In accordance with common usage in geophysical disciplines, \"flux\" implies per unit area, called \"flux density\" in physics.", 
    "out_name": "rldsIs", 
    "standard_name": "surface_downwelling_longwave_flux_in_air", 
    "cell_methods": "area: time: mean where ice_sheet", 
    "positive": "down", 
    "type": "real", 
    "dimensions": "longitude latitude time", 
    "modeling_realm": "landIce", 
    "frequency": "mon", 
    "cell_measures": "area: areacella", 
    "valid_min": null, 
    "valid_max": null, 
    "ok_min_mean_abs": null, 
    "ok_max_mean_abs": null, 
    "priority": 1.0, 
    "MIPs (requesting)": "  ISMIP6(1,1,1,1)", 
    "experiments": "  amip (ISMIP6:1), 1pctCO2 (ISMIP6:1), historical (ISMIP6:1), piControl (ISMIP6:1)"
  }, 
  "rlusIs": {
    "CMOR Name": "rlusIs", 
    "CMOR Name, any freq": "rlusIs", 
    "CCCma check": null, 
    "CCCma hist file": null, 
    "CCCma hist var names": null, 
    "CCCma hist var frequency": null, 
    "CCCma TS var name": null, 
    "CCCma diag file": null, 
    "CCCma units": null, 
    "CCCma optional deck": null, 
    "CCCma comment": null, 
    "CCCma NetCDF comment": null, 
    "CCCma target vertical grid": null, 
    "CCCma target horizontal grid": null, 
    "Include only for": null, 
    "Exclude for": null, 
    "long_name": "Ice Sheet Surface Upwelling Longwave Radiation", 
    "units": "W m-2", 
    "description": "quantity averaged over ice_sheet (meaning grounded ice sheet and floating ice shelf) only, to avoid contamination from other surfaces (eg: permafrost)", 
    "comment": "The surface called \"surface\" means the lower boundary of the atmosphere. \"longwave\" means longwave radiation. Upwelling radiation is radiation from below. It does not mean \"net upward\". When thought of as being incident on a surface, a radiative flux is sometimes called \"irradiance\". In addition, it is identical with the quantity measured by a cosine-collector light-meter and sometimes called \"vector irradiance\". In accordance with common usage in geophysical disciplines, \"flux\" implies per unit area, called \"flux density\" in physics.", 
    "out_name": "rlusIs", 
    "standard_name": "surface_upwelling_longwave_flux_in_air", 
    "cell_methods": "area: time: mean where ice_sheet", 
    "positive": "up", 
    "type": "real", 
    "dimensions": "longitude latitude time", 
    "modeling_realm": "landIce", 
    "frequency": "mon", 
    "cell_measures": "area: areacella", 
    "valid_min": null, 
    "valid_max": null, 
    "ok_min_mean_abs": null, 
    "ok_max_mean_abs": null, 
    "priority": 1.0, 
    "MIPs (requesting)": "  ISMIP6(1,1,1,1)", 
    "experiments": "  amip (ISMIP6:1), 1pctCO2 (ISMIP6:1), historical (ISMIP6:1), piControl (ISMIP6:1)"
  }, 
  "rsdsIs": {
    "CMOR Name": "rsdsIs", 
    "CMOR Name, any freq": "rsdsIs", 
    "CCCma check": null, 
    "CCCma hist file": null, 
    "CCCma hist var names": null, 
    "CCCma hist var frequency": null, 
    "CCCma TS var name": null, 
    "CCCma diag file": null, 
    "CCCma units": null, 
    "CCCma optional deck": null, 
    "CCCma comment": null, 
    "CCCma NetCDF comment": null, 
    "CCCma target vertical grid": null, 
    "CCCma target horizontal grid": null, 
    "Include only for": null, 
    "Exclude for": null, 
    "long_name": "Ice Sheet Surface Downwelling Shortwave Radiation", 
    "units": "W m-2", 
    "description": "quantity averaged over ice_sheet (meaning grounded ice sheet and floating ice shelf) only, to avoid contamination from other surfaces (eg: permafrost)", 
    "comment": "Surface solar irradiance for UV calculations", 
    "out_name": "rsdsIs", 
    "standard_name": "surface_downwelling_shortwave_flux_in_air", 
    "cell_methods": "area: time: mean where ice_sheet", 
    "positive": "down", 
    "type": "real", 
    "dimensions": "longitude latitude time", 
    "modeling_realm": "landIce", 
    "frequency": "mon", 
    "cell_measures": "area: areacella", 
    "valid_min": null, 
    "valid_max": null, 
    "ok_min_mean_abs": null, 
    "ok_max_mean_abs": null, 
    "priority": 1.0, 
    "MIPs (requesting)": "  ISMIP6(1,1,1,1)", 
    "experiments": "  amip (ISMIP6:1), 1pctCO2 (ISMIP6:1), historical (ISMIP6:1), piControl (ISMIP6:1)"
  }, 
  "rsusIs": {
    "CMOR Name": "rsusIs", 
    "CMOR Name, any freq": "rsusIs", 
    "CCCma check": null, 
    "CCCma hist file": null, 
    "CCCma hist var names": null, 
    "CCCma hist var frequency": null, 
    "CCCma TS var name": null, 
    "CCCma diag file": null, 
    "CCCma units": null, 
    "CCCma optional deck": null, 
    "CCCma comment": null, 
    "CCCma NetCDF comment": null, 
    "CCCma target vertical grid": null, 
    "CCCma target horizontal grid": null, 
    "Include only for": null, 
    "Exclude for": null, 
    "long_name": "Ice Sheet Surface Upwelling Shortwave Radiation", 
    "units": "W m-2", 
    "description": "quantity averaged over ice_sheet (meaning grounded ice sheet and floating ice shelf) only, to avoid contamination from other surfaces (eg: permafrost)", 
    "comment": "The surface called \"surface\" means the lower boundary of the atmosphere. \"shortwave\" means shortwave radiation. Upwelling radiation is radiation from below. It does not mean \"net upward\". When thought of as being incident on a surface, a radiative flux is sometimes called \"irradiance\". In addition, it is identical with the quantity measured by a cosine-collector light-meter and sometimes called \"vector irradiance\". In accordance with common usage in geophysical disciplines, \"flux\" implies per unit area, called \"flux density\" in physics.", 
    "out_name": "rsusIs", 
    "standard_name": "surface_upwelling_shortwave_flux_in_air", 
    "cell_methods": "area: time: mean where ice_sheet", 
    "positive": "up", 
    "type": "real", 
    "dimensions": "longitude latitude time", 
    "modeling_realm": "landIce", 
    "frequency": "mon", 
    "cell_measures": "area: areacella", 
    "valid_min": null, 
    "valid_max": null, 
    "ok_min_mean_abs": null, 
    "ok_max_mean_abs": null, 
    "priority": 1.0, 
    "MIPs (requesting)": "  ISMIP6(1,1,1,1)", 
    "experiments": "  amip (ISMIP6:1), 1pctCO2 (ISMIP6:1), historical (ISMIP6:1), piControl (ISMIP6:1)"
  }, 
  "sbl": {
    "CMOR Name": "sbl", 
    "CMOR Name, any freq": "sbl", 
    "CCCma check": null, 
    "CCCma hist file": null, 
    "CCCma hist var names": "QFN", 
    "CCCma hist var frequency": null, 
    "CCCma TS var name": "QFN", 
    "CCCma diag file": "gp", 
    "CCCma units": null, 
    "CCCma optional deck": null, 
    "CCCma comment": null, 
    "CCCma NetCDF comment": null, 
    "CCCma target vertical grid": null, 
    "CCCma target horizontal grid": null, 
    "Include only for": null, 
    "Exclude for": null, 
    "long_name": "Surface Snow and Ice Sublimation Flux", 
    "units": "kg m-2 s-1", 
    "description": "The snow and ice sublimation flux is the loss of snow and ice mass resulting from their conversion to water vapor.  Computed as the total sublimation on the land portion of the grid cell divided by the land area in the grid cell; reported as missing for snow-free land regions; reported as missing where the land fraction is 0.", 
    "comment": "The snow and ice sublimation flux is the loss of snow and ice mass per unit area from the surface resulting from their direct conversion to water vapor that enters the atmosphere.", 
    "out_name": "sbl", 
    "standard_name": "tendency_of_atmosphere_mass_content_of_water_vapor_due_to_sublimation_of_surface_snow_and_ice", 
    "cell_methods": "area: mean where land time: mean", 
    "positive": null, 
    "type": "real", 
    "dimensions": "longitude latitude time", 
    "modeling_realm": "landIce", 
    "frequency": "mon", 
    "cell_measures": "area: areacella", 
    "valid_min": -0.004959, 
    "valid_max": 0.0009936, 
    "ok_min_mean_abs": "Item <X.1 Core Attributes>: [ok_min_mean_abs] Minimum expected value of the global mean absolute value at each point in time", 
    "ok_max_mean_abs": 9.61e-05, 
    "priority": 1.0, 
    "MIPs (requesting)": "  CMIP(1,1,1,1,1), DAMIP(1,1), FAFMIP(1,1,1), GeoMIP(1,1,1), HighResMIP(1,1), ISMIP6(1,1,1,1), LUMIP(1), PMIP(1,1,1,1,1), VIACSAB(1,1,1,2,2,2,2), VolMIP(1)", 
    "experiments": "  abrupt-4xCO2 (CMIP:1,FAFMIP:1,GeoMIP:1,PMIP:1), amip (CMIP:1,ISMIP6:1,PMIP:1,VIACSAB:1,VIACSAB:2), 1pctCO2 (CMIP:1,FAFMIP:1,ISMIP6:1,PMIP:1), historical (CMIP:1,DAMIP:1,GeoMIP:1,HighResMIP:1,ISMIP6:1,LUMIP:1,PMIP:1,VIACSAB:1,VIACSAB:2,VIACSAB:2), piControl (CMIP:1,DAMIP:1,FAFMIP:1,GeoMIP:1,HighResMIP:1,ISMIP6:1,PMIP:1,VIACSAB:1,VolMIP:1,VIACSAB:2)"
  }, 
  "sblIs": {
    "CMOR Name": "sblIs", 
    "CMOR Name, any freq": "sblIs", 
    "CCCma check": null, 
    "CCCma hist file": null, 
    "CCCma hist var names": null, 
    "CCCma hist var frequency": null, 
    "CCCma TS var name": null, 
    "CCCma diag file": null, 
    "CCCma units": null, 
    "CCCma optional deck": null, 
    "CCCma comment": null, 
    "CCCma NetCDF comment": null, 
    "CCCma target vertical grid": null, 
    "CCCma target horizontal grid": null, 
    "Include only for": null, 
    "Exclude for": null, 
    "long_name": "Ice Sheet Surface Snow and Ice Sublimation Flux", 
    "units": "kg m-2 s-1", 
    "description": "quantity averaged over ice_sheet (meaning grounded ice sheet and floating ice shelf) only, to avoid contamination from other surfaces (eg: permafrost)", 
    "comment": "The snow and ice sublimation flux is the loss of snow and ice mass per unit area from the surface resulting from their direct conversion to water vapor that enters the atmosphere.", 
    "out_name": "sblIs", 
    "standard_name": "tendency_of_atmosphere_mass_content_of_water_vapor_due_to_sublimation_of_surface_snow_and_ice", 
    "cell_methods": "area: time: mean where ice_sheet", 
    "positive": null, 
    "type": "real", 
    "dimensions": "longitude latitude time", 
    "modeling_realm": "landIce", 
    "frequency": "mon", 
    "cell_measures": "area: areacella", 
    "valid_min": null, 
    "valid_max": null, 
    "ok_min_mean_abs": null, 
    "ok_max_mean_abs": null, 
    "priority": 1.0, 
    "MIPs (requesting)": "  ISMIP6(1,1,1,1)", 
    "experiments": "  amip (ISMIP6:1), 1pctCO2 (ISMIP6:1), historical (ISMIP6:1), piControl (ISMIP6:1)"
  }, 
  "sftflf": {
    "CMOR Name": "sftflf", 
    "CMOR Name, any freq": "sftflf", 
    "CCCma check": "N/A", 
    "CCCma hist file": null, 
    "CCCma hist var names": null, 
    "CCCma hist var frequency": null, 
    "CCCma TS var name": null, 
    "CCCma diag file": null, 
    "CCCma units": null, 
    "CCCma optional deck": null, 
    "CCCma comment": null, 
    "CCCma NetCDF comment": null, 
    "CCCma target vertical grid": null, 
    "CCCma target horizontal grid": null, 
    "Include only for": null, 
    "Exclude for": null, 
    "long_name": "Floating Ice Shelf Area Percentage", 
    "units": "%", 
    "description": "Percentage of grid cell covered by floating ice shelf, the component of the ice sheet that is flowing over sea water", 
    "comment": "Percentage of grid cell covered by floating ice shelf, the component of the ice sheet that is flowing over sea water", 
    "out_name": "sftflf", 
    "standard_name": "floating_ice_shelf_area_fraction", 
    "cell_methods": "area: time: mean", 
    "positive": null, 
    "type": "real", 
    "dimensions": "longitude latitude time", 
    "modeling_realm": "landIce", 
    "frequency": "mon", 
    "cell_measures": "area: areacella", 
    "valid_min": null, 
    "valid_max": null, 
    "ok_min_mean_abs": null, 
    "ok_max_mean_abs": null, 
    "priority": 1.0, 
    "MIPs (requesting)": "  CMIP(1,1,1,1,1), ISMIP6(2,2,2,2)", 
    "experiments": "  abrupt-4xCO2 (CMIP:1), amip (CMIP:1,ISMIP6:2), 1pctCO2 (CMIP:1,ISMIP6:2), historical (CMIP:1,ISMIP6:2), piControl (CMIP:1,ISMIP6:2)"
  }, 
  "sftgif": {
    "CMOR Name": "sftgif", 
    "CMOR Name, any freq": "sftgif", 
    "CCCma check": "Although glaciers are 0 or 1 over land, this requires fractional glacial so would be a fraction at continental edges. But this is a fixed field and can be done later.", 
    "CCCma hist file": null, 
    "CCCma hist var names": null, 
    "CCCma hist var frequency": null, 
    "CCCma TS var name": null, 
    "CCCma diag file": null, 
    "CCCma units": null, 
    "CCCma optional deck": null, 
    "CCCma comment": null, 
    "CCCma NetCDF comment": null, 
    "CCCma target vertical grid": null, 
    "CCCma target horizontal grid": null, 
    "Include only for": null, 
    "Exclude for": null, 
    "long_name": "Land Ice Area Percentage", 
    "units": "%", 
    "description": "Percentage of grid cell covered by land ice (ice sheet, ice shelf, ice cap, glacier)", 
    "comment": "Percentage of grid cell covered by land ice (ice sheet, ice shelf, ice cap, glacier)", 
    "out_name": "sftgif", 
    "standard_name": "land_ice_area_fraction", 
    "cell_methods": "area: time: mean", 
    "positive": null, 
    "type": "real", 
    "dimensions": "longitude latitude time", 
    "modeling_realm": "land", 
    "frequency": "mon", 
    "cell_measures": "area: areacella", 
    "valid_min": null, 
    "valid_max": null, 
    "ok_min_mean_abs": null, 
    "ok_max_mean_abs": null, 
    "priority": 1.0, 
    "MIPs (requesting)": "  CMIP(1,1,1,1,1), ISMIP6(1,1,1,1)", 
    "experiments": "  abrupt-4xCO2 (CMIP:1), amip (CMIP:1,ISMIP6:1), 1pctCO2 (CMIP:1,ISMIP6:1), historical (CMIP:1,ISMIP6:1), piControl (CMIP:1,ISMIP6:1)"
  }, 
  "sftgrf": {
    "CMOR Name": "sftgrf", 
    "CMOR Name, any freq": "sftgrf", 
    "CCCma check": "N/A", 
    "CCCma hist file": null, 
    "CCCma hist var names": null, 
    "CCCma hist var frequency": null, 
    "CCCma TS var name": null, 
    "CCCma diag file": null, 
    "CCCma units": null, 
    "CCCma optional deck": null, 
    "CCCma comment": null, 
    "CCCma NetCDF comment": null, 
    "CCCma target vertical grid": null, 
    "CCCma target horizontal grid": null, 
    "Include only for": null, 
    "Exclude for": null, 
    "long_name": "Grounded Ice Sheet Area Percentage", 
    "units": "%", 
    "description": "Percentage of grid cell covered by grounded ice sheet", 
    "comment": "Percentage of grid cell covered by grounded ice sheet", 
    "out_name": "sftgrf", 
    "standard_name": "grounded_ice_sheet_area_fraction", 
    "cell_methods": "area: time: mean", 
    "positive": null, 
    "type": "real", 
    "dimensions": "longitude latitude time", 
    "modeling_realm": "landIce", 
    "frequency": "mon", 
    "cell_measures": "area: areacella", 
    "valid_min": null, 
    "valid_max": null, 
    "ok_min_mean_abs": null, 
    "ok_max_mean_abs": null, 
    "priority": 1.0, 
    "MIPs (requesting)": "  CMIP(1,1,1,1,1), ISMIP6(1,1,1,1)", 
    "experiments": "  abrupt-4xCO2 (CMIP:1), amip (CMIP:1,ISMIP6:1), 1pctCO2 (CMIP:1,ISMIP6:1), historical (CMIP:1,ISMIP6:1), piControl (CMIP:1,ISMIP6:1)"
  }, 
  "snc": {
    "CMOR Name": "snc", 
    "CMOR Name, any freq": "snc", 
    "CCCma check": "Diag calculation needs work.", 
    "CCCma hist file": "gs", 
    "CCCma hist var names": "FNT FARE", 
    "CCCma hist var frequency": "ISBEG", 
    "CCCma TS var name": "FN", 
    "CCCma diag file": "gp", 
    "CCCma units": "-", 
    "CCCma optional deck": "mltby100", 
    "CCCma comment": "FNT(1)*FARE(1)", 
    "CCCma NetCDF comment": null, 
    "CCCma target vertical grid": null, 
    "CCCma target horizontal grid": null, 
    "Include only for": null, 
    "Exclude for": null, 
    "long_name": "Snow Area Percentage", 
    "units": "%", 
    "description": "Fraction of each grid cell that is occupied by snow that rests on land portion of cell.", 
    "comment": "Percentage of each grid cell that is occupied by snow that rests on land portion of cell.", 
    "out_name": "snc", 
    "standard_name": "surface_snow_area_fraction", 
    "cell_methods": "area: time: mean", 
    "positive": null, 
    "type": "real", 
    "dimensions": "longitude latitude time", 
    "modeling_realm": "landIce land", 
    "frequency": "mon", 
    "cell_measures": "area: areacella", 
    "valid_min": 0.0, 
    "valid_max": 105.0, 
    "ok_min_mean_abs": "Item <X.1 Core Attributes>: [ok_min_mean_abs] Minimum expected value of the global mean absolute value at each point in time", 
    "ok_max_mean_abs": 78.46, 
    "priority": 1.0, 
    "MIPs (requesting)": "  CDRMIP(3,3,3,3,3), CFMIP(1,1,1,1,1), CMIP(1,1,1,1,1), DAMIP(1,1), FAFMIP(1,1,1), GeoMIP(1,1,1), HighResMIP(1,1), ISMIP6(1,1,1,1), LUMIP(1), PMIP(1,1,1,1,1), VIACSAB(1,1,1,1), VolMIP(1)", 
    "experiments": "  abrupt-4xCO2 (CFMIP:1,CMIP:1,FAFMIP:1,GeoMIP:1,PMIP:1,CDRMIP:3), amip (CFMIP:1,CMIP:1,ISMIP6:1,PMIP:1,VIACSAB:1,CDRMIP:3), 1pctCO2 (CFMIP:1,CMIP:1,FAFMIP:1,ISMIP6:1,PMIP:1,CDRMIP:3), historical (CFMIP:1,CMIP:1,DAMIP:1,GeoMIP:1,HighResMIP:1,ISMIP6:1,LUMIP:1,PMIP:1,VIACSAB:1,VIACSAB:1,CDRMIP:3), piControl (CFMIP:1,CMIP:1,DAMIP:1,FAFMIP:1,GeoMIP:1,HighResMIP:1,ISMIP6:1,PMIP:1,VIACSAB:1,VolMIP:1,CDRMIP:3)"
  }, 
  "sncIs": {
    "CMOR Name": "sncIs", 
    "CMOR Name, any freq": "sncIs", 
    "CCCma check": null, 
    "CCCma hist file": null, 
    "CCCma hist var names": null, 
    "CCCma hist var frequency": null, 
    "CCCma TS var name": null, 
    "CCCma diag file": null, 
    "CCCma units": null, 
    "CCCma optional deck": null, 
    "CCCma comment": null, 
    "CCCma NetCDF comment": null, 
    "CCCma target vertical grid": null, 
    "CCCma target horizontal grid": null, 
    "Include only for": null, 
    "Exclude for": null, 
    "long_name": "Ice Sheet Snow Cover Percentage", 
    "units": "%", 
    "description": "quantity averaged over ice_sheet (meaning grounded ice sheet and floating ice shelf) only, to avoid contamination from other surfaces (eg: permafrost)", 
    "comment": "Percentage of each grid cell that is occupied by snow that rests on land portion of cell.", 
    "out_name": "sncIs", 
    "standard_name": "surface_snow_area_fraction", 
    "cell_methods": "area: time: mean where ice_sheet", 
    "positive": null, 
    "type": "real", 
    "dimensions": "longitude latitude time", 
    "modeling_realm": "landIce", 
    "frequency": "mon", 
    "cell_measures": "area: areacella", 
    "valid_min": null, 
    "valid_max": null, 
    "ok_min_mean_abs": null, 
    "ok_max_mean_abs": null, 
    "priority": 1.0, 
    "MIPs (requesting)": "  ISMIP6(1,1,1,1)", 
    "experiments": "  amip (ISMIP6:1), 1pctCO2 (ISMIP6:1), historical (ISMIP6:1), piControl (ISMIP6:1)"
  }, 
  "snd": {
    "CMOR Name": "snd", 
    "CMOR Name, any freq": "snd", 
    "CCCma check": null, 
    "CCCma hist file": null, 
    "CCCma hist var names": null, 
    "CCCma hist var frequency": null, 
    "CCCma TS var name": "ZN", 
    "CCCma diag file": "gp", 
    "CCCma units": null, 
    "CCCma optional deck": null, 
    "CCCma comment": "sk:change ZN/FN to ZN", 
    "CCCma NetCDF comment": null, 
    "CCCma target vertical grid": null, 
    "CCCma target horizontal grid": null, 
    "Include only for": null, 
    "Exclude for": null, 
    "long_name": "Snow Depth", 
    "units": "m", 
    "description": "where land over land, this is computed as the mean thickness of snow in the land portion of the grid cell (averaging over the entire land portion, including the snow-free fraction).  Reported as missing where the land fraction is 0.", 
    "comment": "where land over land, this is computed as the mean thickness of snow in the land portion of the grid cell (averaging over the entire land portion, including the snow-free fraction).  Reported as 0.0 where the land fraction is 0.", 
    "out_name": "snd", 
    "standard_name": "surface_snow_thickness", 
    "cell_methods": "area: mean where land time: mean", 
    "positive": null, 
    "type": "real", 
    "dimensions": "longitude latitude time", 
    "modeling_realm": "landIce land", 
    "frequency": "mon", 
    "cell_measures": "area: areacella", 
    "valid_min": 0.0, 
    "valid_max": 962.9, 
    "ok_min_mean_abs": "Item <X.1 Core Attributes>: [ok_min_mean_abs] Minimum expected value of the global mean absolute value at each point in time", 
    "ok_max_mean_abs": 4.503, 
    "priority": 1.0, 
    "MIPs (requesting)": "  CFMIP(1,1,1,1,1), CMIP(1,1,1,1,1), DAMIP(1,1), DCPP(1), FAFMIP(1,1,1), GeoMIP(1,1,1), HighResMIP(1,1), LUMIP(1), PAMIP(1), PMIP(1,1,1,1,1), VIACSAB(1,1,1,1,2,2,2,2), VolMIP(1)", 
    "experiments": "  abrupt-4xCO2 (CFMIP:1,CMIP:1,FAFMIP:1,GeoMIP:1,PMIP:1), amip (CFMIP:1,CMIP:1,PMIP:1,VIACSAB:1,VIACSAB:2), 1pctCO2 (CFMIP:1,CMIP:1,FAFMIP:1,PMIP:1), historical (CFMIP:1,CMIP:1,DAMIP:1,DCPP:1,GeoMIP:1,HighResMIP:1,LUMIP:1,PAMIP:1,PMIP:1,VIACSAB:1,VIACSAB:1,VIACSAB:2,VIACSAB:2), piControl (CFMIP:1,CMIP:1,DAMIP:1,FAFMIP:1,GeoMIP:1,HighResMIP:1,PMIP:1,VIACSAB:1,VolMIP:1,VIACSAB:2)"
  }, 
  "snicefreezIs": {
    "CMOR Name": "snicefreezIs", 
    "CMOR Name, any freq": "snicefreezIs", 
    "CCCma check": null, 
    "CCCma hist file": null, 
    "CCCma hist var names": null, 
    "CCCma hist var frequency": null, 
    "CCCma TS var name": null, 
    "CCCma diag file": null, 
    "CCCma units": null, 
    "CCCma optional deck": null, 
    "CCCma comment": null, 
    "CCCma NetCDF comment": null, 
    "CCCma target vertical grid": null, 
    "CCCma target horizontal grid": null, 
    "Include only for": null, 
    "Exclude for": null, 
    "long_name": "Ice Sheet Surface Snow and Ice Refreeze Flux", 
    "units": "kg m-2 s-1", 
    "description": "quantity averaged over ice_sheet (meaning grounded ice sheet and floating ice shelf) only, to avoid contamination from other surfaces (eg: permafrost)", 
    "comment": "Mass flux of surface meltwater which refreezes within the snowpack. Computed as the total refreezing on the land ice portion of the grid cell divided by land ice area in the grid cell.", 
    "out_name": "snicefreezIs", 
    "standard_name": "surface_snow_and_ice_refreezing_flux", 
    "cell_methods": "area: time: mean where ice_sheet", 
    "positive": null, 
    "type": "real", 
    "dimensions": "longitude latitude time", 
    "modeling_realm": "landIce", 
    "frequency": "mon", 
    "cell_measures": "area: areacella", 
    "valid_min": null, 
    "valid_max": null, 
    "ok_min_mean_abs": null, 
    "ok_max_mean_abs": null, 
    "priority": 2.0, 
    "MIPs (requesting)": "  ISMIP6(2,2,2,2)", 
    "experiments": "  amip (ISMIP6:2), 1pctCO2 (ISMIP6:2), historical (ISMIP6:2), piControl (ISMIP6:2)"
  }, 
  "snicemIs": {
    "CMOR Name": "snicemIs", 
    "CMOR Name, any freq": "snicemIs", 
    "CCCma check": null, 
    "CCCma hist file": null, 
    "CCCma hist var names": null, 
    "CCCma hist var frequency": null, 
    "CCCma TS var name": null, 
    "CCCma diag file": null, 
    "CCCma units": null, 
    "CCCma optional deck": null, 
    "CCCma comment": null, 
    "CCCma NetCDF comment": null, 
    "CCCma target vertical grid": null, 
    "CCCma target horizontal grid": null, 
    "Include only for": null, 
    "Exclude for": null, 
    "long_name": "Ice Sheet Surface Snow and Ice Melt Flux", 
    "units": "kg m-2 s-1", 
    "description": "quantity averaged over ice_sheet (meaning grounded ice sheet and floating ice shelf) only, to avoid contamination from other surfaces (eg: permafrost)", 
    "comment": "Loss of snow and ice mass resulting from surface melting. Computed as the total surface melt on the land ice portion of the grid cell divided by land ice area in the grid cell.", 
    "out_name": "snicemIs", 
    "standard_name": "surface_snow_and_ice_melt_flux", 
    "cell_methods": "area: time: mean where ice_sheet", 
    "positive": null, 
    "type": "real", 
    "dimensions": "longitude latitude time", 
    "modeling_realm": "landIce", 
    "frequency": "mon", 
    "cell_measures": "area: areacella", 
    "valid_min": null, 
    "valid_max": null, 
    "ok_min_mean_abs": null, 
    "ok_max_mean_abs": null, 
    "priority": 2.0, 
    "MIPs (requesting)": "  ISMIP6(2,2,2,2)", 
    "experiments": "  amip (ISMIP6:2), 1pctCO2 (ISMIP6:2), historical (ISMIP6:2), piControl (ISMIP6:2)"
  }, 
  "snm": {
    "CMOR Name": "snm", 
    "CMOR Name, any freq": "snm", 
    "CCCma check": null, 
    "CCCma hist file": null, 
    "CCCma hist var names": null, 
    "CCCma hist var frequency": null, 
    "CCCma TS var name": "SMLT DATA_DESCRIPTION", 
    "CCCma diag file": "gp", 
    "CCCma units": null, 
    "CCCma optional deck": "maskocean0", 
    "CCCma comment": "mask out ocean. Changed Oct 19, 2011(by Slava Kharin)", 
    "CCCma NetCDF comment": null, 
    "CCCma target vertical grid": null, 
    "CCCma target horizontal grid": null, 
    "Include only for": null, 
    "Exclude for": null, 
    "long_name": "Surface Snow Melt", 
    "units": "kg m-2 s-1", 
    "description": "Computed as the total surface melt water on the land portion of the grid cell divided by the land area in the grid cell; report as 0.0 for snow-free land regions; report as missing where the land fraction is 0.", 
    "comment": "The total surface snow melt rate on the land portion of the grid cell divided by the land area in the grid cell; report as zero for snow-free land regions and missing where there is no land.", 
    "out_name": "snm", 
    "standard_name": "surface_snow_melt_flux", 
    "cell_methods": "area: mean where land time: mean", 
    "positive": null, 
    "type": "real", 
    "dimensions": "longitude latitude time", 
    "modeling_realm": "landIce land", 
    "frequency": "mon", 
    "cell_measures": "area: areacella", 
    "valid_min": 0.0, 
    "valid_max": 0.0003926, 
    "ok_min_mean_abs": "Item <X.1 Core Attributes>: [ok_min_mean_abs] Minimum expected value of the global mean absolute value at each point in time", 
    "ok_max_mean_abs": 6.123e-06, 
    "priority": 1.0, 
    "MIPs (requesting)": "  CMIP(1,1,1,1,1), DAMIP(1,1), FAFMIP(1,1,1), GeoMIP(1,1,1), HighResMIP(1,1), ISMIP6(1,1,1,1), LUMIP(1), PMIP(1,1,1,1,1), VIACSAB(1,1,1,2,2,2,2), VolMIP(1)", 
    "experiments": "  abrupt-4xCO2 (CMIP:1,FAFMIP:1,GeoMIP:1,PMIP:1), amip (CMIP:1,ISMIP6:1,PMIP:1,VIACSAB:1,VIACSAB:2), 1pctCO2 (CMIP:1,FAFMIP:1,ISMIP6:1,PMIP:1), historical (CMIP:1,DAMIP:1,GeoMIP:1,HighResMIP:1,ISMIP6:1,LUMIP:1,PMIP:1,VIACSAB:1,VIACSAB:2,VIACSAB:2), piControl (CMIP:1,DAMIP:1,FAFMIP:1,GeoMIP:1,HighResMIP:1,ISMIP6:1,PMIP:1,VIACSAB:1,VolMIP:1,VIACSAB:2)"
  }, 
  "snmIs": {
    "CMOR Name": "snmIs", 
    "CMOR Name, any freq": "snmIs", 
    "CCCma check": null, 
    "CCCma hist file": null, 
    "CCCma hist var names": null, 
    "CCCma hist var frequency": null, 
    "CCCma TS var name": null, 
    "CCCma diag file": null, 
    "CCCma units": null, 
    "CCCma optional deck": null, 
    "CCCma comment": null, 
    "CCCma NetCDF comment": null, 
    "CCCma target vertical grid": null, 
    "CCCma target horizontal grid": null, 
    "Include only for": null, 
    "Exclude for": null, 
    "long_name": "Ice Sheet Surface Snow Melt", 
    "units": "kg m-2 s-1", 
    "description": "Loss of snow mass resulting from surface melting. Computed as the surface melt water from snow on the ice sheet portion of the grid cell divided by the ice_sheet area in the grid cell; report as 0.0 for snow-free land_ice regions; report as missing where the land fraction is 0.", 
    "comment": "The total surface snow melt rate on the land portion of the grid cell divided by the land area in the grid cell; report as zero for snow-free land regions and missing where there is no land.", 
    "out_name": "snmIs", 
    "standard_name": "surface_snow_melt_flux", 
    "cell_methods": "area: time: mean where ice_sheet", 
    "positive": null, 
    "type": "real", 
    "dimensions": "longitude latitude time", 
    "modeling_realm": "landIce", 
    "frequency": "mon", 
    "cell_measures": "area: areacella", 
    "valid_min": null, 
    "valid_max": null, 
    "ok_min_mean_abs": null, 
    "ok_max_mean_abs": null, 
    "priority": 1.0, 
    "MIPs (requesting)": "  ISMIP6(1,1,1,1)", 
    "experiments": "  amip (ISMIP6:1), 1pctCO2 (ISMIP6:1), historical (ISMIP6:1), piControl (ISMIP6:1)"
  }, 
  "snw": {
    "CMOR Name": "snw", 
    "CMOR Name, any freq": "snw", 
    "CCCma check": null, 
    "CCCma hist file": null, 
    "CCCma hist var names": null, 
    "CCCma hist var frequency": null, 
    "CCCma TS var name": "SNO DATA_DESCRIPTION", 
    "CCCma diag file": "gp", 
    "CCCma units": null, 
    "CCCma optional deck": "maskocean", 
    "CCCma comment": "mask out ocean MASK!=0 from DATA_DESCRIPTION", 
    "CCCma NetCDF comment": null, 
    "CCCma target vertical grid": null, 
    "CCCma target horizontal grid": null, 
    "Include only for": null, 
    "Exclude for": null, 
    "long_name": "Surface Snow Amount", 
    "units": "kg m-2", 
    "description": "Computed as the mass of surface snow on the land portion of the grid cell divided by the land area in the grid cell; reported as missing where the land fraction is 0; excluded is snow on vegetation canopy or on sea ice.", 
    "comment": "The mass of surface snow on the land portion of the grid cell divided by the land area in the grid cell; reported as missing where the land fraction is 0; excludes snow on vegetation canopy or on sea ice.", 
    "out_name": "snw", 
    "standard_name": "surface_snow_amount", 
    "cell_methods": "area: mean where land time: mean", 
    "positive": null, 
    "type": "real", 
    "dimensions": "longitude latitude time", 
    "modeling_realm": "landIce land", 
    "frequency": "mon", 
    "cell_measures": "area: areacella", 
    "valid_min": -0.007542, 
    "valid_max": 955500.0, 
    "ok_min_mean_abs": "Item <X.1 Core Attributes>: [ok_min_mean_abs] Minimum expected value of the global mean absolute value at each point in time", 
    "ok_max_mean_abs": 12130.0, 
    "priority": 1.0, 
    "MIPs (requesting)": "  CFMIP(1,1,1,1,1), CMIP(1,1,1,1,1), DAMIP(1,1), FAFMIP(1,1,1), GeoMIP(1,1,1), HighResMIP(1,1), LUMIP(1), PMIP(1,1,1,1,1), VIACSAB(1,1,1,2,2,2,2), VolMIP(1)", 
    "experiments": "  abrupt-4xCO2 (CFMIP:1,CMIP:1,FAFMIP:1,GeoMIP:1,PMIP:1), amip (CFMIP:1,CMIP:1,PMIP:1,VIACSAB:1,VIACSAB:2), 1pctCO2 (CFMIP:1,CMIP:1,FAFMIP:1,PMIP:1), historical (CFMIP:1,CMIP:1,DAMIP:1,GeoMIP:1,HighResMIP:1,LUMIP:1,PMIP:1,VIACSAB:1,VIACSAB:2,VIACSAB:2), piControl (CFMIP:1,CMIP:1,DAMIP:1,FAFMIP:1,GeoMIP:1,HighResMIP:1,PMIP:1,VIACSAB:1,VolMIP:1,VIACSAB:2)"
  }, 
  "sootsn": {
    "CMOR Name": "sootsn", 
    "CMOR Name, any freq": "sootsn", 
    "CCCma check": null, 
    "CCCma hist file": null, 
    "CCCma hist var names": null, 
    "CCCma hist var frequency": null, 
    "CCCma TS var name": null, 
    "CCCma diag file": null, 
    "CCCma units": null, 
    "CCCma optional deck": null, 
    "CCCma comment": null, 
    "CCCma NetCDF comment": null, 
    "CCCma target vertical grid": null, 
    "CCCma target horizontal grid": null, 
    "Include only for": null, 
    "Exclude for": null, 
    "long_name": "Snow Soot Content", 
    "units": "kg m-2", 
    "description": "the entire land portion of the grid cell is considered, with snow soot content set to 0.0 in regions free of snow.", 
    "comment": "the entire land portion of the grid cell is considered, with snow soot content set to 0.0 in regions free of snow.", 
    "out_name": "sootsn", 
    "standard_name": "soot_content_of_surface_snow", 
    "cell_methods": "area: mean where land time: mean", 
    "positive": null, 
    "type": "real", 
    "dimensions": "longitude latitude time", 
    "modeling_realm": "landIce land", 
    "frequency": "mon", 
    "cell_measures": "area: areacella", 
    "valid_min": null, 
    "valid_max": null, 
    "ok_min_mean_abs": null, 
    "ok_max_mean_abs": null, 
    "priority": 1.0, 
    "MIPs (requesting)": "  CMIP(2,2,2,2,2), DAMIP(2,2), FAFMIP(2,2,2), GeoMIP(2,2,2), HighResMIP(2,2), LUMIP(2), VIACSAB(1,2), VolMIP(2)", 
    "experiments": "  abrupt-4xCO2 (CMIP:2,FAFMIP:2,GeoMIP:2), amip (CMIP:2), 1pctCO2 (CMIP:2,FAFMIP:2), historical (VIACSAB:1,CMIP:2,DAMIP:2,GeoMIP:2,HighResMIP:2,LUMIP:2,VIACSAB:2), piControl (CMIP:2,DAMIP:2,FAFMIP:2,GeoMIP:2,HighResMIP:2,VolMIP:2)"
  }, 
  "tasIs": {
    "CMOR Name": "tasIs", 
    "CMOR Name, any freq": "tasIs", 
    "CCCma check": null, 
    "CCCma hist file": null, 
    "CCCma hist var names": null, 
    "CCCma hist var frequency": null, 
    "CCCma TS var name": null, 
    "CCCma diag file": null, 
    "CCCma units": null, 
    "CCCma optional deck": null, 
    "CCCma comment": null, 
    "CCCma NetCDF comment": null, 
    "CCCma target vertical grid": null, 
    "CCCma target horizontal grid": null, 
    "Include only for": null, 
    "Exclude for": null, 
    "long_name": "Ice Sheet Near-Surface Air Temperature", 
    "units": "K", 
    "description": "quantity averaged over ice_sheet (meaning grounded ice sheet and floating ice shelf) only, to avoid contamination from other surfaces (eg: permafrost)", 
    "comment": "near-surface (usually, 2 meter) air temperature", 
    "out_name": "tasIs", 
    "standard_name": "air_temperature", 
    "cell_methods": "area: time: mean where ice_sheet", 
    "positive": null, 
    "type": "real", 
    "dimensions": "longitude latitude time", 
    "modeling_realm": "landIce", 
    "frequency": "mon", 
    "cell_measures": "area: areacella", 
    "valid_min": null, 
    "valid_max": null, 
    "ok_min_mean_abs": null, 
    "ok_max_mean_abs": null, 
    "priority": 1.0, 
    "MIPs (requesting)": "  ISMIP6(1,1,1,1)", 
    "experiments": "  amip (ISMIP6:1), 1pctCO2 (ISMIP6:1), historical (ISMIP6:1), piControl (ISMIP6:1)"
  }, 
  "tpf": {
    "CMOR Name": "tpf", 
    "CMOR Name, any freq": "tpf", 
    "CCCma check": null, 
    "CCCma hist file": null, 
    "CCCma hist var names": null, 
    "CCCma hist var frequency": null, 
    "CCCma TS var name": null, 
    "CCCma diag file": null, 
    "CCCma units": null, 
    "CCCma optional deck": null, 
    "CCCma comment": null, 
    "CCCma NetCDF comment": null, 
    "CCCma target vertical grid": null, 
    "CCCma target horizontal grid": null, 
    "Include only for": null, 
    "Exclude for": null, 
    "long_name": "Permafrost Layer Thickness", 
    "units": "m", 
    "description": "where land over land: This is the mean thickness of the permafrost layer in the land portion of the grid cell.  Reported as missing in permafrost-free regions.", 
    "comment": "The mean thickness of the permafrost layer in the land portion of the grid cell.  Reported as zero in permafrost-free regions.", 
    "out_name": "tpf", 
    "standard_name": "permafrost_layer_thickness", 
    "cell_methods": "area: mean where land time: mean", 
    "positive": null, 
    "type": "real", 
    "dimensions": "longitude latitude time", 
    "modeling_realm": "landIce land", 
    "frequency": "mon", 
    "cell_measures": "area: areacella", 
    "valid_min": null, 
    "valid_max": null, 
    "ok_min_mean_abs": null, 
    "ok_max_mean_abs": null, 
    "priority": 1.0, 
    "MIPs (requesting)": "  CDRMIP(3,3,3,3,3), CMIP(3,3,3,3,3), DAMIP(3,3), FAFMIP(3,3,3), GeoMIP(3,3,3), HighResMIP(3,3), LUMIP(3), PMIP(1,1,1,1,1), VIACSAB(1,1,1,2,2,2,2), VolMIP(3)", 
    "experiments": "  abrupt-4xCO2 (PMIP:1,CDRMIP:3,CMIP:3,FAFMIP:3,GeoMIP:3), amip (PMIP:1,VIACSAB:1,VIACSAB:2,CDRMIP:3,CMIP:3), 1pctCO2 (PMIP:1,CDRMIP:3,CMIP:3,FAFMIP:3), historical (PMIP:1,VIACSAB:1,VIACSAB:2,VIACSAB:2,CDRMIP:3,CMIP:3,DAMIP:3,GeoMIP:3,HighResMIP:3,LUMIP:3), piControl (PMIP:1,VIACSAB:1,VIACSAB:2,CDRMIP:3,CMIP:3,DAMIP:3,FAFMIP:3,GeoMIP:3,HighResMIP:3,VolMIP:3)"
  }, 
  "tsIs": {
    "CMOR Name": "tsIs", 
    "CMOR Name, any freq": "tsIs", 
    "CCCma check": null, 
    "CCCma hist file": null, 
    "CCCma hist var names": null, 
    "CCCma hist var frequency": null, 
    "CCCma TS var name": null, 
    "CCCma diag file": null, 
    "CCCma units": null, 
    "CCCma optional deck": null, 
    "CCCma comment": null, 
    "CCCma NetCDF comment": null, 
    "CCCma target vertical grid": null, 
    "CCCma target horizontal grid": null, 
    "Include only for": null, 
    "Exclude for": null, 
    "long_name": "Ice Sheet Surface Temperature", 
    "units": "K", 
    "description": "quantity averaged over ice_sheet (meaning grounded ice sheet and floating ice shelf) only, to avoid contamination from other surfaces (eg: permafrost)", 
    "comment": "Temperature of the lower boundary of the atmosphere", 
    "out_name": "tsIs", 
    "standard_name": "surface_temperature", 
    "cell_methods": "area: time: mean where ice_sheet", 
    "positive": null, 
    "type": "real", 
    "dimensions": "longitude latitude time", 
    "modeling_realm": "landIce", 
    "frequency": "mon", 
    "cell_measures": "area: areacella", 
    "valid_min": null, 
    "valid_max": null, 
    "ok_min_mean_abs": null, 
    "ok_max_mean_abs": null, 
    "priority": 1.0, 
    "MIPs (requesting)": "  ISMIP6(1,1,1,1)", 
    "experiments": "  amip (ISMIP6:1), 1pctCO2 (ISMIP6:1), historical (ISMIP6:1), piControl (ISMIP6:1)"
  }, 
  "tsn": {
    "CMOR Name": "tsn", 
    "CMOR Name, any freq": "tsn", 
    "CCCma check": null, 
    "CCCma hist file": null, 
    "CCCma hist var names": null, 
    "CCCma hist var frequency": null, 
    "CCCma TS var name": "TN", 
    "CCCma diag file": "gp", 
    "CCCma units": null, 
    "CCCma optional deck": null, 
    "CCCma comment": null, 
    "CCCma NetCDF comment": null, 
    "CCCma target vertical grid": null, 
    "CCCma target horizontal grid": null, 
    "Include only for": null, 
    "Exclude for": null, 
    "long_name": "Snow Internal Temperature", 
    "units": "K", 
    "description": "This temperature is averaged over all the snow in the grid cell that rests on land or land ice.  When computing the time-mean here, the time samples, weighted by the mass of snow on the land portion of the grid cell, are accumulated and then divided by the sum of the weights.   Reported as \"missing in regions free of snow on land.", 
    "comment": "This temperature is averaged over all the snow in the grid cell that rests on land or land ice.  When computing the time-mean here, the time samples, weighted by the mass of snow on the land portion of the grid cell, are accumulated and then divided by the sum of the weights.   Reported as missing in regions free of snow on land.", 
    "out_name": "tsn", 
    "standard_name": "temperature_in_surface_snow", 
    "cell_methods": "area: mean where land time: mean (with samples weighted by snow mass)", 
    "positive": null, 
    "type": "real", 
    "dimensions": "longitude latitude time", 
    "modeling_realm": "landIce land", 
    "frequency": "mon", 
    "cell_measures": "area: areacella", 
    "valid_min": null, 
    "valid_max": null, 
    "ok_min_mean_abs": null, 
    "ok_max_mean_abs": null, 
    "priority": 1.0, 
    "MIPs (requesting)": "  CMIP(1,1,1,1,1), DAMIP(1,1), FAFMIP(1,1,1), GeoMIP(1,1,1), HighResMIP(1,1), ISMIP6(1,1,1,1), LUMIP(1), VIACSAB(1,1,1,2,2,2,2), VolMIP(1)", 
    "experiments": "  abrupt-4xCO2 (CMIP:1,FAFMIP:1,GeoMIP:1), amip (CMIP:1,ISMIP6:1,VIACSAB:1,VIACSAB:2), 1pctCO2 (CMIP:1,FAFMIP:1,ISMIP6:1), historical (CMIP:1,DAMIP:1,GeoMIP:1,HighResMIP:1,ISMIP6:1,LUMIP:1,VIACSAB:1,VIACSAB:2,VIACSAB:2), piControl (CMIP:1,DAMIP:1,FAFMIP:1,GeoMIP:1,HighResMIP:1,ISMIP6:1,VIACSAB:1,VolMIP:1,VIACSAB:2)"
  }, 
  "tsnIs": {
    "CMOR Name": "tsnIs", 
    "CMOR Name, any freq": "tsnIs", 
    "CCCma check": null, 
    "CCCma hist file": null, 
    "CCCma hist var names": null, 
    "CCCma hist var frequency": null, 
    "CCCma TS var name": null, 
    "CCCma diag file": null, 
    "CCCma units": null, 
    "CCCma optional deck": null, 
    "CCCma comment": null, 
    "CCCma NetCDF comment": null, 
    "CCCma target vertical grid": null, 
    "CCCma target horizontal grid": null, 
    "Include only for": null, 
    "Exclude for": null, 
    "long_name": "Ice Sheet Snow Internal Temperature", 
    "units": "K", 
    "description": "quantity averaged over ice_sheet (meaning grounded ice sheet and floating ice shelf) only, to avoid contamination from other surfaces (eg: permafrost)", 
    "comment": "This temperature is averaged over all the snow in the grid cell that rests on land or land ice.  When computing the time-mean here, the time samples, weighted by the mass of snow on the land portion of the grid cell, are accumulated and then divided by the sum of the weights.   Reported as missing in regions free of snow on land.", 
    "out_name": "tsnIs", 
    "standard_name": "temperature_in_surface_snow", 
    "cell_methods": "area: time: mean where ice_sheet", 
    "positive": null, 
    "type": "real", 
    "dimensions": "longitude latitude time", 
    "modeling_realm": "landIce", 
    "frequency": "mon", 
    "cell_measures": "area: areacella", 
    "valid_min": null, 
    "valid_max": null, 
    "ok_min_mean_abs": null, 
    "ok_max_mean_abs": null, 
    "priority": 1.0, 
    "MIPs (requesting)": "  ISMIP6(1,1,1,1)", 
    "experiments": "  amip (ISMIP6:1), 1pctCO2 (ISMIP6:1), historical (ISMIP6:1), piControl (ISMIP6:1)"
  }
}