{
  "_metadata_": {
    "Source file": "output_variables_dreq01.00.31_CANOE__BACKUP_26Mar2021_18h26m06sUTC.xlsx output_variables_dreq01.00.31__BACKUP_26Mar2021_18h26m02sUTC.xlsx", 
    "MIP table": "E1hr"
  }, 
  "pr": {
    "CMOR Name": "pr", 
    "CMOR Name, any freq": "pr", 
    "CCCma check": "Done.", 
    "CCCma hist file": "gs", 
    "CCCma hist var names": "PCHF,PSHF,PLHF", 
    "CCCma hist var frequency": "ISHF", 
    "CCCma TS var name": "PCHF,PSHF,PLHF", 
    "CCCma diag file": null, 
    "CCCma units": "kg m-2 s-1", 
    "CCCma optional deck": null, 
    "CCCma comment": "PLHF+PCHF+PSHF", 
    "CCCma NetCDF comment": null, 
    "CCCma target vertical grid": null, 
    "CCCma target horizontal grid": null, 
    "Include only for": null, 
    "Exclude for": null, 
    "long_name": "Precipitation", 
    "units": "kg m-2 s-1", 
    "description": "Total precipitation flux", 
    "comment": "includes both liquid and solid phases", 
    "out_name": "pr", 
    "standard_name": "precipitation_flux", 
    "cell_methods": "area: time: mean", 
    "positive": null, 
    "type": "real", 
    "dimensions": "longitude latitude time", 
    "modeling_realm": "atmos", 
    "frequency": "1hr", 
    "cell_measures": "area: areacella", 
    "valid_min": null, 
    "valid_max": null, 
    "ok_min_mean_abs": null, 
    "ok_max_mean_abs": null, 
    "priority": 1.0, 
    "MIPs (requesting)": "  HighResMIP(1,1,1)", 
    "experiments": "  piControl (HighResMIP:1), historical (HighResMIP:1), amip (HighResMIP:1)"
  }, 
  "prc": {
    "CMOR Name": "prc", 
    "CMOR Name, any freq": "prc", 
    "CCCma check": "Done.", 
    "CCCma hist file": "gs", 
    "CCCma hist var names": "PCHF,PSHF", 
    "CCCma hist var frequency": "ISHF", 
    "CCCma TS var name": "PCHF,PSHF,PLHF", 
    "CCCma diag file": null, 
    "CCCma units": "kg m-2 s-1", 
    "CCCma optional deck": null, 
    "CCCma comment": "PCHF+PSHF", 
    "CCCma NetCDF comment": null, 
    "CCCma target vertical grid": null, 
    "CCCma target horizontal grid": null, 
    "Include only for": null, 
    "Exclude for": null, 
    "long_name": "Convective Precipitation", 
    "units": "kg m-2 s-1", 
    "description": "Convective precipitation flux", 
    "comment": "Convective precipitation at surface; includes both liquid and solid phases.", 
    "out_name": "prc", 
    "standard_name": "convective_precipitation_flux", 
    "cell_methods": "area: time: mean", 
    "positive": null, 
    "type": "real", 
    "dimensions": "longitude latitude time", 
    "modeling_realm": "atmos", 
    "frequency": "1hr", 
    "cell_measures": "area: areacella", 
    "valid_min": null, 
    "valid_max": null, 
    "ok_min_mean_abs": null, 
    "ok_max_mean_abs": null, 
    "priority": 1.0, 
    "MIPs (requesting)": "  HighResMIP(1,1,1)", 
    "experiments": "  piControl (HighResMIP:1), historical (HighResMIP:1), amip (HighResMIP:1)"
  }, 
  "psl": {
    "CMOR Name": "psl", 
    "CMOR Name, any freq": "psl", 
    "CCCma check": null, 
    "CCCma hist file": null, 
    "CCCma hist var names": null, 
    "CCCma hist var frequency": null, 
    "CCCma TS var name": null, 
    "CCCma diag file": null, 
    "CCCma units": null, 
    "CCCma optional deck": null, 
    "CCCma comment": null, 
    "CCCma NetCDF comment": null, 
    "CCCma target vertical grid": null, 
    "CCCma target horizontal grid": null, 
    "Include only for": null, 
    "Exclude for": null, 
    "long_name": "Sea Level Pressure", 
    "units": "Pa", 
    "description": "Sea level pressure", 
    "comment": "Sea Level Pressure", 
    "out_name": "psl", 
    "standard_name": "air_pressure_at_mean_sea_level", 
    "cell_methods": "area: mean time: point", 
    "positive": null, 
    "type": "real", 
    "dimensions": "longitude latitude time1", 
    "modeling_realm": "atmos", 
    "frequency": "1hrPt", 
    "cell_measures": "area: areacella", 
    "valid_min": null, 
    "valid_max": null, 
    "ok_min_mean_abs": null, 
    "ok_max_mean_abs": null, 
    "priority": 3.0, 
    "MIPs (requesting)": "  HighResMIP(3)", 
    "experiments": "  amip (HighResMIP:3)"
  }, 
  "rlut": {
    "CMOR Name": "rlut", 
    "CMOR Name, any freq": "rlut", 
    "CCCma check": null, 
    "CCCma hist file": null, 
    "CCCma hist var names": null, 
    "CCCma hist var frequency": null, 
    "CCCma TS var name": null, 
    "CCCma diag file": null, 
    "CCCma units": null, 
    "CCCma optional deck": null, 
    "CCCma comment": null, 
    "CCCma NetCDF comment": null, 
    "CCCma target vertical grid": null, 
    "CCCma target horizontal grid": null, 
    "Include only for": null, 
    "Exclude for": null, 
    "long_name": "TOA Outgoing Longwave Radiation", 
    "units": "W m-2", 
    "description": "outgoing LW radiation at TOA", 
    "comment": "at the top of the atmosphere (to be compared with satellite measurements)", 
    "out_name": "rlut", 
    "standard_name": "toa_outgoing_longwave_flux", 
    "cell_methods": "area: mean time: point", 
    "positive": "up", 
    "type": "real", 
    "dimensions": "longitude latitude time1", 
    "modeling_realm": "atmos", 
    "frequency": "1hrPt", 
    "cell_measures": "area: areacella", 
    "valid_min": null, 
    "valid_max": null, 
    "ok_min_mean_abs": null, 
    "ok_max_mean_abs": null, 
    "priority": 3.0, 
    "MIPs (requesting)": "  HighResMIP(3)", 
    "experiments": "  amip (HighResMIP:3)"
  }, 
  "ta": {
    "CMOR Name": "ta", 
    "CMOR Name, any freq": "ta", 
    "CCCma check": null, 
    "CCCma hist file": null, 
    "CCCma hist var names": null, 
    "CCCma hist var frequency": null, 
    "CCCma TS var name": null, 
    "CCCma diag file": null, 
    "CCCma units": null, 
    "CCCma optional deck": null, 
    "CCCma comment": null, 
    "CCCma NetCDF comment": null, 
    "CCCma target vertical grid": null, 
    "CCCma target horizontal grid": null, 
    "Include only for": null, 
    "Exclude for": null, 
    "long_name": "Air Temperature", 
    "units": "K", 
    "description": "Pressure levels (3)", 
    "comment": "Air Temperature", 
    "out_name": "ta", 
    "standard_name": "air_temperature", 
    "cell_methods": "area: mean time: point", 
    "positive": null, 
    "type": "real", 
    "dimensions": "longitude latitude plev3 time1", 
    "modeling_realm": "atmos", 
    "frequency": "1hrPt", 
    "cell_measures": "area: areacella", 
    "valid_min": null, 
    "valid_max": null, 
    "ok_min_mean_abs": null, 
    "ok_max_mean_abs": null, 
    "priority": 3.0, 
    "MIPs (requesting)": "  HighResMIP(3)", 
    "experiments": "  amip (HighResMIP:3)"
  }, 
  "ta27": {
    "CMOR Name": "ta27", 
    "CMOR Name, any freq": "ta27", 
    "CCCma check": null, 
    "CCCma hist file": null, 
    "CCCma hist var names": null, 
    "CCCma hist var frequency": null, 
    "CCCma TS var name": null, 
    "CCCma diag file": null, 
    "CCCma units": null, 
    "CCCma optional deck": null, 
    "CCCma comment": null, 
    "CCCma NetCDF comment": null, 
    "CCCma target vertical grid": null, 
    "CCCma target horizontal grid": null, 
    "Include only for": null, 
    "Exclude for": null, 
    "long_name": "Air Temperature", 
    "units": "K", 
    "description": "Model levels or plev_27", 
    "comment": "Air Temperature", 
    "out_name": "ta", 
    "standard_name": "air_temperature", 
    "cell_methods": "area: mean time: point", 
    "positive": null, 
    "type": "real", 
    "dimensions": "longitude latitude plev27 time1", 
    "modeling_realm": "atmos", 
    "frequency": "1hrPt", 
    "cell_measures": "area: areacella", 
    "valid_min": null, 
    "valid_max": null, 
    "ok_min_mean_abs": null, 
    "ok_max_mean_abs": null, 
    "priority": 3.0, 
    "MIPs (requesting)": "  HighResMIP(3)", 
    "experiments": "  amip (HighResMIP:3)"
  }, 
  "tntr27": {
    "CMOR Name": "tntr27", 
    "CMOR Name, any freq": "tntr27", 
    "CCCma check": null, 
    "CCCma hist file": null, 
    "CCCma hist var names": null, 
    "CCCma hist var frequency": null, 
    "CCCma TS var name": null, 
    "CCCma diag file": null, 
    "CCCma units": null, 
    "CCCma optional deck": null, 
    "CCCma comment": null, 
    "CCCma NetCDF comment": null, 
    "CCCma target vertical grid": null, 
    "CCCma target horizontal grid": null, 
    "Include only for": null, 
    "Exclude for": null, 
    "long_name": "Tendency of Air Temperature Due to Radiative Heating", 
    "units": "K s-1", 
    "description": "Model levels or plev_27", 
    "comment": "Tendency of Air Temperature due to Radiative Heating", 
    "out_name": "tntr", 
    "standard_name": "tendency_of_air_temperature_due_to_radiative_heating", 
    "cell_methods": "area: mean time: point", 
    "positive": null, 
    "type": "real", 
    "dimensions": "longitude latitude plev27 time1", 
    "modeling_realm": "atmos", 
    "frequency": "1hrPt", 
    "cell_measures": "area: areacella", 
    "valid_min": null, 
    "valid_max": null, 
    "ok_min_mean_abs": null, 
    "ok_max_mean_abs": null, 
    "priority": 3.0, 
    "MIPs (requesting)": "  HighResMIP(3)", 
    "experiments": "  amip (HighResMIP:3)"
  }, 
  "ua": {
    "CMOR Name": "ua", 
    "CMOR Name, any freq": "ua", 
    "CCCma check": null, 
    "CCCma hist file": null, 
    "CCCma hist var names": null, 
    "CCCma hist var frequency": null, 
    "CCCma TS var name": null, 
    "CCCma diag file": null, 
    "CCCma units": null, 
    "CCCma optional deck": null, 
    "CCCma comment": null, 
    "CCCma NetCDF comment": null, 
    "CCCma target vertical grid": null, 
    "CCCma target horizontal grid": null, 
    "Include only for": null, 
    "Exclude for": null, 
    "long_name": "Eastward Wind", 
    "units": "m s-1", 
    "description": "Pressure levels (3)", 
    "comment": "Zonal wind (positive in a eastward direction).", 
    "out_name": "ua", 
    "standard_name": "eastward_wind", 
    "cell_methods": "area: mean time: point", 
    "positive": null, 
    "type": "real", 
    "dimensions": "longitude latitude plev3 time1", 
    "modeling_realm": "atmos", 
    "frequency": "1hrPt", 
    "cell_measures": "area: areacella", 
    "valid_min": null, 
    "valid_max": null, 
    "ok_min_mean_abs": null, 
    "ok_max_mean_abs": null, 
    "priority": 3.0, 
    "MIPs (requesting)": "  HighResMIP(3)", 
    "experiments": "  amip (HighResMIP:3)"
  }, 
  "ua27": {
    "CMOR Name": "ua27", 
    "CMOR Name, any freq": "ua27", 
    "CCCma check": null, 
    "CCCma hist file": null, 
    "CCCma hist var names": null, 
    "CCCma hist var frequency": null, 
    "CCCma TS var name": null, 
    "CCCma diag file": null, 
    "CCCma units": null, 
    "CCCma optional deck": null, 
    "CCCma comment": null, 
    "CCCma NetCDF comment": null, 
    "CCCma target vertical grid": null, 
    "CCCma target horizontal grid": null, 
    "Include only for": null, 
    "Exclude for": null, 
    "long_name": "Eastward Wind", 
    "units": "m s-1", 
    "description": "Model levels or plev_27", 
    "comment": "Zonal wind (positive in a eastward direction).", 
    "out_name": "ua", 
    "standard_name": "eastward_wind", 
    "cell_methods": "area: mean time: point", 
    "positive": null, 
    "type": "real", 
    "dimensions": "longitude latitude plev27 time1", 
    "modeling_realm": "atmos", 
    "frequency": "1hrPt", 
    "cell_measures": "area: areacella", 
    "valid_min": null, 
    "valid_max": null, 
    "ok_min_mean_abs": null, 
    "ok_max_mean_abs": null, 
    "priority": 3.0, 
    "MIPs (requesting)": "  HighResMIP(3)", 
    "experiments": "  amip (HighResMIP:3)"
  }, 
  "utendnogw27": {
    "CMOR Name": "utendnogw27", 
    "CMOR Name, any freq": "utendnogw27", 
    "CCCma check": null, 
    "CCCma hist file": null, 
    "CCCma hist var names": null, 
    "CCCma hist var frequency": null, 
    "CCCma TS var name": null, 
    "CCCma diag file": null, 
    "CCCma units": null, 
    "CCCma optional deck": null, 
    "CCCma comment": null, 
    "CCCma NetCDF comment": null, 
    "CCCma target vertical grid": null, 
    "CCCma target horizontal grid": null, 
    "Include only for": null, 
    "Exclude for": null, 
    "long_name": "Eastward Acceleration Due to Non-Orographic Gravity Wave Drag", 
    "units": "m s-2", 
    "description": "lower priority", 
    "comment": "Tendency of the eastward wind by parameterized nonorographic gravity waves.", 
    "out_name": "utendnogw", 
    "standard_name": "tendency_of_eastward_wind_due_to_nonorographic_gravity_wave_drag", 
    "cell_methods": "area: mean time: point", 
    "positive": null, 
    "type": "real", 
    "dimensions": "longitude latitude plev27 time1", 
    "modeling_realm": "atmos", 
    "frequency": "1hrPt", 
    "cell_measures": "area: areacella", 
    "valid_min": null, 
    "valid_max": null, 
    "ok_min_mean_abs": null, 
    "ok_max_mean_abs": null, 
    "priority": 3.0, 
    "MIPs (requesting)": "  HighResMIP(3)", 
    "experiments": "  amip (HighResMIP:3)"
  }, 
  "va": {
    "CMOR Name": "va", 
    "CMOR Name, any freq": "va", 
    "CCCma check": null, 
    "CCCma hist file": null, 
    "CCCma hist var names": null, 
    "CCCma hist var frequency": null, 
    "CCCma TS var name": null, 
    "CCCma diag file": null, 
    "CCCma units": null, 
    "CCCma optional deck": null, 
    "CCCma comment": null, 
    "CCCma NetCDF comment": null, 
    "CCCma target vertical grid": null, 
    "CCCma target horizontal grid": null, 
    "Include only for": null, 
    "Exclude for": null, 
    "long_name": "Northward Wind", 
    "units": "m s-1", 
    "description": "Pressure levels (3)", 
    "comment": "Meridional wind (positive in a northward direction).", 
    "out_name": "va", 
    "standard_name": "northward_wind", 
    "cell_methods": "area: mean time: point", 
    "positive": null, 
    "type": "real", 
    "dimensions": "longitude latitude plev3 time1", 
    "modeling_realm": "atmos", 
    "frequency": "1hrPt", 
    "cell_measures": "area: areacella", 
    "valid_min": null, 
    "valid_max": null, 
    "ok_min_mean_abs": null, 
    "ok_max_mean_abs": null, 
    "priority": 3.0, 
    "MIPs (requesting)": "  HighResMIP(3)", 
    "experiments": "  amip (HighResMIP:3)"
  }, 
  "va27": {
    "CMOR Name": "va27", 
    "CMOR Name, any freq": "va27", 
    "CCCma check": null, 
    "CCCma hist file": null, 
    "CCCma hist var names": null, 
    "CCCma hist var frequency": null, 
    "CCCma TS var name": null, 
    "CCCma diag file": null, 
    "CCCma units": null, 
    "CCCma optional deck": null, 
    "CCCma comment": null, 
    "CCCma NetCDF comment": null, 
    "CCCma target vertical grid": null, 
    "CCCma target horizontal grid": null, 
    "Include only for": null, 
    "Exclude for": null, 
    "long_name": "Northward Wind", 
    "units": "m s-1", 
    "description": "Model levels or plev_27", 
    "comment": "Meridional wind (positive in a northward direction).", 
    "out_name": "va", 
    "standard_name": "northward_wind", 
    "cell_methods": "area: mean time: point", 
    "positive": null, 
    "type": "real", 
    "dimensions": "longitude latitude plev27 time1", 
    "modeling_realm": "atmos", 
    "frequency": "1hrPt", 
    "cell_measures": "area: areacella", 
    "valid_min": null, 
    "valid_max": null, 
    "ok_min_mean_abs": null, 
    "ok_max_mean_abs": null, 
    "priority": 3.0, 
    "MIPs (requesting)": "  HighResMIP(3)", 
    "experiments": "  amip (HighResMIP:3)"
  }, 
  "vtendnogw27": {
    "CMOR Name": "vtendnogw27", 
    "CMOR Name, any freq": "vtendnogw27", 
    "CCCma check": null, 
    "CCCma hist file": null, 
    "CCCma hist var names": null, 
    "CCCma hist var frequency": null, 
    "CCCma TS var name": null, 
    "CCCma diag file": null, 
    "CCCma units": null, 
    "CCCma optional deck": null, 
    "CCCma comment": null, 
    "CCCma NetCDF comment": null, 
    "CCCma target vertical grid": null, 
    "CCCma target horizontal grid": null, 
    "Include only for": null, 
    "Exclude for": null, 
    "long_name": "Northward Acceleration Due to Non-Orographic Gravity Wave Drag", 
    "units": "m s-2", 
    "description": "lower priority", 
    "comment": "Tendency of the northward wind by parameterized nonorographic gravity waves.  (Note that CF name tables only have a general northward tendency for all gravity waves, and we need it separated by type.)", 
    "out_name": "vtendnogw", 
    "standard_name": "tendency_of_northward_wind_due_to_nonorographic_gravity_wave_drag", 
    "cell_methods": "area: mean time: point", 
    "positive": null, 
    "type": "real", 
    "dimensions": "longitude latitude plev27 time1", 
    "modeling_realm": "atmos", 
    "frequency": "1hrPt", 
    "cell_measures": "area: areacella", 
    "valid_min": null, 
    "valid_max": null, 
    "ok_min_mean_abs": null, 
    "ok_max_mean_abs": null, 
    "priority": 3.0, 
    "MIPs (requesting)": "  HighResMIP(3)", 
    "experiments": "  amip (HighResMIP:3)"
  }, 
  "wap": {
    "CMOR Name": "wap", 
    "CMOR Name, any freq": "wap", 
    "CCCma check": null, 
    "CCCma hist file": null, 
    "CCCma hist var names": null, 
    "CCCma hist var frequency": null, 
    "CCCma TS var name": null, 
    "CCCma diag file": null, 
    "CCCma units": null, 
    "CCCma optional deck": null, 
    "CCCma comment": null, 
    "CCCma NetCDF comment": null, 
    "CCCma target vertical grid": null, 
    "CCCma target horizontal grid": null, 
    "Include only for": null, 
    "Exclude for": null, 
    "long_name": "Omega (=dp/dt)", 
    "units": "Pa s-1", 
    "description": "Pressure levels (3)", 
    "comment": "Omega (vertical velocity in pressure coordinates, positive downwards)", 
    "out_name": "wap", 
    "standard_name": "lagrangian_tendency_of_air_pressure", 
    "cell_methods": "area: mean time: point", 
    "positive": null, 
    "type": "real", 
    "dimensions": "longitude latitude plev3 time1", 
    "modeling_realm": "atmos", 
    "frequency": "1hrPt", 
    "cell_measures": "area: areacella", 
    "valid_min": null, 
    "valid_max": null, 
    "ok_min_mean_abs": null, 
    "ok_max_mean_abs": null, 
    "priority": 3.0, 
    "MIPs (requesting)": "  HighResMIP(3)", 
    "experiments": "  amip (HighResMIP:3)"
  }, 
  "wap27": {
    "CMOR Name": "wap27", 
    "CMOR Name, any freq": "wap27", 
    "CCCma check": null, 
    "CCCma hist file": null, 
    "CCCma hist var names": null, 
    "CCCma hist var frequency": null, 
    "CCCma TS var name": null, 
    "CCCma diag file": null, 
    "CCCma units": null, 
    "CCCma optional deck": null, 
    "CCCma comment": null, 
    "CCCma NetCDF comment": null, 
    "CCCma target vertical grid": null, 
    "CCCma target horizontal grid": null, 
    "Include only for": null, 
    "Exclude for": null, 
    "long_name": "Omega (=dp/dt)", 
    "units": "Pa s-1", 
    "description": "Model levels or plev_27", 
    "comment": "Omega (vertical velocity in pressure coordinates, positive downwards)", 
    "out_name": "wap", 
    "standard_name": "lagrangian_tendency_of_air_pressure", 
    "cell_methods": "area: mean time: point", 
    "positive": null, 
    "type": "real", 
    "dimensions": "longitude latitude plev27 time1", 
    "modeling_realm": "atmos", 
    "frequency": "1hrPt", 
    "cell_measures": "area: areacella", 
    "valid_min": null, 
    "valid_max": null, 
    "ok_min_mean_abs": null, 
    "ok_max_mean_abs": null, 
    "priority": 3.0, 
    "MIPs (requesting)": "  HighResMIP(3)", 
    "experiments": "  amip (HighResMIP:3)"
  }, 
  "zg27": {
    "CMOR Name": "zg27", 
    "CMOR Name, any freq": "zg27", 
    "CCCma check": null, 
    "CCCma hist file": null, 
    "CCCma hist var names": null, 
    "CCCma hist var frequency": null, 
    "CCCma TS var name": null, 
    "CCCma diag file": null, 
    "CCCma units": null, 
    "CCCma optional deck": null, 
    "CCCma comment": null, 
    "CCCma NetCDF comment": null, 
    "CCCma target vertical grid": null, 
    "CCCma target horizontal grid": null, 
    "Include only for": null, 
    "Exclude for": null, 
    "long_name": "Geopotential Height", 
    "units": "m", 
    "description": "Model levels or plev_27", 
    "comment": "Geopotential is the sum of the specific gravitational potential energy relative to the geoid and the specific centripetal potential energy. Geopotential height is the geopotential divided by the standard acceleration due to gravity. It is numerically similar to the altitude (or geometric height) and not to the quantity with standard name height, which is relative to the surface.", 
    "out_name": "zg", 
    "standard_name": "geopotential_height", 
    "cell_methods": "area: mean time: point", 
    "positive": null, 
    "type": "real", 
    "dimensions": "longitude latitude plev27 time1", 
    "modeling_realm": "atmos", 
    "frequency": "1hrPt", 
    "cell_measures": "area: areacella", 
    "valid_min": null, 
    "valid_max": null, 
    "ok_min_mean_abs": null, 
    "ok_max_mean_abs": null, 
    "priority": 3.0, 
    "MIPs (requesting)": "  HighResMIP(3)", 
    "experiments": "  amip (HighResMIP:3)"
  }
}