{
  "_metadata_": {
    "Source file": "output_variables_dreq01.00.31_CANOE__BACKUP_26Mar2021_18h26m06sUTC.xlsx output_variables_dreq01.00.31__BACKUP_26Mar2021_18h26m02sUTC.xlsx", 
    "MIP table": "AERhr"
  }, 
  "ps": {
    "CMOR Name": "ps", 
    "CMOR Name, any freq": "ps", 
    "CCCma check": "?", 
    "CCCma hist file": null, 
    "CCCma hist var names": null, 
    "CCCma hist var frequency": null, 
    "CCCma TS var name": null, 
    "CCCma diag file": null, 
    "CCCma units": null, 
    "CCCma optional deck": null, 
    "CCCma comment": "ML to add PSHR  in Pa similar to our other HF fields.", 
    "CCCma NetCDF comment": null, 
    "CCCma target vertical grid": null, 
    "CCCma target horizontal grid": null, 
    "Include only for": null, 
    "Exclude for": null, 
    "long_name": "Surface Air Pressure", 
    "units": "Pa", 
    "description": "surface pressure (not mean sea-level pressure), 2-D field to calculate the 3-D pressure field from hybrid coordinates", 
    "comment": "surface pressure (not mean sea-level pressure), 2-D field to calculate the 3-D pressure field from hybrid coordinates", 
    "out_name": "ps", 
    "standard_name": "surface_air_pressure", 
    "cell_methods": "area: time: mean", 
    "positive": null, 
    "type": "real", 
    "dimensions": "longitude latitude time", 
    "modeling_realm": "atmos", 
    "frequency": "1hr", 
    "cell_measures": "area: areacella", 
    "valid_min": null, 
    "valid_max": null, 
    "ok_min_mean_abs": null, 
    "ok_max_mean_abs": null, 
    "priority": 1.0, 
    "MIPs (requesting)": "  AerChemMIP(1,1)", 
    "experiments": "  amip (AerChemMIP:1), historical (AerChemMIP:1)"
  }, 
  "sfno2": {
    "CMOR Name": "sfno2", 
    "CMOR Name, any freq": "sfno2", 
    "CCCma check": "N/A, Jason", 
    "CCCma hist file": null, 
    "CCCma hist var names": null, 
    "CCCma hist var frequency": null, 
    "CCCma TS var name": null, 
    "CCCma diag file": null, 
    "CCCma units": null, 
    "CCCma optional deck": null, 
    "CCCma comment": null, 
    "CCCma NetCDF comment": null, 
    "CCCma target vertical grid": null, 
    "CCCma target horizontal grid": null, 
    "Include only for": null, 
    "Exclude for": null, 
    "long_name": "NO2 Volume Mixing Ratio in Lowest Model Layer", 
    "units": "mol mol-1", 
    "description": "Mole fraction is used in the construction mole_fraction_of_X_in_Y, where X is a material constituent of Y.", 
    "comment": "Mole fraction is used in the construction mole_fraction_of_X_in_Y, where X is a material constituent of Y.", 
    "out_name": "sfno2", 
    "standard_name": "mole_fraction_of_nitrogen_dioxide_in_air", 
    "cell_methods": "area: time: mean", 
    "positive": null, 
    "type": "real", 
    "dimensions": "longitude latitude time", 
    "modeling_realm": "aerosol", 
    "frequency": "1hr", 
    "cell_measures": "area: areacella", 
    "valid_min": null, 
    "valid_max": null, 
    "ok_min_mean_abs": null, 
    "ok_max_mean_abs": null, 
    "priority": 1.0, 
    "MIPs (requesting)": "  AerChemMIP(1,1)", 
    "experiments": "  amip (AerChemMIP:1), historical (AerChemMIP:1)"
  }, 
  "sfo3": {
    "CMOR Name": "sfo3", 
    "CMOR Name, any freq": "sfo3", 
    "CCCma check": "N/A, Jason", 
    "CCCma hist file": null, 
    "CCCma hist var names": null, 
    "CCCma hist var frequency": null, 
    "CCCma TS var name": null, 
    "CCCma diag file": null, 
    "CCCma units": null, 
    "CCCma optional deck": null, 
    "CCCma comment": null, 
    "CCCma NetCDF comment": null, 
    "CCCma target vertical grid": null, 
    "CCCma target horizontal grid": null, 
    "Include only for": null, 
    "Exclude for": null, 
    "long_name": "O3 Volume Mixing Ratio in Lowest Model Layer", 
    "units": "mol mol-1", 
    "description": "Mole fraction is used in the construction mole_fraction_of_X_in_Y, where X is a material constituent of Y.", 
    "comment": "Mole fraction is used in the construction mole_fraction_of_X_in_Y, where X is a material constituent of Y.", 
    "out_name": "sfo3", 
    "standard_name": "mole_fraction_of_ozone_in_air", 
    "cell_methods": "area: time: mean", 
    "positive": null, 
    "type": "real", 
    "dimensions": "longitude latitude time", 
    "modeling_realm": "aerosol", 
    "frequency": "1hr", 
    "cell_measures": "area: areacella", 
    "valid_min": null, 
    "valid_max": null, 
    "ok_min_mean_abs": null, 
    "ok_max_mean_abs": null, 
    "priority": 1.0, 
    "MIPs (requesting)": "  AerChemMIP(1,1), VIACSAB(1,1)", 
    "experiments": "  1pctCO2 (VIACSAB:1), historical (AerChemMIP:1,VIACSAB:1), amip (AerChemMIP:1)"
  }, 
  "sfpm25": {
    "CMOR Name": "sfpm25", 
    "CMOR Name, any freq": "sfpm25", 
    "CCCma check": "N/A, Jason", 
    "CCCma hist file": null, 
    "CCCma hist var names": null, 
    "CCCma hist var frequency": null, 
    "CCCma TS var name": null, 
    "CCCma diag file": null, 
    "CCCma units": null, 
    "CCCma optional deck": null, 
    "CCCma comment": null, 
    "CCCma NetCDF comment": null, 
    "CCCma target vertical grid": null, 
    "CCCma target horizontal grid": null, 
    "Include only for": null, 
    "Exclude for": null, 
    "long_name": "PM2.5 Mass Mixing Ratio in Lowest Model Layer", 
    "units": "kg kg-1", 
    "description": "Mass fraction of atmospheric particulate compounds with an aerodynamic diameter of less than or equal to 2.5 micrometers. To specify the relative humidity and temperature at which the particle size applies, provide scalar coordinate variables with the standard names of \"relative_humidity\" and \"air_temperature\".", 
    "comment": "Mass fraction of atmospheric particulate compounds with an aerodynamic diameter of less than or equal to 2.5 micrometers. To specify the relative humidity and temperature at which the particle size applies, provide scalar coordinate variables with the standard names of \"relative_humidity\" and \"air_temperature\".", 
    "out_name": "sfpm25", 
    "standard_name": "mass_fraction_of_pm2p5_ambient_aerosol_particles_in_air", 
    "cell_methods": "area: time: mean", 
    "positive": null, 
    "type": "real", 
    "dimensions": "longitude latitude time", 
    "modeling_realm": "aerosol", 
    "frequency": "1hr", 
    "cell_measures": "area: areacella", 
    "valid_min": null, 
    "valid_max": null, 
    "ok_min_mean_abs": null, 
    "ok_max_mean_abs": null, 
    "priority": 1.0, 
    "MIPs (requesting)": "  AerChemMIP(1,1)", 
    "experiments": "  amip (AerChemMIP:1), historical (AerChemMIP:1)"
  }, 
  "tas": {
    "CMOR Name": "tas", 
    "CMOR Name, any freq": "tas", 
    "CCCma check": "?", 
    "CCCma hist file": null, 
    "CCCma hist var names": null, 
    "CCCma hist var frequency": null, 
    "CCCma TS var name": null, 
    "CCCma diag file": null, 
    "CCCma units": null, 
    "CCCma optional deck": null, 
    "CCCma comment": "ML to add STHR in deg K similar to our other HF fields.", 
    "CCCma NetCDF comment": null, 
    "CCCma target vertical grid": null, 
    "CCCma target horizontal grid": null, 
    "Include only for": null, 
    "Exclude for": null, 
    "long_name": "Near-Surface Air Temperature", 
    "units": "K", 
    "description": "Temperature at surface", 
    "comment": "near-surface (usually, 2 meter) air temperature", 
    "out_name": "tas", 
    "standard_name": "air_temperature", 
    "cell_methods": "area: time: mean", 
    "positive": null, 
    "type": "real", 
    "dimensions": "longitude latitude time height2m", 
    "modeling_realm": "atmos", 
    "frequency": "1hr", 
    "cell_measures": "area: areacella", 
    "valid_min": null, 
    "valid_max": null, 
    "ok_min_mean_abs": null, 
    "ok_max_mean_abs": null, 
    "priority": 1.0, 
    "MIPs (requesting)": "  AerChemMIP(1,1)", 
    "experiments": "  amip (AerChemMIP:1), historical (AerChemMIP:1)"
  }
}