{
    "activity_id":{
        "AerChemMIP":"Aerosols and Chemistry Model Intercomparison Project",
        "C4MIP":"Coupled Climate Carbon Cycle Model Intercomparison Project",
        "CDRMIP":"Carbon Dioxide Removal Model Intercomparison Project",
        "CFMIP":"Cloud Feedback Model Intercomparison Project",
        "CMIP":"CMIP DECK: 1pctCO2, abrupt4xCO2, amip, esm-piControl, esm-historical, historical, and piControl experiments",
        "CORDEX":"Coordinated Regional Climate Downscaling Experiment",
        "DAMIP":"Detection and Attribution Model Intercomparison Project",
        "DCPP":"Decadal Climate Prediction Project",
        "DynVarMIP":"Dynamics and Variability Model Intercomparison Project",
        "FAFMIP":"Flux-Anomaly-Forced Model Intercomparison Project",
        "GMMIP":"Global Monsoons Model Intercomparison Project",
        "GeoMIP":"Geoengineering Model Intercomparison Project",
        "HighResMIP":"High-Resolution Model Intercomparison Project",
        "ISMIP6":"Ice Sheet Model Intercomparison Project for CMIP6",
        "LS3MIP":"Land Surface, Snow and Soil Moisture",
        "LUMIP":"Land-Use Model Intercomparison Project",
        "OMIP":"Ocean Model Intercomparison Project",
        "PAMIP":"Polar Amplification Model Intercomparison Project",
        "PMIP":"Palaeoclimate Modelling Intercomparison Project",
        "RFMIP":"Radiative Forcing Model Intercomparison Project",
        "SIMIP":"Sea Ice Model Intercomparison Project",
        "ScenarioMIP":"Scenario Model Intercomparison Project",
        "VIACSAB":"Vulnerability, Impacts, Adaptation and Climate Services Advisory Board",
        "VolMIP":"Volcanic Forcings Model Intercomparison Project"
    },
    "version_metadata":{
        "CV_collection_modified":"Tue Oct  4 16:30:34 2022 -0700",
        "CV_collection_version":"6.2.58.45",
        "activity_id_CV_modified":"Mon Mar  5 16:39:09 2018 -0800",
        "activity_id_CV_note":"Update activity_id to include CDRMIP and PAMIP",
        "author":"Paul J. Durack <durack1@llnl.gov>",
        "institution_id":"PCMDI",
        "previous_commit":"f3ca8e9e89e0a3ab5b525839c9d58dc3ce871588",
        "specs_doc":"v6.2.7 (10th September 2018; https://goo.gl/v1drZl)"
    }
}